DatetimeBegin,number,step,depthBelowLandLayer,stl1
2015-01-01 00:00:00,0,0 days,0.0,274.3833
2015-01-01 01:00:00,0,0 days,0.0,274.19556
2015-01-01 02:00:00,0,0 days,0.0,274.0681
2015-01-01 03:00:00,0,0 days,0.0,274.0027
2015-01-01 04:00:00,0,0 days,0.0,273.96484
2015-01-01 05:00:00,0,0 days,0.0,273.95752
2015-01-01 06:00:00,0,0 days,0.0,273.95898
2015-01-01 07:00:00,0,0 days,0.0,274.09644
2015-01-01 08:00:00,0,0 days,0.0,274.24292
2015-01-01 09:00:00,0,0 days,0.0,274.43823
2015-01-01 10:00:00,0,0 days,0.0,274.75098
2015-01-01 11:00:00,0,0 days,0.0,275.10986
2015-01-01 12:00:00,0,0 days,0.0,275.479
2015-01-01 13:00:00,0,0 days,0.0,275.79126
2015-01-01 14:00:00,0,0 days,0.0,275.87256
2015-01-01 15:00:00,0,0 days,0.0,275.667
2015-01-01 16:00:00,0,0 days,0.0,275.3274
2015-01-01 17:00:00,0,0 days,0.0,275.0752
2015-01-01 18:00:00,0,0 days,0.0,274.97217
2015-01-01 19:00:00,0,0 days,0.0,274.90747
2015-01-01 20:00:00,0,0 days,0.0,274.87183
2015-01-01 21:00:00,0,0 days,0.0,274.7876
2015-01-01 22:00:00,0,0 days,0.0,274.76245
2015-01-01 23:00:00,0,0 days,0.0,274.77197
2015-01-02 00:00:00,0,0 days,0.0,274.83618
2015-01-02 01:00:00,0,0 days,0.0,274.9895
2015-01-02 02:00:00,0,0 days,0.0,275.28516
2015-01-02 03:00:00,0,0 days,0.0,275.56616
2015-01-02 04:00:00,0,0 days,0.0,275.854
2015-01-02 05:00:00,0,0 days,0.0,276.08276
2015-01-02 06:00:00,0,0 days,0.0,276.33252
2015-01-02 07:00:00,0,0 days,0.0,276.64673
2015-01-02 08:00:00,0,0 days,0.0,276.99
2015-01-02 09:00:00,0,0 days,0.0,277.4165
2015-01-02 10:00:00,0,0 days,0.0,277.88647
2015-01-02 11:00:00,0,0 days,0.0,278.3943
2015-01-02 12:00:00,0,0 days,0.0,278.58398
2015-01-02 13:00:00,0,0 days,0.0,278.72754
2015-01-02 14:00:00,0,0 days,0.0,278.6809
2015-01-02 15:00:00,0,0 days,0.0,278.3435
2015-01-02 16:00:00,0,0 days,0.0,277.72095
2015-01-02 17:00:00,0,0 days,0.0,277.1858
2015-01-02 18:00:00,0,0 days,0.0,276.65234
2015-01-02 19:00:00,0,0 days,0.0,276.21997
2015-01-02 20:00:00,0,0 days,0.0,275.86572
2015-01-02 21:00:00,0,0 days,0.0,275.59375
2015-01-02 22:00:00,0,0 days,0.0,275.31104
2015-01-02 23:00:00,0,0 days,0.0,275.10742
2015-01-03 00:00:00,0,0 days,0.0,275.10938
2015-01-03 01:00:00,0,0 days,0.0,275.219
2015-01-03 02:00:00,0,0 days,0.0,275.28906
2015-01-03 03:00:00,0,0 days,0.0,275.08496
2015-01-03 04:00:00,0,0 days,0.0,275.16284
2015-01-03 05:00:00,0,0 days,0.0,275.34155
2015-01-03 06:00:00,0,0 days,0.0,275.5271
2015-01-03 07:00:00,0,0 days,0.0,275.6731
2015-01-03 08:00:00,0,0 days,0.0,275.77808
2015-01-03 09:00:00,0,0 days,0.0,275.78638
2015-01-03 10:00:00,0,0 days,0.0,275.7539
2015-01-03 11:00:00,0,0 days,0.0,275.78223
2015-01-03 12:00:00,0,0 days,0.0,275.82666
2015-01-03 13:00:00,0,0 days,0.0,275.9431
2015-01-03 14:00:00,0,0 days,0.0,276.0901
2015-01-03 15:00:00,0,0 days,0.0,276.2666
2015-01-03 16:00:00,0,0 days,0.0,276.34448
2015-01-03 17:00:00,0,0 days,0.0,276.2976
2015-01-03 18:00:00,0,0 days,0.0,276.16235
2015-01-03 19:00:00,0,0 days,0.0,275.9873
2015-01-03 20:00:00,0,0 days,0.0,275.86377
2015-01-03 21:00:00,0,0 days,0.0,275.77222
2015-01-03 22:00:00,0,0 days,0.0,275.76196
2015-01-03 23:00:00,0,0 days,0.0,275.7788
2015-01-04 00:00:00,0,0 days,0.0,275.80884
2015-01-04 01:00:00,0,0 days,0.0,275.89673
2015-01-04 02:00:00,0,0 days,0.0,275.865
2015-01-04 03:00:00,0,0 days,0.0,275.75586
2015-01-04 04:00:00,0,0 days,0.0,275.66675
2015-01-04 05:00:00,0,0 days,0.0,275.61816
2015-01-04 06:00:00,0,0 days,0.0,275.51636
2015-01-04 07:00:00,0,0 days,0.0,275.22168
2015-01-04 08:00:00,0,0 days,0.0,275.10913
2015-01-04 09:00:00,0,0 days,0.0,275.35547
2015-01-04 10:00:00,0,0 days,0.0,275.92236
2015-01-04 11:00:00,0,0 days,0.0,276.44775
2015-01-04 12:00:00,0,0 days,0.0,276.96997
2015-01-04 13:00:00,0,0 days,0.0,277.3506
2015-01-04 14:00:00,0,0 days,0.0,277.37134
2015-01-04 15:00:00,0,0 days,0.0,277.15942
2015-01-04 16:00:00,0,0 days,0.0,276.39722
2015-01-04 17:00:00,0,0 days,0.0,275.72217
2015-01-04 18:00:00,0,0 days,0.0,275.18213
2015-01-04 19:00:00,0,0 days,0.0,274.79736
2015-01-04 20:00:00,0,0 days,0.0,274.51587
2015-01-04 21:00:00,0,0 days,0.0,274.3318
2015-01-04 22:00:00,0,0 days,0.0,274.0039
2015-01-04 23:00:00,0,0 days,0.0,273.87866
2015-01-05 00:00:00,0,0 days,0.0,273.8208
2015-01-05 01:00:00,0,0 days,0.0,273.77563
2015-01-05 02:00:00,0,0 days,0.0,273.77466
2015-01-05 03:00:00,0,0 days,0.0,273.7544
2015-01-05 04:00:00,0,0 days,0.0,273.72925
2015-01-05 05:00:00,0,0 days,0.0,273.71167
2015-01-05 06:00:00,0,0 days,0.0,273.6914
2015-01-05 07:00:00,0,0 days,0.0,273.67407
2015-01-05 08:00:00,0,0 days,0.0,273.6443
2015-01-05 09:00:00,0,0 days,0.0,273.67236
2015-01-05 10:00:00,0,0 days,0.0,273.78247
2015-01-05 11:00:00,0,0 days,0.0,273.96094
2015-01-05 12:00:00,0,0 days,0.0,274.29126
2015-01-05 13:00:00,0,0 days,0.0,275.04028
2015-01-05 14:00:00,0,0 days,0.0,275.438
2015-01-05 15:00:00,0,0 days,0.0,275.38086
2015-01-05 16:00:00,0,0 days,0.0,274.89038
2015-01-05 17:00:00,0,0 days,0.0,274.47095
2015-01-05 18:00:00,0,0 days,0.0,274.19238
2015-01-05 19:00:00,0,0 days,0.0,273.969
2015-01-05 20:00:00,0,0 days,0.0,273.82715
2015-01-05 21:00:00,0,0 days,0.0,273.77588
2015-01-05 22:00:00,0,0 days,0.0,273.72583
2015-01-05 23:00:00,0,0 days,0.0,273.67725
2015-01-06 00:00:00,0,0 days,0.0,273.615
2015-01-06 01:00:00,0,0 days,0.0,273.55103
2015-01-06 02:00:00,0,0 days,0.0,273.50366
2015-01-06 03:00:00,0,0 days,0.0,273.4568
2015-01-06 04:00:00,0,0 days,0.0,273.40308
2015-01-06 05:00:00,0,0 days,0.0,273.36182
2015-01-06 06:00:00,0,0 days,0.0,273.33032
2015-01-06 07:00:00,0,0 days,0.0,273.30835
2015-01-06 08:00:00,0,0 days,0.0,273.29053
2015-01-06 09:00:00,0,0 days,0.0,273.30737
2015-01-06 10:00:00,0,0 days,0.0,273.37524
2015-01-06 11:00:00,0,0 days,0.0,273.4873
2015-01-06 12:00:00,0,0 days,0.0,273.60693
2015-01-06 13:00:00,0,0 days,0.0,273.73633
2015-01-06 14:00:00,0,0 days,0.0,273.8684
2015-01-06 15:00:00,0,0 days,0.0,273.9646
2015-01-06 16:00:00,0,0 days,0.0,273.9961
2015-01-06 17:00:00,0,0 days,0.0,274.15283
2015-01-06 18:00:00,0,0 days,0.0,274.47168
2015-01-06 19:00:00,0,0 days,0.0,274.68066
2015-01-06 20:00:00,0,0 days,0.0,274.95898
2015-01-06 21:00:00,0,0 days,0.0,275.30322
2015-01-06 22:00:00,0,0 days,0.0,275.5703
2015-01-06 23:00:00,0,0 days,0.0,275.67505
2015-01-07 00:00:00,0,0 days,0.0,275.56616
2015-01-07 01:00:00,0,0 days,0.0,275.09766
2015-01-07 02:00:00,0,0 days,0.0,274.75757
2015-01-07 03:00:00,0,0 days,0.0,274.43604
2015-01-07 04:00:00,0,0 days,0.0,274.17603
2015-01-07 05:00:00,0,0 days,0.0,273.95166
2015-01-07 06:00:00,0,0 days,0.0,273.88013
2015-01-07 07:00:00,0,0 days,0.0,273.82104
2015-01-07 08:00:00,0,0 days,0.0,273.78052
2015-01-07 09:00:00,0,0 days,0.0,273.82837
2015-01-07 10:00:00,0,0 days,0.0,273.99268
2015-01-07 11:00:00,0,0 days,0.0,274.39404
2015-01-07 12:00:00,0,0 days,0.0,275.27588
2015-01-07 13:00:00,0,0 days,0.0,275.91992
2015-01-07 14:00:00,0,0 days,0.0,276.10278
2015-01-07 15:00:00,0,0 days,0.0,275.94653
2015-01-07 16:00:00,0,0 days,0.0,275.52783
2015-01-07 17:00:00,0,0 days,0.0,275.23608
2015-01-07 18:00:00,0,0 days,0.0,275.06982
2015-01-07 19:00:00,0,0 days,0.0,274.886
2015-01-07 20:00:00,0,0 days,0.0,274.82568
2015-01-07 21:00:00,0,0 days,0.0,274.9978
2015-01-07 22:00:00,0,0 days,0.0,275.2544
2015-01-07 23:00:00,0,0 days,0.0,275.45703
2015-01-08 00:00:00,0,0 days,0.0,275.67798
2015-01-08 01:00:00,0,0 days,0.0,275.91406
2015-01-08 02:00:00,0,0 days,0.0,276.1516
2015-01-08 03:00:00,0,0 days,0.0,276.38086
2015-01-08 04:00:00,0,0 days,0.0,276.55884
2015-01-08 05:00:00,0,0 days,0.0,276.7141
2015-01-08 06:00:00,0,0 days,0.0,276.91772
2015-01-08 07:00:00,0,0 days,0.0,277.10425
2015-01-08 08:00:00,0,0 days,0.0,277.29565
2015-01-08 09:00:00,0,0 days,0.0,277.5293
2015-01-08 10:00:00,0,0 days,0.0,277.8086
2015-01-08 11:00:00,0,0 days,0.0,278.12354
2015-01-08 12:00:00,0,0 days,0.0,278.39575
2015-01-08 13:00:00,0,0 days,0.0,278.61597
2015-01-08 14:00:00,0,0 days,0.0,278.81396
2015-01-08 15:00:00,0,0 days,0.0,279.09302
2015-01-08 16:00:00,0,0 days,0.0,278.8806
2015-01-08 17:00:00,0,0 days,0.0,278.32642
2015-01-08 18:00:00,0,0 days,0.0,278.05664
2015-01-08 19:00:00,0,0 days,0.0,277.94873
2015-01-08 20:00:00,0,0 days,0.0,277.86963
2015-01-08 21:00:00,0,0 days,0.0,277.63794
2015-01-08 22:00:00,0,0 days,0.0,277.4402
2015-01-08 23:00:00,0,0 days,0.0,277.3474
2015-01-09 00:00:00,0,0 days,0.0,277.27637
2015-01-09 01:00:00,0,0 days,0.0,277.4685
2015-01-09 02:00:00,0,0 days,0.0,277.72046
2015-01-09 03:00:00,0,0 days,0.0,277.82227
2015-01-09 04:00:00,0,0 days,0.0,277.82568
2015-01-09 05:00:00,0,0 days,0.0,277.86328
2015-01-09 06:00:00,0,0 days,0.0,277.95044
2015-01-09 07:00:00,0,0 days,0.0,278.13184
2015-01-09 08:00:00,0,0 days,0.0,278.27588
2015-01-09 09:00:00,0,0 days,0.0,278.5581
2015-01-09 10:00:00,0,0 days,0.0,278.98267
2015-01-09 11:00:00,0,0 days,0.0,279.50244
2015-01-09 12:00:00,0,0 days,0.0,279.98633
2015-01-09 13:00:00,0,0 days,0.0,280.47095
2015-01-09 14:00:00,0,0 days,0.0,280.76978
2015-01-09 15:00:00,0,0 days,0.0,280.7849
2015-01-09 16:00:00,0,0 days,0.0,280.65332
2015-01-09 17:00:00,0,0 days,0.0,280.59058
2015-01-09 18:00:00,0,0 days,0.0,280.6206
2015-01-09 19:00:00,0,0 days,0.0,280.70898
2015-01-09 20:00:00,0,0 days,0.0,280.9568
2015-01-09 21:00:00,0,0 days,0.0,281.25122
2015-01-09 22:00:00,0,0 days,0.0,281.49097
2015-01-09 23:00:00,0,0 days,0.0,281.6372
2015-01-10 00:00:00,0,0 days,0.0,281.70654
2015-01-10 01:00:00,0,0 days,0.0,281.72217
2015-01-10 02:00:00,0,0 days,0.0,281.7085
2015-01-10 03:00:00,0,0 days,0.0,281.67554
2015-01-10 04:00:00,0,0 days,0.0,281.64917
2015-01-10 05:00:00,0,0 days,0.0,281.6328
2015-01-10 06:00:00,0,0 days,0.0,281.61792
2015-01-10 07:00:00,0,0 days,0.0,281.55518
2015-01-10 08:00:00,0,0 days,0.0,281.50146
2015-01-10 09:00:00,0,0 days,0.0,281.51538
2015-01-10 10:00:00,0,0 days,0.0,281.63623
2015-01-10 11:00:00,0,0 days,0.0,281.80566
2015-01-10 12:00:00,0,0 days,0.0,282.03833
2015-01-10 13:00:00,0,0 days,0.0,282.2229
2015-01-10 14:00:00,0,0 days,0.0,282.30176
2015-01-10 15:00:00,0,0 days,0.0,282.03076
2015-01-10 16:00:00,0,0 days,0.0,281.47168
2015-01-10 17:00:00,0,0 days,0.0,280.8318
2015-01-10 18:00:00,0,0 days,0.0,280.14233
2015-01-10 19:00:00,0,0 days,0.0,279.67993
2015-01-10 20:00:00,0,0 days,0.0,279.13696
2015-01-10 21:00:00,0,0 days,0.0,278.6443
2015-01-10 22:00:00,0,0 days,0.0,278.2942
2015-01-10 23:00:00,0,0 days,0.0,277.95654
2015-01-11 00:00:00,0,0 days,0.0,277.67773
2015-01-11 01:00:00,0,0 days,0.0,277.41797
2015-01-11 02:00:00,0,0 days,0.0,277.23218
2015-01-11 03:00:00,0,0 days,0.0,277.02368
2015-01-11 04:00:00,0,0 days,0.0,276.83643
2015-01-11 05:00:00,0,0 days,0.0,276.7068
2015-01-11 06:00:00,0,0 days,0.0,276.64624
2015-01-11 07:00:00,0,0 days,0.0,276.80615
2015-01-11 08:00:00,0,0 days,0.0,276.80908
2015-01-11 09:00:00,0,0 days,0.0,276.93164
2015-01-11 10:00:00,0,0 days,0.0,277.3789
2015-01-11 11:00:00,0,0 days,0.0,277.8982
2015-01-11 12:00:00,0,0 days,0.0,278.53027
2015-01-11 13:00:00,0,0 days,0.0,278.81128
2015-01-11 14:00:00,0,0 days,0.0,278.84326
2015-01-11 15:00:00,0,0 days,0.0,278.64795
2015-01-11 16:00:00,0,0 days,0.0,278.24902
2015-01-11 17:00:00,0,0 days,0.0,277.9851
2015-01-11 18:00:00,0,0 days,0.0,277.90698
2015-01-11 19:00:00,0,0 days,0.0,277.8064
2015-01-11 20:00:00,0,0 days,0.0,277.85498
2015-01-11 21:00:00,0,0 days,0.0,277.92554
2015-01-11 22:00:00,0,0 days,0.0,278.03125
2015-01-11 23:00:00,0,0 days,0.0,278.06055
2015-01-12 00:00:00,0,0 days,0.0,278.04272
2015-01-12 01:00:00,0,0 days,0.0,278.2417
2015-01-12 02:00:00,0,0 days,0.0,278.28833
2015-01-12 03:00:00,0,0 days,0.0,278.3335
2015-01-12 04:00:00,0,0 days,0.0,278.30225
2015-01-12 05:00:00,0,0 days,0.0,278.31836
2015-01-12 06:00:00,0,0 days,0.0,278.38257
2015-01-12 07:00:00,0,0 days,0.0,278.42896
2015-01-12 08:00:00,0,0 days,0.0,278.48022
2015-01-12 09:00:00,0,0 days,0.0,278.60034
2015-01-12 10:00:00,0,0 days,0.0,278.81152
2015-01-12 11:00:00,0,0 days,0.0,278.99854
2015-01-12 12:00:00,0,0 days,0.0,279.1836
2015-01-12 13:00:00,0,0 days,0.0,279.35913
2015-01-12 14:00:00,0,0 days,0.0,279.4917
2015-01-12 15:00:00,0,0 days,0.0,279.55493
2015-01-12 16:00:00,0,0 days,0.0,279.62256
2015-01-12 17:00:00,0,0 days,0.0,279.71924
2015-01-12 18:00:00,0,0 days,0.0,279.8213
2015-01-12 19:00:00,0,0 days,0.0,279.91724
2015-01-12 20:00:00,0,0 days,0.0,280.0327
2015-01-12 21:00:00,0,0 days,0.0,280.10156
2015-01-12 22:00:00,0,0 days,0.0,280.1775
2015-01-12 23:00:00,0,0 days,0.0,280.27002
2015-01-13 00:00:00,0,0 days,0.0,280.3689
2015-01-13 01:00:00,0,0 days,0.0,280.4707
2015-01-13 02:00:00,0,0 days,0.0,280.56787
2015-01-13 03:00:00,0,0 days,0.0,280.59937
2015-01-13 04:00:00,0,0 days,0.0,280.64355
2015-01-13 05:00:00,0,0 days,0.0,280.62012
2015-01-13 06:00:00,0,0 days,0.0,280.6399
2015-01-13 07:00:00,0,0 days,0.0,280.7295
2015-01-13 08:00:00,0,0 days,0.0,280.85498
2015-01-13 09:00:00,0,0 days,0.0,281.06665
2015-01-13 10:00:00,0,0 days,0.0,281.31567
2015-01-13 11:00:00,0,0 days,0.0,281.46875
2015-01-13 12:00:00,0,0 days,0.0,281.29224
2015-01-13 13:00:00,0,0 days,0.0,281.22583
2015-01-13 14:00:00,0,0 days,0.0,281.14478
2015-01-13 15:00:00,0,0 days,0.0,280.95093
2015-01-13 16:00:00,0,0 days,0.0,280.67798
2015-01-13 17:00:00,0,0 days,0.0,280.2561
2015-01-13 18:00:00,0,0 days,0.0,279.99146
2015-01-13 19:00:00,0,0 days,0.0,279.73022
2015-01-13 20:00:00,0,0 days,0.0,279.45386
2015-01-13 21:00:00,0,0 days,0.0,279.18604
2015-01-13 22:00:00,0,0 days,0.0,278.99
2015-01-13 23:00:00,0,0 days,0.0,278.89868
2015-01-14 00:00:00,0,0 days,0.0,278.95117
2015-01-14 01:00:00,0,0 days,0.0,278.9082
2015-01-14 02:00:00,0,0 days,0.0,278.60815
2015-01-14 03:00:00,0,0 days,0.0,278.3247
2015-01-14 04:00:00,0,0 days,0.0,278.01147
2015-01-14 05:00:00,0,0 days,0.0,277.8872
2015-01-14 06:00:00,0,0 days,0.0,277.71777
2015-01-14 07:00:00,0,0 days,0.0,277.4956
2015-01-14 08:00:00,0,0 days,0.0,277.47778
2015-01-14 09:00:00,0,0 days,0.0,277.58374
2015-01-14 10:00:00,0,0 days,0.0,277.78784
2015-01-14 11:00:00,0,0 days,0.0,278.01147
2015-01-14 12:00:00,0,0 days,0.0,278.26172
2015-01-14 13:00:00,0,0 days,0.0,278.34814
2015-01-14 14:00:00,0,0 days,0.0,278.28198
2015-01-14 15:00:00,0,0 days,0.0,278.04858
2015-01-14 16:00:00,0,0 days,0.0,277.71582
2015-01-14 17:00:00,0,0 days,0.0,277.2671
2015-01-14 18:00:00,0,0 days,0.0,276.8125
2015-01-14 19:00:00,0,0 days,0.0,276.65576
2015-01-14 20:00:00,0,0 days,0.0,276.73242
2015-01-14 21:00:00,0,0 days,0.0,276.87158
2015-01-14 22:00:00,0,0 days,0.0,277.12866
2015-01-14 23:00:00,0,0 days,0.0,277.44385
2015-01-15 00:00:00,0,0 days,0.0,277.7256
2015-01-15 01:00:00,0,0 days,0.0,277.95947
2015-01-15 02:00:00,0,0 days,0.0,278.21436
2015-01-15 03:00:00,0,0 days,0.0,278.45117
2015-01-15 04:00:00,0,0 days,0.0,278.6499
2015-01-15 05:00:00,0,0 days,0.0,278.79688
2015-01-15 06:00:00,0,0 days,0.0,278.92773
2015-01-15 07:00:00,0,0 days,0.0,279.20532
2015-01-15 08:00:00,0,0 days,0.0,279.3745
2015-01-15 09:00:00,0,0 days,0.0,279.5625
2015-01-15 10:00:00,0,0 days,0.0,279.71753
2015-01-15 11:00:00,0,0 days,0.0,279.85474
2015-01-15 12:00:00,0,0 days,0.0,279.95166
2015-01-15 13:00:00,0,0 days,0.0,279.97437
2015-01-15 14:00:00,0,0 days,0.0,279.90454
2015-01-15 15:00:00,0,0 days,0.0,279.89038
2015-01-15 16:00:00,0,0 days,0.0,279.823
2015-01-15 17:00:00,0,0 days,0.0,279.65576
2015-01-15 18:00:00,0,0 days,0.0,279.417
2015-01-15 19:00:00,0,0 days,0.0,279.31982
2015-01-15 20:00:00,0,0 days,0.0,279.12183
2015-01-15 21:00:00,0,0 days,0.0,278.8545
2015-01-15 22:00:00,0,0 days,0.0,278.61694
2015-01-15 23:00:00,0,0 days,0.0,278.3899
2015-01-16 00:00:00,0,0 days,0.0,278.20972
2015-01-16 01:00:00,0,0 days,0.0,278.12427
2015-01-16 02:00:00,0,0 days,0.0,277.96167
2015-01-16 03:00:00,0,0 days,0.0,277.80933
2015-01-16 04:00:00,0,0 days,0.0,277.6084
2015-01-16 05:00:00,0,0 days,0.0,277.4746
2015-01-16 06:00:00,0,0 days,0.0,277.35132
2015-01-16 07:00:00,0,0 days,0.0,277.29712
2015-01-16 08:00:00,0,0 days,0.0,277.25977
2015-01-16 09:00:00,0,0 days,0.0,277.5066
2015-01-16 10:00:00,0,0 days,0.0,278.08594
2015-01-16 11:00:00,0,0 days,0.0,278.84106
2015-01-16 12:00:00,0,0 days,0.0,279.43164
2015-01-16 13:00:00,0,0 days,0.0,279.8838
2015-01-16 14:00:00,0,0 days,0.0,279.98877
2015-01-16 15:00:00,0,0 days,0.0,279.67285
2015-01-16 16:00:00,0,0 days,0.0,278.93896
2015-01-16 17:00:00,0,0 days,0.0,278.37793
2015-01-16 18:00:00,0,0 days,0.0,277.96265
2015-01-16 19:00:00,0,0 days,0.0,277.80518
2015-01-16 20:00:00,0,0 days,0.0,277.69263
2015-01-16 21:00:00,0,0 days,0.0,277.4939
2015-01-16 22:00:00,0,0 days,0.0,277.4131
2015-01-16 23:00:00,0,0 days,0.0,277.27344
2015-01-17 00:00:00,0,0 days,0.0,277.1006
2015-01-17 01:00:00,0,0 days,0.0,276.74805
2015-01-17 02:00:00,0,0 days,0.0,276.51587
2015-01-17 03:00:00,0,0 days,0.0,276.3269
2015-01-17 04:00:00,0,0 days,0.0,276.02344
2015-01-17 05:00:00,0,0 days,0.0,275.69458
2015-01-17 06:00:00,0,0 days,0.0,275.37305
2015-01-17 07:00:00,0,0 days,0.0,275.06177
2015-01-17 08:00:00,0,0 days,0.0,274.72632
2015-01-17 09:00:00,0,0 days,0.0,275.00977
2015-01-17 10:00:00,0,0 days,0.0,275.8274
2015-01-17 11:00:00,0,0 days,0.0,276.54492
2015-01-17 12:00:00,0,0 days,0.0,277.23242
2015-01-17 13:00:00,0,0 days,0.0,277.54297
2015-01-17 14:00:00,0,0 days,0.0,277.6328
2015-01-17 15:00:00,0,0 days,0.0,277.34033
2015-01-17 16:00:00,0,0 days,0.0,276.52417
2015-01-17 17:00:00,0,0 days,0.0,275.66943
2015-01-17 18:00:00,0,0 days,0.0,275.1516
2015-01-17 19:00:00,0,0 days,0.0,275.2002
2015-01-17 20:00:00,0,0 days,0.0,275.25537
2015-01-17 21:00:00,0,0 days,0.0,275.2151
2015-01-17 22:00:00,0,0 days,0.0,275.21045
2015-01-17 23:00:00,0,0 days,0.0,275.15112
2015-01-18 00:00:00,0,0 days,0.0,275.20947
2015-01-18 01:00:00,0,0 days,0.0,275.2141
2015-01-18 02:00:00,0,0 days,0.0,275.20312
2015-01-18 03:00:00,0,0 days,0.0,275.08936
2015-01-18 04:00:00,0,0 days,0.0,274.9431
2015-01-18 05:00:00,0,0 days,0.0,274.8501
2015-01-18 06:00:00,0,0 days,0.0,274.78076
2015-01-18 07:00:00,0,0 days,0.0,274.7705
2015-01-18 08:00:00,0,0 days,0.0,274.81006
2015-01-18 09:00:00,0,0 days,0.0,274.9829
2015-01-18 10:00:00,0,0 days,0.0,275.39575
2015-01-18 11:00:00,0,0 days,0.0,275.95337
2015-01-18 12:00:00,0,0 days,0.0,276.47363
2015-01-18 13:00:00,0,0 days,0.0,276.97925
2015-01-18 14:00:00,0,0 days,0.0,277.17773
2015-01-18 15:00:00,0,0 days,0.0,276.9734
2015-01-18 16:00:00,0,0 days,0.0,276.4756
2015-01-18 17:00:00,0,0 days,0.0,275.9187
2015-01-18 18:00:00,0,0 days,0.0,275.51367
2015-01-18 19:00:00,0,0 days,0.0,275.34033
2015-01-18 20:00:00,0,0 days,0.0,275.136
2015-01-18 21:00:00,0,0 days,0.0,274.9336
2015-01-18 22:00:00,0,0 days,0.0,274.8037
2015-01-18 23:00:00,0,0 days,0.0,274.74463
2015-01-19 00:00:00,0,0 days,0.0,274.66797
2015-01-19 01:00:00,0,0 days,0.0,274.62793
2015-01-19 02:00:00,0,0 days,0.0,274.54443
2015-01-19 03:00:00,0,0 days,0.0,274.3435
2015-01-19 04:00:00,0,0 days,0.0,274.25854
2015-01-19 05:00:00,0,0 days,0.0,274.2373
2015-01-19 06:00:00,0,0 days,0.0,274.18018
2015-01-19 07:00:00,0,0 days,0.0,274.1001
2015-01-19 08:00:00,0,0 days,0.0,274.1172
2015-01-19 09:00:00,0,0 days,0.0,274.34106
2015-01-19 10:00:00,0,0 days,0.0,274.53467
2015-01-19 11:00:00,0,0 days,0.0,274.77686
2015-01-19 12:00:00,0,0 days,0.0,275.23975
2015-01-19 13:00:00,0,0 days,0.0,275.6272
2015-01-19 14:00:00,0,0 days,0.0,275.79004
2015-01-19 15:00:00,0,0 days,0.0,275.7561
2015-01-19 16:00:00,0,0 days,0.0,275.56763
2015-01-19 17:00:00,0,0 days,0.0,275.31567
2015-01-19 18:00:00,0,0 days,0.0,275.0569
2015-01-19 19:00:00,0,0 days,0.0,274.9099
2015-01-19 20:00:00,0,0 days,0.0,274.82666
2015-01-19 21:00:00,0,0 days,0.0,274.75195
2015-01-19 22:00:00,0,0 days,0.0,274.60742
2015-01-19 23:00:00,0,0 days,0.0,274.33105
2015-01-20 00:00:00,0,0 days,0.0,274.2307
2015-01-20 01:00:00,0,0 days,0.0,274.06152
2015-01-20 02:00:00,0,0 days,0.0,273.99365
2015-01-20 03:00:00,0,0 days,0.0,273.85815
2015-01-20 04:00:00,0,0 days,0.0,273.77588
2015-01-20 05:00:00,0,0 days,0.0,273.73706
2015-01-20 06:00:00,0,0 days,0.0,273.71802
2015-01-20 07:00:00,0,0 days,0.0,273.6792
2015-01-20 08:00:00,0,0 days,0.0,273.6919
2015-01-20 09:00:00,0,0 days,0.0,273.76978
2015-01-20 10:00:00,0,0 days,0.0,273.91333
2015-01-20 11:00:00,0,0 days,0.0,274.1316
2015-01-20 12:00:00,0,0 days,0.0,274.9624
2015-01-20 13:00:00,0,0 days,0.0,275.47705
2015-01-20 14:00:00,0,0 days,0.0,275.77026
2015-01-20 15:00:00,0,0 days,0.0,275.7102
2015-01-20 16:00:00,0,0 days,0.0,275.35596
2015-01-20 17:00:00,0,0 days,0.0,274.79858
2015-01-20 18:00:00,0,0 days,0.0,274.40088
2015-01-20 19:00:00,0,0 days,0.0,274.18774
2015-01-20 20:00:00,0,0 days,0.0,273.96582
2015-01-20 21:00:00,0,0 days,0.0,273.97827
2015-01-20 22:00:00,0,0 days,0.0,273.8816
2015-01-20 23:00:00,0,0 days,0.0,273.87256
2015-01-21 00:00:00,0,0 days,0.0,273.8313
2015-01-21 01:00:00,0,0 days,0.0,273.80493
2015-01-21 02:00:00,0,0 days,0.0,273.75488
2015-01-21 03:00:00,0,0 days,0.0,273.7185
2015-01-21 04:00:00,0,0 days,0.0,273.68677
2015-01-21 05:00:00,0,0 days,0.0,273.63843
2015-01-21 06:00:00,0,0 days,0.0,273.5852
2015-01-21 07:00:00,0,0 days,0.0,273.53833
2015-01-21 08:00:00,0,0 days,0.0,273.51538
2015-01-21 09:00:00,0,0 days,0.0,273.53076
2015-01-21 10:00:00,0,0 days,0.0,273.6167
2015-01-21 11:00:00,0,0 days,0.0,273.75635
2015-01-21 12:00:00,0,0 days,0.0,273.94556
2015-01-21 13:00:00,0,0 days,0.0,274.33545
2015-01-21 14:00:00,0,0 days,0.0,274.8286
2015-01-21 15:00:00,0,0 days,0.0,275.03174
2015-01-21 16:00:00,0,0 days,0.0,274.57764
2015-01-21 17:00:00,0,0 days,0.0,273.98926
2015-01-21 18:00:00,0,0 days,0.0,273.7561
2015-01-21 19:00:00,0,0 days,0.0,273.7246
2015-01-21 20:00:00,0,0 days,0.0,273.6599
2015-01-21 21:00:00,0,0 days,0.0,273.5952
2015-01-21 22:00:00,0,0 days,0.0,273.52856
2015-01-21 23:00:00,0,0 days,0.0,273.45605
2015-01-22 00:00:00,0,0 days,0.0,273.40234
2015-01-22 01:00:00,0,0 days,0.0,273.36157
2015-01-22 02:00:00,0,0 days,0.0,273.31958
2015-01-22 03:00:00,0,0 days,0.0,273.2832
2015-01-22 04:00:00,0,0 days,0.0,273.25195
2015-01-22 05:00:00,0,0 days,0.0,273.23657
2015-01-22 06:00:00,0,0 days,0.0,273.21655
2015-01-22 07:00:00,0,0 days,0.0,273.18774
2015-01-22 08:00:00,0,0 days,0.0,273.1704
2015-01-22 09:00:00,0,0 days,0.0,273.19043
2015-01-22 10:00:00,0,0 days,0.0,273.24097
2015-01-22 11:00:00,0,0 days,0.0,273.2937
2015-01-22 12:00:00,0,0 days,0.0,273.34668
2015-01-22 13:00:00,0,0 days,0.0,273.40576
2015-01-22 14:00:00,0,0 days,0.0,273.45532
2015-01-22 15:00:00,0,0 days,0.0,273.48242
2015-01-22 16:00:00,0,0 days,0.0,273.49414
2015-01-22 17:00:00,0,0 days,0.0,273.4944
2015-01-22 18:00:00,0,0 days,0.0,273.49292
2015-01-22 19:00:00,0,0 days,0.0,273.48755
2015-01-22 20:00:00,0,0 days,0.0,273.48608
2015-01-22 21:00:00,0,0 days,0.0,273.46973
2015-01-22 22:00:00,0,0 days,0.0,273.46606
2015-01-22 23:00:00,0,0 days,0.0,273.46143
2015-01-23 00:00:00,0,0 days,0.0,273.46143
2015-01-23 01:00:00,0,0 days,0.0,273.45288
2015-01-23 02:00:00,0,0 days,0.0,273.44873
2015-01-23 03:00:00,0,0 days,0.0,273.44458
2015-01-23 04:00:00,0,0 days,0.0,273.4392
2015-01-23 05:00:00,0,0 days,0.0,273.43433
2015-01-23 06:00:00,0,0 days,0.0,273.41846
2015-01-23 07:00:00,0,0 days,0.0,273.40918
2015-01-23 08:00:00,0,0 days,0.0,273.40137
2015-01-23 09:00:00,0,0 days,0.0,273.4204
2015-01-23 10:00:00,0,0 days,0.0,273.48047
2015-01-23 11:00:00,0,0 days,0.0,273.55054
2015-01-23 12:00:00,0,0 days,0.0,273.64722
2015-01-23 13:00:00,0,0 days,0.0,273.78076
2015-01-23 14:00:00,0,0 days,0.0,273.91553
2015-01-23 15:00:00,0,0 days,0.0,274.03027
2015-01-23 16:00:00,0,0 days,0.0,273.9602
2015-01-23 17:00:00,0,0 days,0.0,273.80786
2015-01-23 18:00:00,0,0 days,0.0,273.73145
2015-01-23 19:00:00,0,0 days,0.0,273.68042
2015-01-23 20:00:00,0,0 days,0.0,273.6582
2015-01-23 21:00:00,0,0 days,0.0,273.6438
2015-01-23 22:00:00,0,0 days,0.0,273.6189
2015-01-23 23:00:00,0,0 days,0.0,273.60986
2015-01-24 00:00:00,0,0 days,0.0,273.59863
2015-01-24 01:00:00,0,0 days,0.0,273.56885
2015-01-24 02:00:00,0,0 days,0.0,273.5598
2015-01-24 03:00:00,0,0 days,0.0,273.53003
2015-01-24 04:00:00,0,0 days,0.0,273.5061
2015-01-24 05:00:00,0,0 days,0.0,273.49048
2015-01-24 06:00:00,0,0 days,0.0,273.489
2015-01-24 07:00:00,0,0 days,0.0,273.5066
2015-01-24 08:00:00,0,0 days,0.0,273.5227
2015-01-24 09:00:00,0,0 days,0.0,273.5464
2015-01-24 10:00:00,0,0 days,0.0,273.5874
2015-01-24 11:00:00,0,0 days,0.0,273.65796
2015-01-24 12:00:00,0,0 days,0.0,273.75366
2015-01-24 13:00:00,0,0 days,0.0,273.87256
2015-01-24 14:00:00,0,0 days,0.0,274.01294
2015-01-24 15:00:00,0,0 days,0.0,274.19043
2015-01-24 16:00:00,0,0 days,0.0,274.2373
2015-01-24 17:00:00,0,0 days,0.0,274.21265
2015-01-24 18:00:00,0,0 days,0.0,274.1477
2015-01-24 19:00:00,0,0 days,0.0,274.09546
2015-01-24 20:00:00,0,0 days,0.0,274.0713
2015-01-24 21:00:00,0,0 days,0.0,274.02222
2015-01-24 22:00:00,0,0 days,0.0,273.98706
2015-01-24 23:00:00,0,0 days,0.0,273.94556
2015-01-25 00:00:00,0,0 days,0.0,273.8921
2015-01-25 01:00:00,0,0 days,0.0,273.8562
2015-01-25 02:00:00,0,0 days,0.0,273.8213
2015-01-25 03:00:00,0,0 days,0.0,273.81396
2015-01-25 04:00:00,0,0 days,0.0,273.8252
2015-01-25 05:00:00,0,0 days,0.0,273.8169
2015-01-25 06:00:00,0,0 days,0.0,273.8418
2015-01-25 07:00:00,0,0 days,0.0,273.864
2015-01-25 08:00:00,0,0 days,0.0,273.9021
2015-01-25 09:00:00,0,0 days,0.0,273.99268
2015-01-25 10:00:00,0,0 days,0.0,274.19116
2015-01-25 11:00:00,0,0 days,0.0,274.52344
2015-01-25 12:00:00,0,0 days,0.0,274.8767
2015-01-25 13:00:00,0,0 days,0.0,275.15918
2015-01-25 14:00:00,0,0 days,0.0,275.312
2015-01-25 15:00:00,0,0 days,0.0,275.3872
2015-01-25 16:00:00,0,0 days,0.0,275.37012
2015-01-25 17:00:00,0,0 days,0.0,275.3086
2015-01-25 18:00:00,0,0 days,0.0,275.2146
2015-01-25 19:00:00,0,0 days,0.0,275.2334
2015-01-25 20:00:00,0,0 days,0.0,275.24268
2015-01-25 21:00:00,0,0 days,0.0,275.26855
2015-01-25 22:00:00,0,0 days,0.0,275.30664
2015-01-25 23:00:00,0,0 days,0.0,275.33032
2015-01-26 00:00:00,0,0 days,0.0,275.3501
2015-01-26 01:00:00,0,0 days,0.0,275.32153
2015-01-26 02:00:00,0,0 days,0.0,275.39722
2015-01-26 03:00:00,0,0 days,0.0,275.48096
2015-01-26 04:00:00,0,0 days,0.0,275.59302
2015-01-26 05:00:00,0,0 days,0.0,275.7456
2015-01-26 06:00:00,0,0 days,0.0,275.91162
2015-01-26 07:00:00,0,0 days,0.0,276.0337
2015-01-26 08:00:00,0,0 days,0.0,276.20703
2015-01-26 09:00:00,0,0 days,0.0,276.43213
2015-01-26 10:00:00,0,0 days,0.0,276.70508
2015-01-26 11:00:00,0,0 days,0.0,277.02417
2015-01-26 12:00:00,0,0 days,0.0,277.3872
2015-01-26 13:00:00,0,0 days,0.0,277.67798
2015-01-26 14:00:00,0,0 days,0.0,277.89478
2015-01-26 15:00:00,0,0 days,0.0,277.98755
2015-01-26 16:00:00,0,0 days,0.0,278.0078
2015-01-26 17:00:00,0,0 days,0.0,277.82568
2015-01-26 18:00:00,0,0 days,0.0,277.51318
2015-01-26 19:00:00,0,0 days,0.0,277.0376
2015-01-26 20:00:00,0,0 days,0.0,276.6355
2015-01-26 21:00:00,0,0 days,0.0,276.35278
2015-01-26 22:00:00,0,0 days,0.0,276.1421
2015-01-26 23:00:00,0,0 days,0.0,276.03687
2015-01-27 00:00:00,0,0 days,0.0,275.88354
2015-01-27 01:00:00,0,0 days,0.0,275.63354
2015-01-27 02:00:00,0,0 days,0.0,275.4414
2015-01-27 03:00:00,0,0 days,0.0,275.28027
2015-01-27 04:00:00,0,0 days,0.0,275.18433
2015-01-27 05:00:00,0,0 days,0.0,275.24902
2015-01-27 06:00:00,0,0 days,0.0,275.18213
2015-01-27 07:00:00,0,0 days,0.0,275.1438
2015-01-27 08:00:00,0,0 days,0.0,275.28833
2015-01-27 09:00:00,0,0 days,0.0,275.68066
2015-01-27 10:00:00,0,0 days,0.0,276.16455
2015-01-27 11:00:00,0,0 days,0.0,276.698
2015-01-27 12:00:00,0,0 days,0.0,277.2129
2015-01-27 13:00:00,0,0 days,0.0,277.4978
2015-01-27 14:00:00,0,0 days,0.0,277.64502
2015-01-27 15:00:00,0,0 days,0.0,277.48413
2015-01-27 16:00:00,0,0 days,0.0,277.1626
2015-01-27 17:00:00,0,0 days,0.0,276.7461
2015-01-27 18:00:00,0,0 days,0.0,276.3777
2015-01-27 19:00:00,0,0 days,0.0,276.02148
2015-01-27 20:00:00,0,0 days,0.0,275.77002
2015-01-27 21:00:00,0,0 days,0.0,275.5979
2015-01-27 22:00:00,0,0 days,0.0,275.52563
2015-01-27 23:00:00,0,0 days,0.0,275.563
2015-01-28 00:00:00,0,0 days,0.0,275.6892
2015-01-28 01:00:00,0,0 days,0.0,275.886
2015-01-28 02:00:00,0,0 days,0.0,275.95044
2015-01-28 03:00:00,0,0 days,0.0,275.99976
2015-01-28 04:00:00,0,0 days,0.0,276.05322
2015-01-28 05:00:00,0,0 days,0.0,276.073
2015-01-28 06:00:00,0,0 days,0.0,276.15063
2015-01-28 07:00:00,0,0 days,0.0,276.1228
2015-01-28 08:00:00,0,0 days,0.0,276.208
2015-01-28 09:00:00,0,0 days,0.0,276.5027
2015-01-28 10:00:00,0,0 days,0.0,276.93848
2015-01-28 11:00:00,0,0 days,0.0,277.27637
2015-01-28 12:00:00,0,0 days,0.0,277.45166
2015-01-28 13:00:00,0,0 days,0.0,277.56274
2015-01-28 14:00:00,0,0 days,0.0,277.59668
2015-01-28 15:00:00,0,0 days,0.0,277.61548
2015-01-28 16:00:00,0,0 days,0.0,277.74463
2015-01-28 17:00:00,0,0 days,0.0,277.4619
2015-01-28 18:00:00,0,0 days,0.0,276.95117
2015-01-28 19:00:00,0,0 days,0.0,276.45972
2015-01-28 20:00:00,0,0 days,0.0,275.94946
2015-01-28 21:00:00,0,0 days,0.0,275.51953
2015-01-28 22:00:00,0,0 days,0.0,275.27563
2015-01-28 23:00:00,0,0 days,0.0,274.93823
2015-01-29 00:00:00,0,0 days,0.0,274.65918
2015-01-29 01:00:00,0,0 days,0.0,274.4309
2015-01-29 02:00:00,0,0 days,0.0,274.33203
2015-01-29 03:00:00,0,0 days,0.0,274.38232
2015-01-29 04:00:00,0,0 days,0.0,274.4934
2015-01-29 05:00:00,0,0 days,0.0,274.5315
2015-01-29 06:00:00,0,0 days,0.0,274.51294
2015-01-29 07:00:00,0,0 days,0.0,274.48926
2015-01-29 08:00:00,0,0 days,0.0,274.56348
2015-01-29 09:00:00,0,0 days,0.0,274.95117
2015-01-29 10:00:00,0,0 days,0.0,275.511
2015-01-29 11:00:00,0,0 days,0.0,276.0608
2015-01-29 12:00:00,0,0 days,0.0,276.5869
2015-01-29 13:00:00,0,0 days,0.0,276.81104
2015-01-29 14:00:00,0,0 days,0.0,276.6543
2015-01-29 15:00:00,0,0 days,0.0,276.5564
2015-01-29 16:00:00,0,0 days,0.0,276.32202
2015-01-29 17:00:00,0,0 days,0.0,276.0603
2015-01-29 18:00:00,0,0 days,0.0,275.81738
2015-01-29 19:00:00,0,0 days,0.0,275.77563
2015-01-29 20:00:00,0,0 days,0.0,275.67578
2015-01-29 21:00:00,0,0 days,0.0,275.47388
2015-01-29 22:00:00,0,0 days,0.0,275.27783
2015-01-29 23:00:00,0,0 days,0.0,275.13818
2015-01-30 00:00:00,0,0 days,0.0,274.92944
2015-01-30 01:00:00,0,0 days,0.0,274.7141
2015-01-30 02:00:00,0,0 days,0.0,274.4812
2015-01-30 03:00:00,0,0 days,0.0,274.27832
2015-01-30 04:00:00,0,0 days,0.0,274.18604
2015-01-30 05:00:00,0,0 days,0.0,274.07593
2015-01-30 06:00:00,0,0 days,0.0,274.03247
2015-01-30 07:00:00,0,0 days,0.0,274.02588
2015-01-30 08:00:00,0,0 days,0.0,274.0437
2015-01-30 09:00:00,0,0 days,0.0,274.17236
2015-01-30 10:00:00,0,0 days,0.0,274.71265
2015-01-30 11:00:00,0,0 days,0.0,275.2505
2015-01-30 12:00:00,0,0 days,0.0,275.66943
2015-01-30 13:00:00,0,0 days,0.0,276.13257
2015-01-30 14:00:00,0,0 days,0.0,276.36157
2015-01-30 15:00:00,0,0 days,0.0,276.2556
2015-01-30 16:00:00,0,0 days,0.0,275.9126
2015-01-30 17:00:00,0,0 days,0.0,275.56958
2015-01-30 18:00:00,0,0 days,0.0,275.2776
2015-01-30 19:00:00,0,0 days,0.0,275.11914
2015-01-30 20:00:00,0,0 days,0.0,274.89185
2015-01-30 21:00:00,0,0 days,0.0,274.7102
2015-01-30 22:00:00,0,0 days,0.0,274.56592
2015-01-30 23:00:00,0,0 days,0.0,274.40283
2015-01-31 00:00:00,0,0 days,0.0,274.4707
2015-01-31 01:00:00,0,0 days,0.0,274.43848
2015-01-31 02:00:00,0,0 days,0.0,274.38403
2015-01-31 03:00:00,0,0 days,0.0,274.25244
2015-01-31 04:00:00,0,0 days,0.0,274.04443
2015-01-31 05:00:00,0,0 days,0.0,273.93848
2015-01-31 06:00:00,0,0 days,0.0,273.86792
2015-01-31 07:00:00,0,0 days,0.0,273.84497
2015-01-31 08:00:00,0,0 days,0.0,273.85645
2015-01-31 09:00:00,0,0 days,0.0,273.9458
2015-01-31 10:00:00,0,0 days,0.0,274.15967
2015-01-31 11:00:00,0,0 days,0.0,274.7395
2015-01-31 12:00:00,0,0 days,0.0,275.36157
2015-01-31 13:00:00,0,0 days,0.0,276.00415
2015-01-31 14:00:00,0,0 days,0.0,276.33203
2015-01-31 15:00:00,0,0 days,0.0,276.09937
2015-01-31 16:00:00,0,0 days,0.0,275.70508
2015-01-31 17:00:00,0,0 days,0.0,274.99902
2015-01-31 18:00:00,0,0 days,0.0,274.6162
2015-01-31 19:00:00,0,0 days,0.0,274.2251
2015-01-31 20:00:00,0,0 days,0.0,273.89917
2015-01-31 21:00:00,0,0 days,0.0,273.79077
2015-01-31 22:00:00,0,0 days,0.0,273.74512
2015-01-31 23:00:00,0,0 days,0.0,273.6958
2015-02-01 00:00:00,0,0 days,0.0,273.70557
2015-02-01 01:00:00,0,0 days,0.0,273.70703
2015-02-01 02:00:00,0,0 days,0.0,273.69238
2015-02-01 03:00:00,0,0 days,0.0,273.68652
2015-02-01 04:00:00,0,0 days,0.0,273.70996
2015-02-01 05:00:00,0,0 days,0.0,273.74243
2015-02-01 06:00:00,0,0 days,0.0,273.77637
2015-02-01 07:00:00,0,0 days,0.0,273.8142
2015-02-01 08:00:00,0,0 days,0.0,273.86133
2015-02-01 09:00:00,0,0 days,0.0,273.92993
2015-02-01 10:00:00,0,0 days,0.0,274.03027
2015-02-01 11:00:00,0,0 days,0.0,274.22656
2015-02-01 12:00:00,0,0 days,0.0,274.55664
2015-02-01 13:00:00,0,0 days,0.0,274.99
2015-02-01 14:00:00,0,0 days,0.0,275.31494
2015-02-01 15:00:00,0,0 days,0.0,275.573
2015-02-01 16:00:00,0,0 days,0.0,275.4253
2015-02-01 17:00:00,0,0 days,0.0,275.29126
2015-02-01 18:00:00,0,0 days,0.0,275.14868
2015-02-01 19:00:00,0,0 days,0.0,274.98047
2015-02-01 20:00:00,0,0 days,0.0,274.73413
2015-02-01 21:00:00,0,0 days,0.0,274.47095
2015-02-01 22:00:00,0,0 days,0.0,274.26318
2015-02-01 23:00:00,0,0 days,0.0,274.146
2015-02-02 00:00:00,0,0 days,0.0,274.12988
2015-02-02 01:00:00,0,0 days,0.0,274.03345
2015-02-02 02:00:00,0,0 days,0.0,274.0442
2015-02-02 03:00:00,0,0 days,0.0,274.01782
2015-02-02 04:00:00,0,0 days,0.0,274.011
2015-02-02 05:00:00,0,0 days,0.0,273.979
2015-02-02 06:00:00,0,0 days,0.0,273.89014
2015-02-02 07:00:00,0,0 days,0.0,273.83252
2015-02-02 08:00:00,0,0 days,0.0,273.79736
2015-02-02 09:00:00,0,0 days,0.0,273.8418
2015-02-02 10:00:00,0,0 days,0.0,273.94287
2015-02-02 11:00:00,0,0 days,0.0,274.12695
2015-02-02 12:00:00,0,0 days,0.0,274.6416
2015-02-02 13:00:00,0,0 days,0.0,275.00854
2015-02-02 14:00:00,0,0 days,0.0,275.34814
2015-02-02 15:00:00,0,0 days,0.0,275.30127
2015-02-02 16:00:00,0,0 days,0.0,275.02686
2015-02-02 17:00:00,0,0 days,0.0,274.53247
2015-02-02 18:00:00,0,0 days,0.0,274.14087
2015-02-02 19:00:00,0,0 days,0.0,273.95508
2015-02-02 20:00:00,0,0 days,0.0,273.89722
2015-02-02 21:00:00,0,0 days,0.0,273.8252
2015-02-02 22:00:00,0,0 days,0.0,273.7854
2015-02-02 23:00:00,0,0 days,0.0,273.73438
2015-02-03 00:00:00,0,0 days,0.0,273.6997
2015-02-03 01:00:00,0,0 days,0.0,273.65845
2015-02-03 02:00:00,0,0 days,0.0,273.62183
2015-02-03 03:00:00,0,0 days,0.0,273.57202
2015-02-03 04:00:00,0,0 days,0.0,273.53125
2015-02-03 05:00:00,0,0 days,0.0,273.4973
2015-02-03 06:00:00,0,0 days,0.0,273.45605
2015-02-03 07:00:00,0,0 days,0.0,273.40186
2015-02-03 08:00:00,0,0 days,0.0,273.3662
2015-02-03 09:00:00,0,0 days,0.0,273.40308
2015-02-03 10:00:00,0,0 days,0.0,273.49902
2015-02-03 11:00:00,0,0 days,0.0,273.6355
2015-02-03 12:00:00,0,0 days,0.0,273.76294
2015-02-03 13:00:00,0,0 days,0.0,273.91553
2015-02-03 14:00:00,0,0 days,0.0,274.10376
2015-02-03 15:00:00,0,0 days,0.0,274.36304
2015-02-03 16:00:00,0,0 days,0.0,274.3794
2015-02-03 17:00:00,0,0 days,0.0,273.958
2015-02-03 18:00:00,0,0 days,0.0,273.73242
2015-02-03 19:00:00,0,0 days,0.0,273.6018
2015-02-03 20:00:00,0,0 days,0.0,273.51978
2015-02-03 21:00:00,0,0 days,0.0,273.47217
2015-02-03 22:00:00,0,0 days,0.0,273.4192
2015-02-03 23:00:00,0,0 days,0.0,273.3894
2015-02-04 00:00:00,0,0 days,0.0,273.35742
2015-02-04 01:00:00,0,0 days,0.0,273.33423
2015-02-04 02:00:00,0,0 days,0.0,273.3037
2015-02-04 03:00:00,0,0 days,0.0,273.26416
2015-02-04 04:00:00,0,0 days,0.0,273.21582
2015-02-04 05:00:00,0,0 days,0.0,273.16553
2015-02-04 06:00:00,0,0 days,0.0,273.1189
2015-02-04 07:00:00,0,0 days,0.0,273.06714
2015-02-04 08:00:00,0,0 days,0.0,273.0276
2015-02-04 09:00:00,0,0 days,0.0,273.07617
2015-02-04 10:00:00,0,0 days,0.0,273.17432
2015-02-04 11:00:00,0,0 days,0.0,273.2932
2015-02-04 12:00:00,0,0 days,0.0,273.41846
2015-02-04 13:00:00,0,0 days,0.0,273.5293
2015-02-04 14:00:00,0,0 days,0.0,273.62695
2015-02-04 15:00:00,0,0 days,0.0,273.7068
2015-02-04 16:00:00,0,0 days,0.0,273.7312
2015-02-04 17:00:00,0,0 days,0.0,273.6631
2015-02-04 18:00:00,0,0 days,0.0,273.59302
2015-02-04 19:00:00,0,0 days,0.0,273.54028
2015-02-04 20:00:00,0,0 days,0.0,273.4944
2015-02-04 21:00:00,0,0 days,0.0,273.45093
2015-02-04 22:00:00,0,0 days,0.0,273.40723
2015-02-04 23:00:00,0,0 days,0.0,273.37402
2015-02-05 00:00:00,0,0 days,0.0,273.33838
2015-02-05 01:00:00,0,0 days,0.0,273.29175
2015-02-05 02:00:00,0,0 days,0.0,273.24097
2015-02-05 03:00:00,0,0 days,0.0,273.18457
2015-02-05 04:00:00,0,0 days,0.0,273.1228
2015-02-05 05:00:00,0,0 days,0.0,273.0681
2015-02-05 06:00:00,0,0 days,0.0,273.03003
2015-02-05 07:00:00,0,0 days,0.0,272.99927
2015-02-05 08:00:00,0,0 days,0.0,272.97803
2015-02-05 09:00:00,0,0 days,0.0,273.0083
2015-02-05 10:00:00,0,0 days,0.0,273.0735
2015-02-05 11:00:00,0,0 days,0.0,273.14624
2015-02-05 12:00:00,0,0 days,0.0,273.21606
2015-02-05 13:00:00,0,0 days,0.0,273.27783
2015-02-05 14:00:00,0,0 days,0.0,273.33838
2015-02-05 15:00:00,0,0 days,0.0,273.36792
2015-02-05 16:00:00,0,0 days,0.0,273.365
2015-02-05 17:00:00,0,0 days,0.0,273.3357
2015-02-05 18:00:00,0,0 days,0.0,273.3037
2015-02-05 19:00:00,0,0 days,0.0,273.2556
2015-02-05 20:00:00,0,0 days,0.0,273.21216
2015-02-05 21:00:00,0,0 days,0.0,273.17285
2015-02-05 22:00:00,0,0 days,0.0,273.1377
2015-02-05 23:00:00,0,0 days,0.0,273.1062
2015-02-06 00:00:00,0,0 days,0.0,273.07397
2015-02-06 01:00:00,0,0 days,0.0,273.04126
2015-02-06 02:00:00,0,0 days,0.0,273.0088
2015-02-06 03:00:00,0,0 days,0.0,272.97534
2015-02-06 04:00:00,0,0 days,0.0,272.9485
2015-02-06 05:00:00,0,0 days,0.0,272.92432
2015-02-06 06:00:00,0,0 days,0.0,272.90015
2015-02-06 07:00:00,0,0 days,0.0,272.8816
2015-02-06 08:00:00,0,0 days,0.0,272.8711
2015-02-06 09:00:00,0,0 days,0.0,272.89233
2015-02-06 10:00:00,0,0 days,0.0,272.92773
2015-02-06 11:00:00,0,0 days,0.0,272.97437
2015-02-06 12:00:00,0,0 days,0.0,273.04102
2015-02-06 13:00:00,0,0 days,0.0,273.10327
2015-02-06 14:00:00,0,0 days,0.0,273.17554
2015-02-06 15:00:00,0,0 days,0.0,273.21826
2015-02-06 16:00:00,0,0 days,0.0,273.22437
2015-02-06 17:00:00,0,0 days,0.0,273.19556
2015-02-06 18:00:00,0,0 days,0.0,273.16406
2015-02-06 19:00:00,0,0 days,0.0,273.13647
2015-02-06 20:00:00,0,0 days,0.0,273.1067
2015-02-06 21:00:00,0,0 days,0.0,273.07422
2015-02-06 22:00:00,0,0 days,0.0,273.04224
2015-02-06 23:00:00,0,0 days,0.0,273.00928
2015-02-07 00:00:00,0,0 days,0.0,272.97363
2015-02-07 01:00:00,0,0 days,0.0,272.94092
2015-02-07 02:00:00,0,0 days,0.0,272.9043
2015-02-07 03:00:00,0,0 days,0.0,272.8672
2015-02-07 04:00:00,0,0 days,0.0,272.82886
2015-02-07 05:00:00,0,0 days,0.0,272.79102
2015-02-07 06:00:00,0,0 days,0.0,272.75415
2015-02-07 07:00:00,0,0 days,0.0,272.7212
2015-02-07 08:00:00,0,0 days,0.0,272.70093
2015-02-07 09:00:00,0,0 days,0.0,272.7307
2015-02-07 10:00:00,0,0 days,0.0,272.80322
2015-02-07 11:00:00,0,0 days,0.0,272.9048
2015-02-07 12:00:00,0,0 days,0.0,273.02832
2015-02-07 13:00:00,0,0 days,0.0,273.1433
2015-02-07 14:00:00,0,0 days,0.0,273.23877
2015-02-07 15:00:00,0,0 days,0.0,273.30005
2015-02-07 16:00:00,0,0 days,0.0,273.3313
2015-02-07 17:00:00,0,0 days,0.0,273.34277
2015-02-07 18:00:00,0,0 days,0.0,273.36987
2015-02-07 19:00:00,0,0 days,0.0,273.40552
2015-02-07 20:00:00,0,0 days,0.0,273.44922
2015-02-07 21:00:00,0,0 days,0.0,273.49243
2015-02-07 22:00:00,0,0 days,0.0,273.53784
2015-02-07 23:00:00,0,0 days,0.0,273.59253
2015-02-08 00:00:00,0,0 days,0.0,273.64722
2015-02-08 01:00:00,0,0 days,0.0,273.70068
2015-02-08 02:00:00,0,0 days,0.0,273.76782
2015-02-08 03:00:00,0,0 days,0.0,273.83398
2015-02-08 04:00:00,0,0 days,0.0,273.89282
2015-02-08 05:00:00,0,0 days,0.0,273.95386
2015-02-08 06:00:00,0,0 days,0.0,273.98853
2015-02-08 07:00:00,0,0 days,0.0,274.0166
2015-02-08 08:00:00,0,0 days,0.0,274.05786
2015-02-08 09:00:00,0,0 days,0.0,274.19067
2015-02-08 10:00:00,0,0 days,0.0,274.60352
2015-02-08 11:00:00,0,0 days,0.0,275.11377
2015-02-08 12:00:00,0,0 days,0.0,275.67188
2015-02-08 13:00:00,0,0 days,0.0,276.07642
2015-02-08 14:00:00,0,0 days,0.0,276.3855
2015-02-08 15:00:00,0,0 days,0.0,276.27905
2015-02-08 16:00:00,0,0 days,0.0,276.0244
2015-02-08 17:00:00,0,0 days,0.0,275.23633
2015-02-08 18:00:00,0,0 days,0.0,274.50073
2015-02-08 19:00:00,0,0 days,0.0,274.07275
2015-02-08 20:00:00,0,0 days,0.0,273.8286
2015-02-08 21:00:00,0,0 days,0.0,273.76294
2015-02-08 22:00:00,0,0 days,0.0,273.7141
2015-02-08 23:00:00,0,0 days,0.0,273.66602
2015-02-09 00:00:00,0,0 days,0.0,273.65674
2015-02-09 01:00:00,0,0 days,0.0,273.67725
2015-02-09 02:00:00,0,0 days,0.0,273.70215
2015-02-09 03:00:00,0,0 days,0.0,273.71362
2015-02-09 04:00:00,0,0 days,0.0,273.72583
2015-02-09 05:00:00,0,0 days,0.0,273.76978
2015-02-09 06:00:00,0,0 days,0.0,273.82202
2015-02-09 07:00:00,0,0 days,0.0,273.83618
2015-02-09 08:00:00,0,0 days,0.0,273.8894
2015-02-09 09:00:00,0,0 days,0.0,274.03442
2015-02-09 10:00:00,0,0 days,0.0,274.54028
2015-02-09 11:00:00,0,0 days,0.0,275.35254
2015-02-09 12:00:00,0,0 days,0.0,276.26587
2015-02-09 13:00:00,0,0 days,0.0,276.83276
2015-02-09 14:00:00,0,0 days,0.0,277.30127
2015-02-09 15:00:00,0,0 days,0.0,277.33252
2015-02-09 16:00:00,0,0 days,0.0,277.1482
2015-02-09 17:00:00,0,0 days,0.0,276.78442
2015-02-09 18:00:00,0,0 days,0.0,276.60083
2015-02-09 19:00:00,0,0 days,0.0,276.33325
2015-02-09 20:00:00,0,0 days,0.0,276.17285
2015-02-09 21:00:00,0,0 days,0.0,276.09082
2015-02-09 22:00:00,0,0 days,0.0,276.03687
2015-02-09 23:00:00,0,0 days,0.0,275.99805
2015-02-10 00:00:00,0,0 days,0.0,275.94385
2015-02-10 01:00:00,0,0 days,0.0,275.90894
2015-02-10 02:00:00,0,0 days,0.0,275.91235
2015-02-10 03:00:00,0,0 days,0.0,275.91333
2015-02-10 04:00:00,0,0 days,0.0,275.9331
2015-02-10 05:00:00,0,0 days,0.0,275.969
2015-02-10 06:00:00,0,0 days,0.0,275.95117
2015-02-10 07:00:00,0,0 days,0.0,276.0464
2015-02-10 08:00:00,0,0 days,0.0,276.16602
2015-02-10 09:00:00,0,0 days,0.0,276.55615
2015-02-10 10:00:00,0,0 days,0.0,276.90283
2015-02-10 11:00:00,0,0 days,0.0,277.13525
2015-02-10 12:00:00,0,0 days,0.0,277.49097
2015-02-10 13:00:00,0,0 days,0.0,277.7085
2015-02-10 14:00:00,0,0 days,0.0,277.77783
2015-02-10 15:00:00,0,0 days,0.0,277.6836
2015-02-10 16:00:00,0,0 days,0.0,277.56152
2015-02-10 17:00:00,0,0 days,0.0,277.25293
2015-02-10 18:00:00,0,0 days,0.0,276.98633
2015-02-10 19:00:00,0,0 days,0.0,276.86792
2015-02-10 20:00:00,0,0 days,0.0,276.6963
2015-02-10 21:00:00,0,0 days,0.0,276.55713
2015-02-10 22:00:00,0,0 days,0.0,276.33936
2015-02-10 23:00:00,0,0 days,0.0,276.1975
2015-02-11 00:00:00,0,0 days,0.0,275.98633
2015-02-11 01:00:00,0,0 days,0.0,276.00488
2015-02-11 02:00:00,0,0 days,0.0,275.9524
2015-02-11 03:00:00,0,0 days,0.0,275.88525
2015-02-11 04:00:00,0,0 days,0.0,275.73608
2015-02-11 05:00:00,0,0 days,0.0,275.60327
2015-02-11 06:00:00,0,0 days,0.0,275.34668
2015-02-11 07:00:00,0,0 days,0.0,274.67896
2015-02-11 08:00:00,0,0 days,0.0,274.5735
2015-02-11 09:00:00,0,0 days,0.0,275.65332
2015-02-11 10:00:00,0,0 days,0.0,277.20337
2015-02-11 11:00:00,0,0 days,0.0,278.36206
2015-02-11 12:00:00,0,0 days,0.0,279.42627
2015-02-11 13:00:00,0,0 days,0.0,280.26782
2015-02-11 14:00:00,0,0 days,0.0,280.59473
2015-02-11 15:00:00,0,0 days,0.0,280.49292
2015-02-11 16:00:00,0,0 days,0.0,279.84253
2015-02-11 17:00:00,0,0 days,0.0,278.531
2015-02-11 18:00:00,0,0 days,0.0,277.40894
2015-02-11 19:00:00,0,0 days,0.0,276.49194
2015-02-11 20:00:00,0,0 days,0.0,275.76758
2015-02-11 21:00:00,0,0 days,0.0,275.15918
2015-02-11 22:00:00,0,0 days,0.0,274.73047
2015-02-11 23:00:00,0,0 days,0.0,274.28027
2015-02-12 00:00:00,0,0 days,0.0,274.00854
2015-02-12 01:00:00,0,0 days,0.0,273.91528
2015-02-12 02:00:00,0,0 days,0.0,273.81592
2015-02-12 03:00:00,0,0 days,0.0,273.7339
2015-02-12 04:00:00,0,0 days,0.0,273.65088
2015-02-12 05:00:00,0,0 days,0.0,273.57324
2015-02-12 06:00:00,0,0 days,0.0,273.50635
2015-02-12 07:00:00,0,0 days,0.0,273.50806
2015-02-12 08:00:00,0,0 days,0.0,273.54053
2015-02-12 09:00:00,0,0 days,0.0,273.67847
2015-02-12 10:00:00,0,0 days,0.0,273.96973
2015-02-12 11:00:00,0,0 days,0.0,274.75415
2015-02-12 12:00:00,0,0 days,0.0,276.89136
2015-02-12 13:00:00,0,0 days,0.0,278.39697
2015-02-12 14:00:00,0,0 days,0.0,279.17847
2015-02-12 15:00:00,0,0 days,0.0,279.33154
2015-02-12 16:00:00,0,0 days,0.0,278.85498
2015-02-12 17:00:00,0,0 days,0.0,277.71362
2015-02-12 18:00:00,0,0 days,0.0,276.52222
2015-02-12 19:00:00,0,0 days,0.0,275.6123
2015-02-12 20:00:00,0,0 days,0.0,275.01636
2015-02-12 21:00:00,0,0 days,0.0,274.5537
2015-02-12 22:00:00,0,0 days,0.0,274.18872
2015-02-12 23:00:00,0,0 days,0.0,273.95215
2015-02-13 00:00:00,0,0 days,0.0,273.88452
2015-02-13 01:00:00,0,0 days,0.0,273.83862
2015-02-13 02:00:00,0,0 days,0.0,273.8069
2015-02-13 03:00:00,0,0 days,0.0,273.7827
2015-02-13 04:00:00,0,0 days,0.0,273.7688
2015-02-13 05:00:00,0,0 days,0.0,273.7688
2015-02-13 06:00:00,0,0 days,0.0,273.77734
2015-02-13 07:00:00,0,0 days,0.0,273.7898
2015-02-13 08:00:00,0,0 days,0.0,273.8684
2015-02-13 09:00:00,0,0 days,0.0,274.1482
2015-02-13 10:00:00,0,0 days,0.0,275.31567
2015-02-13 11:00:00,0,0 days,0.0,277.14648
2015-02-13 12:00:00,0,0 days,0.0,278.70483
2015-02-13 13:00:00,0,0 days,0.0,279.77954
2015-02-13 14:00:00,0,0 days,0.0,280.32837
2015-02-13 15:00:00,0,0 days,0.0,280.40308
2015-02-13 16:00:00,0,0 days,0.0,280.01123
2015-02-13 17:00:00,0,0 days,0.0,279.3462
2015-02-13 18:00:00,0,0 days,0.0,278.8181
2015-02-13 19:00:00,0,0 days,0.0,278.4016
2015-02-13 20:00:00,0,0 days,0.0,278.19458
2015-02-13 21:00:00,0,0 days,0.0,278.05762
2015-02-13 22:00:00,0,0 days,0.0,277.98975
2015-02-13 23:00:00,0,0 days,0.0,277.9973
2015-02-14 00:00:00,0,0 days,0.0,277.97925
2015-02-14 01:00:00,0,0 days,0.0,277.8589
2015-02-14 02:00:00,0,0 days,0.0,277.8772
2015-02-14 03:00:00,0,0 days,0.0,277.9265
2015-02-14 04:00:00,0,0 days,0.0,277.95605
2015-02-14 05:00:00,0,0 days,0.0,277.9756
2015-02-14 06:00:00,0,0 days,0.0,278.01172
2015-02-14 07:00:00,0,0 days,0.0,278.10645
2015-02-14 08:00:00,0,0 days,0.0,278.198
2015-02-14 09:00:00,0,0 days,0.0,278.3877
2015-02-14 10:00:00,0,0 days,0.0,278.69653
2015-02-14 11:00:00,0,0 days,0.0,279.12158
2015-02-14 12:00:00,0,0 days,0.0,279.4707
2015-02-14 13:00:00,0,0 days,0.0,279.91797
2015-02-14 14:00:00,0,0 days,0.0,280.42383
2015-02-14 15:00:00,0,0 days,0.0,280.3523
2015-02-14 16:00:00,0,0 days,0.0,279.98706
2015-02-14 17:00:00,0,0 days,0.0,279.22998
2015-02-14 18:00:00,0,0 days,0.0,278.79224
2015-02-14 19:00:00,0,0 days,0.0,278.45264
2015-02-14 20:00:00,0,0 days,0.0,277.9912
2015-02-14 21:00:00,0,0 days,0.0,277.78882
2015-02-14 22:00:00,0,0 days,0.0,277.70752
2015-02-14 23:00:00,0,0 days,0.0,277.5791
2015-02-15 00:00:00,0,0 days,0.0,277.50342
2015-02-15 01:00:00,0,0 days,0.0,277.49243
2015-02-15 02:00:00,0,0 days,0.0,277.437
2015-02-15 03:00:00,0,0 days,0.0,277.34082
2015-02-15 04:00:00,0,0 days,0.0,277.20166
2015-02-15 05:00:00,0,0 days,0.0,276.92554
2015-02-15 06:00:00,0,0 days,0.0,276.6101
2015-02-15 07:00:00,0,0 days,0.0,275.91357
2015-02-15 08:00:00,0,0 days,0.0,275.90454
2015-02-15 09:00:00,0,0 days,0.0,277.1682
2015-02-15 10:00:00,0,0 days,0.0,278.4895
2015-02-15 11:00:00,0,0 days,0.0,279.64038
2015-02-15 12:00:00,0,0 days,0.0,280.40845
2015-02-15 13:00:00,0,0 days,0.0,281.2058
2015-02-15 14:00:00,0,0 days,0.0,281.417
2015-02-15 15:00:00,0,0 days,0.0,281.09375
2015-02-15 16:00:00,0,0 days,0.0,280.2893
2015-02-15 17:00:00,0,0 days,0.0,279.20044
2015-02-15 18:00:00,0,0 days,0.0,278.20483
2015-02-15 19:00:00,0,0 days,0.0,277.35352
2015-02-15 20:00:00,0,0 days,0.0,276.71362
2015-02-15 21:00:00,0,0 days,0.0,276.14746
2015-02-15 22:00:00,0,0 days,0.0,275.55664
2015-02-15 23:00:00,0,0 days,0.0,274.94214
2015-02-16 00:00:00,0,0 days,0.0,274.4026
2015-02-16 01:00:00,0,0 days,0.0,274.00928
2015-02-16 02:00:00,0,0 days,0.0,273.87817
2015-02-16 03:00:00,0,0 days,0.0,273.80933
2015-02-16 04:00:00,0,0 days,0.0,273.7556
2015-02-16 05:00:00,0,0 days,0.0,273.7151
2015-02-16 06:00:00,0,0 days,0.0,273.6731
2015-02-16 07:00:00,0,0 days,0.0,273.64258
2015-02-16 08:00:00,0,0 days,0.0,273.70215
2015-02-16 09:00:00,0,0 days,0.0,273.9331
2015-02-16 10:00:00,0,0 days,0.0,274.53906
2015-02-16 11:00:00,0,0 days,0.0,276.97607
2015-02-16 12:00:00,0,0 days,0.0,278.71753
2015-02-16 13:00:00,0,0 days,0.0,279.97437
2015-02-16 14:00:00,0,0 days,0.0,280.4441
2015-02-16 15:00:00,0,0 days,0.0,280.4751
2015-02-16 16:00:00,0,0 days,0.0,279.94873
2015-02-16 17:00:00,0,0 days,0.0,278.82617
2015-02-16 18:00:00,0,0 days,0.0,277.58765
2015-02-16 19:00:00,0,0 days,0.0,277.43213
2015-02-16 20:00:00,0,0 days,0.0,277.13745
2015-02-16 21:00:00,0,0 days,0.0,277.02905
2015-02-16 22:00:00,0,0 days,0.0,276.92285
2015-02-16 23:00:00,0,0 days,0.0,276.75977
2015-02-17 00:00:00,0,0 days,0.0,276.57617
2015-02-17 01:00:00,0,0 days,0.0,276.54858
2015-02-17 02:00:00,0,0 days,0.0,276.5625
2015-02-17 03:00:00,0,0 days,0.0,276.55273
2015-02-17 04:00:00,0,0 days,0.0,276.52393
2015-02-17 05:00:00,0,0 days,0.0,276.52832
2015-02-17 06:00:00,0,0 days,0.0,276.59473
2015-02-17 07:00:00,0,0 days,0.0,275.96582
2015-02-17 08:00:00,0,0 days,0.0,276.1731
2015-02-17 09:00:00,0,0 days,0.0,276.97363
2015-02-17 10:00:00,0,0 days,0.0,277.8147
2015-02-17 11:00:00,0,0 days,0.0,278.0266
2015-02-17 12:00:00,0,0 days,0.0,278.42163
2015-02-17 13:00:00,0,0 days,0.0,278.53394
2015-02-17 14:00:00,0,0 days,0.0,278.74805
2015-02-17 15:00:00,0,0 days,0.0,278.83472
2015-02-17 16:00:00,0,0 days,0.0,278.72534
2015-02-17 17:00:00,0,0 days,0.0,278.22144
2015-02-17 18:00:00,0,0 days,0.0,277.6328
2015-02-17 19:00:00,0,0 days,0.0,277.1172
2015-02-17 20:00:00,0,0 days,0.0,276.615
2015-02-17 21:00:00,0,0 days,0.0,276.17896
2015-02-17 22:00:00,0,0 days,0.0,275.78857
2015-02-17 23:00:00,0,0 days,0.0,275.16064
2015-02-18 00:00:00,0,0 days,0.0,274.5664
2015-02-18 01:00:00,0,0 days,0.0,274.09033
2015-02-18 02:00:00,0,0 days,0.0,274.02515
2015-02-18 03:00:00,0,0 days,0.0,274.1443
2015-02-18 04:00:00,0,0 days,0.0,274.3103
2015-02-18 05:00:00,0,0 days,0.0,274.41382
2015-02-18 06:00:00,0,0 days,0.0,274.4712
2015-02-18 07:00:00,0,0 days,0.0,274.52905
2015-02-18 08:00:00,0,0 days,0.0,274.79443
2015-02-18 09:00:00,0,0 days,0.0,275.55176
2015-02-18 10:00:00,0,0 days,0.0,276.48096
2015-02-18 11:00:00,0,0 days,0.0,277.06494
2015-02-18 12:00:00,0,0 days,0.0,277.96606
2015-02-18 13:00:00,0,0 days,0.0,278.69336
2015-02-18 14:00:00,0,0 days,0.0,279.28467
2015-02-18 15:00:00,0,0 days,0.0,279.2771
2015-02-18 16:00:00,0,0 days,0.0,278.8125
2015-02-18 17:00:00,0,0 days,0.0,277.91138
2015-02-18 18:00:00,0,0 days,0.0,277.06323
2015-02-18 19:00:00,0,0 days,0.0,276.43848
2015-02-18 20:00:00,0,0 days,0.0,276.02075
2015-02-18 21:00:00,0,0 days,0.0,275.74463
2015-02-18 22:00:00,0,0 days,0.0,275.48193
2015-02-18 23:00:00,0,0 days,0.0,275.3601
2015-02-19 00:00:00,0,0 days,0.0,275.22144
2015-02-19 01:00:00,0,0 days,0.0,275.31006
2015-02-19 02:00:00,0,0 days,0.0,275.18945
2015-02-19 03:00:00,0,0 days,0.0,275.1333
2015-02-19 04:00:00,0,0 days,0.0,275.10962
2015-02-19 05:00:00,0,0 days,0.0,274.9497
2015-02-19 06:00:00,0,0 days,0.0,274.76807
2015-02-19 07:00:00,0,0 days,0.0,274.83154
2015-02-19 08:00:00,0,0 days,0.0,275.16162
2015-02-19 09:00:00,0,0 days,0.0,275.9485
2015-02-19 10:00:00,0,0 days,0.0,276.82007
2015-02-19 11:00:00,0,0 days,0.0,277.7732
2015-02-19 12:00:00,0,0 days,0.0,278.583
2015-02-19 13:00:00,0,0 days,0.0,279.49878
2015-02-19 14:00:00,0,0 days,0.0,279.8689
2015-02-19 15:00:00,0,0 days,0.0,279.7473
2015-02-19 16:00:00,0,0 days,0.0,279.4314
2015-02-19 17:00:00,0,0 days,0.0,278.69165
2015-02-19 18:00:00,0,0 days,0.0,278.08032
2015-02-19 19:00:00,0,0 days,0.0,277.4319
2015-02-19 20:00:00,0,0 days,0.0,277.20703
2015-02-19 21:00:00,0,0 days,0.0,277.1797
2015-02-19 22:00:00,0,0 days,0.0,277.13232
2015-02-19 23:00:00,0,0 days,0.0,277.0891
2015-02-20 00:00:00,0,0 days,0.0,277.00977
2015-02-20 01:00:00,0,0 days,0.0,276.9204
2015-02-20 02:00:00,0,0 days,0.0,276.89746
2015-02-20 03:00:00,0,0 days,0.0,276.93213
2015-02-20 04:00:00,0,0 days,0.0,276.93726
2015-02-20 05:00:00,0,0 days,0.0,276.85547
2015-02-20 06:00:00,0,0 days,0.0,276.8169
2015-02-20 07:00:00,0,0 days,0.0,276.90088
2015-02-20 08:00:00,0,0 days,0.0,277.04492
2015-02-20 09:00:00,0,0 days,0.0,277.20728
2015-02-20 10:00:00,0,0 days,0.0,277.56616
2015-02-20 11:00:00,0,0 days,0.0,277.81787
2015-02-20 12:00:00,0,0 days,0.0,277.92944
2015-02-20 13:00:00,0,0 days,0.0,278.0056
2015-02-20 14:00:00,0,0 days,0.0,278.02515
2015-02-20 15:00:00,0,0 days,0.0,278.0952
2015-02-20 16:00:00,0,0 days,0.0,278.05957
2015-02-20 17:00:00,0,0 days,0.0,278.0
2015-02-20 18:00:00,0,0 days,0.0,277.95068
2015-02-20 19:00:00,0,0 days,0.0,277.937
2015-02-20 20:00:00,0,0 days,0.0,277.88477
2015-02-20 21:00:00,0,0 days,0.0,277.82227
2015-02-20 22:00:00,0,0 days,0.0,277.7859
2015-02-20 23:00:00,0,0 days,0.0,277.80713
2015-02-21 00:00:00,0,0 days,0.0,277.87842
2015-02-21 01:00:00,0,0 days,0.0,277.9121
2015-02-21 02:00:00,0,0 days,0.0,277.71802
2015-02-21 03:00:00,0,0 days,0.0,277.25415
2015-02-21 04:00:00,0,0 days,0.0,276.86084
2015-02-21 05:00:00,0,0 days,0.0,276.67065
2015-02-21 06:00:00,0,0 days,0.0,276.51514
2015-02-21 07:00:00,0,0 days,0.0,276.27075
2015-02-21 08:00:00,0,0 days,0.0,276.4048
2015-02-21 09:00:00,0,0 days,0.0,276.8684
2015-02-21 10:00:00,0,0 days,0.0,277.5996
2015-02-21 11:00:00,0,0 days,0.0,278.5371
2015-02-21 12:00:00,0,0 days,0.0,279.25708
2015-02-21 13:00:00,0,0 days,0.0,279.90845
2015-02-21 14:00:00,0,0 days,0.0,280.04395
2015-02-21 15:00:00,0,0 days,0.0,279.93604
2015-02-21 16:00:00,0,0 days,0.0,279.09644
2015-02-21 17:00:00,0,0 days,0.0,278.0437
2015-02-21 18:00:00,0,0 days,0.0,277.21704
2015-02-21 19:00:00,0,0 days,0.0,276.73633
2015-02-21 20:00:00,0,0 days,0.0,276.31226
2015-02-21 21:00:00,0,0 days,0.0,275.96582
2015-02-21 22:00:00,0,0 days,0.0,275.69727
2015-02-21 23:00:00,0,0 days,0.0,275.4973
2015-02-22 00:00:00,0,0 days,0.0,275.14673
2015-02-22 01:00:00,0,0 days,0.0,274.8103
2015-02-22 02:00:00,0,0 days,0.0,274.48242
2015-02-22 03:00:00,0,0 days,0.0,274.1692
2015-02-22 04:00:00,0,0 days,0.0,273.9663
2015-02-22 05:00:00,0,0 days,0.0,273.9026
2015-02-22 06:00:00,0,0 days,0.0,273.8391
2015-02-22 07:00:00,0,0 days,0.0,273.8811
2015-02-22 08:00:00,0,0 days,0.0,274.01514
2015-02-22 09:00:00,0,0 days,0.0,274.48438
2015-02-22 10:00:00,0,0 days,0.0,275.6875
2015-02-22 11:00:00,0,0 days,0.0,276.69922
2015-02-22 12:00:00,0,0 days,0.0,277.77637
2015-02-22 13:00:00,0,0 days,0.0,278.58862
2015-02-22 14:00:00,0,0 days,0.0,278.93652
2015-02-22 15:00:00,0,0 days,0.0,278.89014
2015-02-22 16:00:00,0,0 days,0.0,278.4939
2015-02-22 17:00:00,0,0 days,0.0,277.5725
2015-02-22 18:00:00,0,0 days,0.0,276.82056
2015-02-22 19:00:00,0,0 days,0.0,276.67017
2015-02-22 20:00:00,0,0 days,0.0,276.62915
2015-02-22 21:00:00,0,0 days,0.0,276.69385
2015-02-22 22:00:00,0,0 days,0.0,276.58447
2015-02-22 23:00:00,0,0 days,0.0,276.19507
2015-02-23 00:00:00,0,0 days,0.0,276.00195
2015-02-23 01:00:00,0,0 days,0.0,275.93677
2015-02-23 02:00:00,0,0 days,0.0,275.93872
2015-02-23 03:00:00,0,0 days,0.0,275.97974
2015-02-23 04:00:00,0,0 days,0.0,276.07812
2015-02-23 05:00:00,0,0 days,0.0,276.18066
2015-02-23 06:00:00,0,0 days,0.0,276.323
2015-02-23 07:00:00,0,0 days,0.0,276.5244
2015-02-23 08:00:00,0,0 days,0.0,276.79175
2015-02-23 09:00:00,0,0 days,0.0,277.22998
2015-02-23 10:00:00,0,0 days,0.0,277.85962
2015-02-23 11:00:00,0,0 days,0.0,278.45874
2015-02-23 12:00:00,0,0 days,0.0,279.3086
2015-02-23 13:00:00,0,0 days,0.0,280.36377
2015-02-23 14:00:00,0,0 days,0.0,280.65308
2015-02-23 15:00:00,0,0 days,0.0,280.2998
2015-02-23 16:00:00,0,0 days,0.0,279.52344
2015-02-23 17:00:00,0,0 days,0.0,278.71143
2015-02-23 18:00:00,0,0 days,0.0,278.05103
2015-02-23 19:00:00,0,0 days,0.0,277.4336
2015-02-23 20:00:00,0,0 days,0.0,277.1665
2015-02-23 21:00:00,0,0 days,0.0,276.90674
2015-02-23 22:00:00,0,0 days,0.0,276.7771
2015-02-23 23:00:00,0,0 days,0.0,276.7163
2015-02-24 00:00:00,0,0 days,0.0,276.62085
2015-02-24 01:00:00,0,0 days,0.0,276.57666
2015-02-24 02:00:00,0,0 days,0.0,276.42163
2015-02-24 03:00:00,0,0 days,0.0,276.4795
2015-02-24 04:00:00,0,0 days,0.0,276.23706
2015-02-24 05:00:00,0,0 days,0.0,276.20142
2015-02-24 06:00:00,0,0 days,0.0,276.2544
2015-02-24 07:00:00,0,0 days,0.0,276.13916
2015-02-24 08:00:00,0,0 days,0.0,276.35522
2015-02-24 09:00:00,0,0 days,0.0,277.03174
2015-02-24 10:00:00,0,0 days,0.0,277.7622
2015-02-24 11:00:00,0,0 days,0.0,278.28418
2015-02-24 12:00:00,0,0 days,0.0,279.02637
2015-02-24 13:00:00,0,0 days,0.0,279.81567
2015-02-24 14:00:00,0,0 days,0.0,280.00635
2015-02-24 15:00:00,0,0 days,0.0,279.93945
2015-02-24 16:00:00,0,0 days,0.0,279.32788
2015-02-24 17:00:00,0,0 days,0.0,278.58667
2015-02-24 18:00:00,0,0 days,0.0,277.88867
2015-02-24 19:00:00,0,0 days,0.0,277.33643
2015-02-24 20:00:00,0,0 days,0.0,276.92236
2015-02-24 21:00:00,0,0 days,0.0,276.6814
2015-02-24 22:00:00,0,0 days,0.0,276.3523
2015-02-24 23:00:00,0,0 days,0.0,276.0193
2015-02-25 00:00:00,0,0 days,0.0,275.71948
2015-02-25 01:00:00,0,0 days,0.0,275.438
2015-02-25 02:00:00,0,0 days,0.0,275.16626
2015-02-25 03:00:00,0,0 days,0.0,274.94263
2015-02-25 04:00:00,0,0 days,0.0,274.7522
2015-02-25 05:00:00,0,0 days,0.0,274.65674
2015-02-25 06:00:00,0,0 days,0.0,274.6819
2015-02-25 07:00:00,0,0 days,0.0,275.0327
2015-02-25 08:00:00,0,0 days,0.0,275.52148
2015-02-25 09:00:00,0,0 days,0.0,276.4944
2015-02-25 10:00:00,0,0 days,0.0,277.44507
2015-02-25 11:00:00,0,0 days,0.0,278.08252
2015-02-25 12:00:00,0,0 days,0.0,278.2234
2015-02-25 13:00:00,0,0 days,0.0,278.0415
2015-02-25 14:00:00,0,0 days,0.0,277.74658
2015-02-25 15:00:00,0,0 days,0.0,277.66846
2015-02-25 16:00:00,0,0 days,0.0,277.41187
2015-02-25 17:00:00,0,0 days,0.0,277.3015
2015-02-25 18:00:00,0,0 days,0.0,277.23535
2015-02-25 19:00:00,0,0 days,0.0,277.35303
2015-02-25 20:00:00,0,0 days,0.0,277.21826
2015-02-25 21:00:00,0,0 days,0.0,276.99097
2015-02-25 22:00:00,0,0 days,0.0,276.7444
2015-02-25 23:00:00,0,0 days,0.0,276.63208
2015-02-26 00:00:00,0,0 days,0.0,276.69946
2015-02-26 01:00:00,0,0 days,0.0,276.6565
2015-02-26 02:00:00,0,0 days,0.0,276.70093
2015-02-26 03:00:00,0,0 days,0.0,276.74316
2015-02-26 04:00:00,0,0 days,0.0,276.82617
2015-02-26 05:00:00,0,0 days,0.0,276.9077
2015-02-26 06:00:00,0,0 days,0.0,276.98047
2015-02-26 07:00:00,0,0 days,0.0,277.0752
2015-02-26 08:00:00,0,0 days,0.0,277.4026
2015-02-26 09:00:00,0,0 days,0.0,277.8672
2015-02-26 10:00:00,0,0 days,0.0,278.38623
2015-02-26 11:00:00,0,0 days,0.0,278.76416
2015-02-26 12:00:00,0,0 days,0.0,278.948
2015-02-26 13:00:00,0,0 days,0.0,278.87378
2015-02-26 14:00:00,0,0 days,0.0,278.9226
2015-02-26 15:00:00,0,0 days,0.0,278.8982
2015-02-26 16:00:00,0,0 days,0.0,278.86035
2015-02-26 17:00:00,0,0 days,0.0,278.8352
2015-02-26 18:00:00,0,0 days,0.0,278.82642
2015-02-26 19:00:00,0,0 days,0.0,278.90234
2015-02-26 20:00:00,0,0 days,0.0,278.99316
2015-02-26 21:00:00,0,0 days,0.0,279.08887
2015-02-26 22:00:00,0,0 days,0.0,279.16187
2015-02-26 23:00:00,0,0 days,0.0,279.02124
2015-02-27 00:00:00,0,0 days,0.0,278.6582
2015-02-27 01:00:00,0,0 days,0.0,278.28857
2015-02-27 02:00:00,0,0 days,0.0,278.0327
2015-02-27 03:00:00,0,0 days,0.0,277.82275
2015-02-27 04:00:00,0,0 days,0.0,277.573
2015-02-27 05:00:00,0,0 days,0.0,277.2539
2015-02-27 06:00:00,0,0 days,0.0,276.9275
2015-02-27 07:00:00,0,0 days,0.0,276.7793
2015-02-27 08:00:00,0,0 days,0.0,276.90747
2015-02-27 09:00:00,0,0 days,0.0,277.54932
2015-02-27 10:00:00,0,0 days,0.0,278.28247
2015-02-27 11:00:00,0,0 days,0.0,279.1565
2015-02-27 12:00:00,0,0 days,0.0,279.70386
2015-02-27 13:00:00,0,0 days,0.0,280.14624
2015-02-27 14:00:00,0,0 days,0.0,280.40088
2015-02-27 15:00:00,0,0 days,0.0,280.2954
2015-02-27 16:00:00,0,0 days,0.0,279.7932
2015-02-27 17:00:00,0,0 days,0.0,278.82324
2015-02-27 18:00:00,0,0 days,0.0,277.73657
2015-02-27 19:00:00,0,0 days,0.0,276.92114
2015-02-27 20:00:00,0,0 days,0.0,276.31348
2015-02-27 21:00:00,0,0 days,0.0,275.5708
2015-02-27 22:00:00,0,0 days,0.0,274.86694
2015-02-27 23:00:00,0,0 days,0.0,274.22437
2015-02-28 00:00:00,0,0 days,0.0,274.0039
2015-02-28 01:00:00,0,0 days,0.0,273.88525
2015-02-28 02:00:00,0,0 days,0.0,273.8313
2015-02-28 03:00:00,0,0 days,0.0,273.78613
2015-02-28 04:00:00,0,0 days,0.0,273.74805
2015-02-28 05:00:00,0,0 days,0.0,273.7151
2015-02-28 06:00:00,0,0 days,0.0,273.69067
2015-02-28 07:00:00,0,0 days,0.0,273.7168
2015-02-28 08:00:00,0,0 days,0.0,273.85107
2015-02-28 09:00:00,0,0 days,0.0,274.20166
2015-02-28 10:00:00,0,0 days,0.0,275.45923
2015-02-28 11:00:00,0,0 days,0.0,277.0752
2015-02-28 12:00:00,0,0 days,0.0,278.45044
2015-02-28 13:00:00,0,0 days,0.0,279.21338
2015-02-28 14:00:00,0,0 days,0.0,279.6714
2015-02-28 15:00:00,0,0 days,0.0,279.7356
2015-02-28 16:00:00,0,0 days,0.0,279.3894
2015-02-28 17:00:00,0,0 days,0.0,278.81494
2015-02-28 18:00:00,0,0 days,0.0,278.5078
2015-02-28 19:00:00,0,0 days,0.0,278.49634
2015-02-28 20:00:00,0,0 days,0.0,278.45947
2015-02-28 21:00:00,0,0 days,0.0,278.45215
2015-02-28 22:00:00,0,0 days,0.0,278.4651
2015-02-28 23:00:00,0,0 days,0.0,278.47266
2015-03-01 00:00:00,0,0 days,0.0,278.45557
2015-03-01 01:00:00,0,0 days,0.0,278.3462
2015-03-01 02:00:00,0,0 days,0.0,278.1399
2015-03-01 03:00:00,0,0 days,0.0,278.06226
2015-03-01 04:00:00,0,0 days,0.0,278.27637
2015-03-01 05:00:00,0,0 days,0.0,278.63208
2015-03-01 06:00:00,0,0 days,0.0,279.00684
2015-03-01 07:00:00,0,0 days,0.0,279.28223
2015-03-01 08:00:00,0,0 days,0.0,279.4087
2015-03-01 09:00:00,0,0 days,0.0,279.5183
2015-03-01 10:00:00,0,0 days,0.0,279.7173
2015-03-01 11:00:00,0,0 days,0.0,280.34497
2015-03-01 12:00:00,0,0 days,0.0,280.80884
2015-03-01 13:00:00,0,0 days,0.0,281.0869
2015-03-01 14:00:00,0,0 days,0.0,281.34424
2015-03-01 15:00:00,0,0 days,0.0,281.42627
2015-03-01 16:00:00,0,0 days,0.0,281.2202
2015-03-01 17:00:00,0,0 days,0.0,280.74023
2015-03-01 18:00:00,0,0 days,0.0,280.1311
2015-03-01 19:00:00,0,0 days,0.0,279.78857
2015-03-01 20:00:00,0,0 days,0.0,279.3037
2015-03-01 21:00:00,0,0 days,0.0,279.2151
2015-03-01 22:00:00,0,0 days,0.0,279.31714
2015-03-01 23:00:00,0,0 days,0.0,279.35742
2015-03-02 00:00:00,0,0 days,0.0,279.17993
2015-03-02 01:00:00,0,0 days,0.0,278.81226
2015-03-02 02:00:00,0,0 days,0.0,278.36987
2015-03-02 03:00:00,0,0 days,0.0,278.0642
2015-03-02 04:00:00,0,0 days,0.0,277.7461
2015-03-02 05:00:00,0,0 days,0.0,277.3037
2015-03-02 06:00:00,0,0 days,0.0,277.03857
2015-03-02 07:00:00,0,0 days,0.0,276.9319
2015-03-02 08:00:00,0,0 days,0.0,277.30713
2015-03-02 09:00:00,0,0 days,0.0,278.20874
2015-03-02 10:00:00,0,0 days,0.0,279.1306
2015-03-02 11:00:00,0,0 days,0.0,280.09106
2015-03-02 12:00:00,0,0 days,0.0,280.35962
2015-03-02 13:00:00,0,0 days,0.0,280.2881
2015-03-02 14:00:00,0,0 days,0.0,280.23682
2015-03-02 15:00:00,0,0 days,0.0,280.22046
2015-03-02 16:00:00,0,0 days,0.0,279.68823
2015-03-02 17:00:00,0,0 days,0.0,278.97656
2015-03-02 18:00:00,0,0 days,0.0,278.3672
2015-03-02 19:00:00,0,0 days,0.0,277.7744
2015-03-02 20:00:00,0,0 days,0.0,277.35938
2015-03-02 21:00:00,0,0 days,0.0,277.03662
2015-03-02 22:00:00,0,0 days,0.0,276.77612
2015-03-02 23:00:00,0,0 days,0.0,276.5796
2015-03-03 00:00:00,0,0 days,0.0,276.4414
2015-03-03 01:00:00,0,0 days,0.0,276.32104
2015-03-03 02:00:00,0,0 days,0.0,276.1997
2015-03-03 03:00:00,0,0 days,0.0,276.13477
2015-03-03 04:00:00,0,0 days,0.0,276.06274
2015-03-03 05:00:00,0,0 days,0.0,275.92773
2015-03-03 06:00:00,0,0 days,0.0,275.83716
2015-03-03 07:00:00,0,0 days,0.0,275.71387
2015-03-03 08:00:00,0,0 days,0.0,276.17065
2015-03-03 09:00:00,0,0 days,0.0,276.7837
2015-03-03 10:00:00,0,0 days,0.0,277.396
2015-03-03 11:00:00,0,0 days,0.0,278.2085
2015-03-03 12:00:00,0,0 days,0.0,278.73682
2015-03-03 13:00:00,0,0 days,0.0,279.156
2015-03-03 14:00:00,0,0 days,0.0,279.0962
2015-03-03 15:00:00,0,0 days,0.0,278.87573
2015-03-03 16:00:00,0,0 days,0.0,278.7202
2015-03-03 17:00:00,0,0 days,0.0,278.3164
2015-03-03 18:00:00,0,0 days,0.0,277.67627
2015-03-03 19:00:00,0,0 days,0.0,277.37354
2015-03-03 20:00:00,0,0 days,0.0,276.95483
2015-03-03 21:00:00,0,0 days,0.0,276.60303
2015-03-03 22:00:00,0,0 days,0.0,276.24097
2015-03-03 23:00:00,0,0 days,0.0,275.98853
2015-03-04 00:00:00,0,0 days,0.0,275.8208
2015-03-04 01:00:00,0,0 days,0.0,275.49194
2015-03-04 02:00:00,0,0 days,0.0,275.19946
2015-03-04 03:00:00,0,0 days,0.0,274.93262
2015-03-04 04:00:00,0,0 days,0.0,274.70557
2015-03-04 05:00:00,0,0 days,0.0,274.53345
2015-03-04 06:00:00,0,0 days,0.0,274.42896
2015-03-04 07:00:00,0,0 days,0.0,274.5476
2015-03-04 08:00:00,0,0 days,0.0,275.24927
2015-03-04 09:00:00,0,0 days,0.0,276.50708
2015-03-04 10:00:00,0,0 days,0.0,277.62793
2015-03-04 11:00:00,0,0 days,0.0,278.7124
2015-03-04 12:00:00,0,0 days,0.0,279.46802
2015-03-04 13:00:00,0,0 days,0.0,279.86157
2015-03-04 14:00:00,0,0 days,0.0,280.1267
2015-03-04 15:00:00,0,0 days,0.0,279.85693
2015-03-04 16:00:00,0,0 days,0.0,279.3152
2015-03-04 17:00:00,0,0 days,0.0,278.65112
2015-03-04 18:00:00,0,0 days,0.0,277.8181
2015-03-04 19:00:00,0,0 days,0.0,277.13135
2015-03-04 20:00:00,0,0 days,0.0,276.7312
2015-03-04 21:00:00,0,0 days,0.0,276.48682
2015-03-04 22:00:00,0,0 days,0.0,276.3711
2015-03-04 23:00:00,0,0 days,0.0,276.23706
2015-03-05 00:00:00,0,0 days,0.0,276.03296
2015-03-05 01:00:00,0,0 days,0.0,275.73486
2015-03-05 02:00:00,0,0 days,0.0,275.58276
2015-03-05 03:00:00,0,0 days,0.0,275.3269
2015-03-05 04:00:00,0,0 days,0.0,275.14038
2015-03-05 05:00:00,0,0 days,0.0,274.98584
2015-03-05 06:00:00,0,0 days,0.0,274.7793
2015-03-05 07:00:00,0,0 days,0.0,274.74487
2015-03-05 08:00:00,0,0 days,0.0,275.63354
2015-03-05 09:00:00,0,0 days,0.0,277.33667
2015-03-05 10:00:00,0,0 days,0.0,278.83008
2015-03-05 11:00:00,0,0 days,0.0,280.05078
2015-03-05 12:00:00,0,0 days,0.0,280.8523
2015-03-05 13:00:00,0,0 days,0.0,280.93018
2015-03-05 14:00:00,0,0 days,0.0,281.12915
2015-03-05 15:00:00,0,0 days,0.0,280.8235
2015-03-05 16:00:00,0,0 days,0.0,280.48438
2015-03-05 17:00:00,0,0 days,0.0,279.82935
2015-03-05 18:00:00,0,0 days,0.0,278.72412
2015-03-05 19:00:00,0,0 days,0.0,277.81665
2015-03-05 20:00:00,0,0 days,0.0,276.96313
2015-03-05 21:00:00,0,0 days,0.0,276.0586
2015-03-05 22:00:00,0,0 days,0.0,275.46265
2015-03-05 23:00:00,0,0 days,0.0,275.0691
2015-03-06 00:00:00,0,0 days,0.0,274.68384
2015-03-06 01:00:00,0,0 days,0.0,274.50903
2015-03-06 02:00:00,0,0 days,0.0,274.28735
2015-03-06 03:00:00,0,0 days,0.0,274.29102
2015-03-06 04:00:00,0,0 days,0.0,274.2395
2015-03-06 05:00:00,0,0 days,0.0,274.32446
2015-03-06 06:00:00,0,0 days,0.0,274.37964
2015-03-06 07:00:00,0,0 days,0.0,274.39258
2015-03-06 08:00:00,0,0 days,0.0,275.14136
2015-03-06 09:00:00,0,0 days,0.0,276.99072
2015-03-06 10:00:00,0,0 days,0.0,278.49194
2015-03-06 11:00:00,0,0 days,0.0,279.71875
2015-03-06 12:00:00,0,0 days,0.0,280.56982
2015-03-06 13:00:00,0,0 days,0.0,281.22583
2015-03-06 14:00:00,0,0 days,0.0,281.66406
2015-03-06 15:00:00,0,0 days,0.0,281.6023
2015-03-06 16:00:00,0,0 days,0.0,281.0786
2015-03-06 17:00:00,0,0 days,0.0,280.18115
2015-03-06 18:00:00,0,0 days,0.0,278.78027
2015-03-06 19:00:00,0,0 days,0.0,277.93872
2015-03-06 20:00:00,0,0 days,0.0,277.27246
2015-03-06 21:00:00,0,0 days,0.0,276.73828
2015-03-06 22:00:00,0,0 days,0.0,276.37256
2015-03-06 23:00:00,0,0 days,0.0,276.1338
2015-03-07 00:00:00,0,0 days,0.0,276.01318
2015-03-07 01:00:00,0,0 days,0.0,275.95288
2015-03-07 02:00:00,0,0 days,0.0,275.95166
2015-03-07 03:00:00,0,0 days,0.0,275.98462
2015-03-07 04:00:00,0,0 days,0.0,275.87158
2015-03-07 05:00:00,0,0 days,0.0,275.75684
2015-03-07 06:00:00,0,0 days,0.0,275.74878
2015-03-07 07:00:00,0,0 days,0.0,275.9453
2015-03-07 08:00:00,0,0 days,0.0,276.812
2015-03-07 09:00:00,0,0 days,0.0,278.07056
2015-03-07 10:00:00,0,0 days,0.0,279.60815
2015-03-07 11:00:00,0,0 days,0.0,281.09863
2015-03-07 12:00:00,0,0 days,0.0,282.34082
2015-03-07 13:00:00,0,0 days,0.0,283.23706
2015-03-07 14:00:00,0,0 days,0.0,283.69482
2015-03-07 15:00:00,0,0 days,0.0,283.65454
2015-03-07 16:00:00,0,0 days,0.0,283.22046
2015-03-07 17:00:00,0,0 days,0.0,282.2273
2015-03-07 18:00:00,0,0 days,0.0,281.02124
2015-03-07 19:00:00,0,0 days,0.0,280.0249
2015-03-07 20:00:00,0,0 days,0.0,279.37305
2015-03-07 21:00:00,0,0 days,0.0,278.89624
2015-03-07 22:00:00,0,0 days,0.0,278.5327
2015-03-07 23:00:00,0,0 days,0.0,278.2141
2015-03-08 00:00:00,0,0 days,0.0,277.9309
2015-03-08 01:00:00,0,0 days,0.0,277.69702
2015-03-08 02:00:00,0,0 days,0.0,277.5017
2015-03-08 03:00:00,0,0 days,0.0,277.29663
2015-03-08 04:00:00,0,0 days,0.0,277.07104
2015-03-08 05:00:00,0,0 days,0.0,276.83716
2015-03-08 06:00:00,0,0 days,0.0,276.61816
2015-03-08 07:00:00,0,0 days,0.0,276.74658
2015-03-08 08:00:00,0,0 days,0.0,277.80322
2015-03-08 09:00:00,0,0 days,0.0,279.59082
