{
    "BELAL01": "42461",
    "BELHB23": "42617",
    "BELLD02": "42631",
    "BELR833": "41456",
    "BELSA08": "73465",
    "BELSZ02": "41570",
    "BENAL08": "64311",
    "BENAT20": "64312",
    "BENAT29": "64313",
    "BENAT37": "64314",
    "BENAT38": "64315",
    "BENAT39": "64316",
    "BENAT40": "64317",
    "BENAT41": "64318",
    "BENAT43": "64320",
    "BENAT45": "64321",
    "BENAT46": "64322",
    "BENAT47": "64323",
    "BENAT48": "64324",
    "BENAT49": "64325",
    "BENBT03": "64326",
    "BENBT04": "64327",
    "BENDU05": "64328",
    "BENDU06": "64329",
    "BENGN36": "64330",
    "BENGN37": "64331",
    "BENGN38": "64332",
    "BENGN39": "64333",
    "BENGN40": "64334",
    "BENGN41": "64335",
    "BENGN42": "64336",
    "BENGN43": "64337",
    "BENGN44": "64338",
    "BENGN45": "64339",
    "BENGN46": "64340",
    "BENGN47": "64341",
    "BENGN48": "64342",
    "BENGN49": "64343",
    "BENGN50": "64344",
    "BENGN51": "64345",
    "BENGN52": "64346",
    "BENGN53": "64347",
    "BENGN54": "64348",
    "BENGN55": "64349",
    "BENHH06": "70124",
    "BENHH07": "70125",
    "BETB001": "53181",
    "BETB004": "41469",
    "BETB006": "42132",
    "BETB008": "42667",
    "BETB011": "40494",
    "BETE007": "42302",
    "BETE008": "40731",
    "BETE009": "40535",
    "BETE703": "42372",
    "BETE704": "42032",
    "BETE714": "40469",
    "BETE715": "40686",
    "BETE716": "40793",
    "BETE814": "41039",
    "BETM702": "42092",
    "BETM705": "42255",
    "BETM802": "41846",
    "BETMEU1": "40816",
    "BETN012": "42110",
    "BETN016": "40572",
    "BETN027": "41184",
    "BETN029": "42577",
    "BETN035": "41678",
    "BETN040": "41392",
    "BETN043": "41195",
    "BETN046": "42507",
    "BETN047": "69834",
    "BETN051": "42018",
    "BETN052": "41795",
    "BETN054": "41825",
    "BETN060": "42594",
    "BETN063": "42587",
    "BETN066": "42473",
    "BETN070": "41057",
    "BETN073": "42424",
    "BETN085": "41719",
    "BETN093": "41293",
    "BETN100": "40961",
    "BETN113": "41978",
    "BETN121": "41661",
    "BETN132": "41672",
    "BETR001": "41981",
    "BETR002": "41959",
    "BETR010": "41965",
    "BETR012": "40544",
    "BETR020": "42472",
    "BETR221": "40765",
    "BETR222": "40501",
    "BETR223": "41609",
    "BETR240": "42719",
    "BETR401": "65040",
    "BETR501": "40963",
    "BETR502": "42408",
    "BETR512": "42546",
    "BETR701": "42034",
    "BETR702": "40676",
    "BETR710": "41670",
    "BETR721": "42421",
    "BETR731": "41063",
    "BETR740": "42450",
    "BETR750": "42031",
    "BETR801": "41275",
    "BETR802": "42191",
    "BETR803": "44378",
    "BETR805": "48859",
    "BETR806": "69686",
    "BETR811": "42275",
    "BETR817": "44379",
    "BETR820": "41937",
    "BETR823": "56726",
    "BETR830": "41542",
    "BETR831": "42167",
    "BETR834": "41697",
    "BETR842": "69839",
    "BETR892": "42124",
    "BETR893": "40887",
    "BETR897": "42188",
    "BETWOL1": "42065"
}