stationCode,Namespace,AirQualityNetwork,AirQualityStationNatCode,SamplingPoint,SamplingProces,Sample,ObservationDateBegin,ObservationDateEnd,Longitude,Latitude,Altitude,MeasurementType,AirQualityStationType,AirQualityStationArea,EquivalenceDemonstrated,MeasurementEquipment,InletHeight,BuildingDistance,KerbDistance
BELAB02,BE.CELINE-IRCEL.AQ,NET-Flanders,40AB02,SPO-BELAB02_00005_100,SPP-BELAB02_00005_2,SAM-BELAB02_00005,2009-01-01T00:00:00,2017-03-14T00:00:00,4.32182021475228,51.34072749230201,10,automatic,background,suburban,yes,,2,-999,-999
BELAL01,BE.CELINE-IRCEL.AQ,NET-Flanders,40AL01,SPO-BELAL01_00005_100,SPP-BELAL01_00005_2,SAM-BELAL01_00005,2009-01-01T00:00:00,,4.385223684454719,51.23619420029897,10,automatic,industrial,suburban,yes,,2,-999,-999
BELAL02,BE.CELINE-IRCEL.AQ,NET-Flanders,40AL02,SPO-BELAL02_00005_100,SPP-BELAL02_00005_1,SAM-BELAL02_00005,2011-01-01T00:00:00,,4.23483275314406,51.30452079074055,4,automatic,industrial,rural,yes,,2,-999,-999
BELAL03,BE.CELINE-IRCEL.AQ,NET-Flanders,40AL03,SPO-BELAL03_00005_100,SPP-BELAL03_00005_1,SAM-BELAL03_00005,2017-04-01T00:00:00,,4.20146039512657,51.25396488106634,4,automatic,industrial,rural,yes,,2,-999,-999
BELAL05,BE.CELINE-IRCEL.AQ,NET-Flanders,40AL05,SPO-BELAL05_00005_100,SPP-BELAL05_00005_1,SAM-BELAL05_00005,2011-01-01T00:00:00,,4.278889821667831,51.263117717270084,8,automatic,industrial,rural,yes,,2,-999,-999
BELEG05,BE.CELINE-IRCEL.AQ,NET-Flanders,40EG05,SPO-BELEG05_00005_100,SPP-BELEG05_00005_1,SAM-BELEG05_00005,2018-12-12T00:00:00,,3.7860846523965397,51.17405383916632,0,automatic,industrial,suburban,yes,,3,-999,-999
BELGK06,BE.CELINE-IRCEL.AQ,NET-Flanders,40GK06,SPO-BELGK06_00005_100,SPP-BELGK06_00005_2,SAM-BELGK06_00005,2009-01-01T00:00:00,2019-02-12T00:00:00,5.47062003748762,50.92789184366314,44,automatic,industrial,suburban,yes,,3,-999,-999
BELHB23,BE.CELINE-IRCEL.AQ,NET-Flanders,40HB23,SPO-BELHB23_00005_100,SPP-BELHB23_00005_2,SAM-BELHB23_00005,2006-08-17T00:00:00,,4.34100506456284,51.170298038832094,13,automatic,industrial,suburban,yes,,2,-999,-999
BELHH08,BE.CELINE-IRCEL.AQ,NET-Flanders,40HH08,SPO-BELHH08_00005_100,SPP-BELHH08_00005_1,SAM-BELHH08_00005,2019-03-05T00:00:00,,5.376372042991061,51.03158393123754,0,automatic,background,urban,yes,,2,-999,-999
BELMN01,BE.CELINE-IRCEL.AQ,NET-Flanders,40MN01,SPO-BELMN01_00005_100,SPP-BELMN01_00005_2,SAM-BELMN01_00005,2009-01-01T00:00:00,,3.1096418744986702,50.79346904471133,10,automatic,industrial,rural,yes,,2,-999,-999
BELOB01,BE.CELINE-IRCEL.AQ,NET-Flanders,40OB01,SPO-BELOB01_00005_100,SPP-BELOB01_00005_6,SAM-BELOB01_00005,2008-09-13T00:00:00,,3.3073857993357603,50.91722844142429,44,automatic,industrial,rural,yes,,2,-999,-999
BELOB02,BE.CELINE-IRCEL.AQ,NET-Flanders,40OB02,SPO-BELOB02_00005_100,SPP-BELOB02_00005_1,SAM-BELOB02_00005,2012-04-24T00:00:00,,3.37621163108602,50.914952961278594,14,automatic,industrial,rural,yes,,2,-999,-999
BELRB01,BE.CELINE-IRCEL.AQ,NET-Flanders,40RB01,SPO-BELRB01_00005_100,SPP-BELRB01_00005_1,SAM-BELRB01_00005,2016-11-29T00:00:00,2018-02-16T00:00:00,4.33123202731084,51.089397131682986,0,automatic,industrial,suburban,yes,,3,-999,-999
BELRL01,BE.CELINE-IRCEL.AQ,NET-Flanders,40RL01,SPO-BELRL01_00005_100,SPP-BELRL01_00005_2,SAM-BELRL01_00005,2009-01-01T00:00:00,,3.1211555989012494,50.95317728063605,20,automatic,background,urban,yes,,2,-999,-999
BELSA04,BE.CELINE-IRCEL.AQ,NET-Flanders,40SA04,SPO-BELSA04_00005_100,SPP-BELSA04_00005_1,SAM-BELSA04_00005,2012-07-02T00:00:00,,4.40386813974961,51.31392889454109,6,automatic,industrial,rural,yes,,2,-999,-999
BELSZ02,BE.CELINE-IRCEL.AQ,NET-Flanders,40SZ02,SPO-BELSZ02_00005_100,SPP-BELSZ02_00005_2,SAM-BELSZ02_00005,2006-08-21T00:00:00,2021-01-16T00:00:00,4.51218434619029,50.91302042342238,15,automatic,industrial,rural,yes,,2,-999,-999
BETB011,BE.CELINE-IRCEL.AQ,NET-Brussels,41B011,SPO-BETB011_00005_100,SPP-BETB011_00005_2,SAM-BETB011_00005,2005-07-15T00:00:00,,4.288706017295201,50.85780610708387,66,automatic,background,suburban,yes,,3,-999,-999
BETH201,BE.CELINE-IRCEL.AQ,NET-Wallonia,43H201,SPO-BETH201_00005_100,SPP-BETH201_00005_2,SAM-BETH201_00005,2011-04-06T00:00:00,,5.547464182570811,50.62499156929639,160,automatic,background,suburban,yes,,3,-999,-999
BETM204,BE.CELINE-IRCEL.AQ,NET-Wallonia,43M204,SPO-BETM204_00005_100,SPP-BETM204_00005_1,SAM-BETM204_00005,2008-01-30T00:00:00,,5.611149762819431,50.611922706951646,70,automatic,background,suburban,yes,,3,-999,-999
BETM705,BE.CELINE-IRCEL.AQ,NET-Flanders,44M705,SPO-BETM705_00005_100,SPP-BETM705_00005_2,SAM-BETM705_00005,2015-01-01T00:00:00,,3.1524015904700096,50.94535924174781,19,automatic,industrial,suburban,yes,,3,-999,-999
BETM802,BE.CELINE-IRCEL.AQ,NET-Flanders,42M802,SPO-BETM802_00005_100,SPP-BETM802_00005_3,SAM-BETM802_00005,2015-01-01T00:00:00,,4.42439900693533,51.26098970786348,3,automatic,industrial,suburban,yes,,2,-999,-999
BETMEU1,BE.CELINE-IRCEL.AQ,NET-Brussels,41MEU1,SPO-BETMEU1_00005_100,SPP-BETMEU1_00005_2,SAM-BETMEU1_00005,2006-10-01T00:00:00,,4.395716786784691,50.89500101104031,34,automatic,background,suburban,yes,,3,-999,-999
BETN012,BE.CELINE-IRCEL.AQ,NET-Flanders,44N012,SPO-BETN012_00005_100,SPP-BETN012_00005_1,SAM-BETN012_00005,2004-01-01T00:00:00,,3.3625358887015997,51.25457362283284,3,automatic,background,rural,yes,,3,-999,-999
BETN016,BE.CELINE-IRCEL.AQ,NET-Flanders,42N016,SPO-BETN016_00005_100,SPP-BETN016_00005_1,SAM-BETN016_00005,2004-01-01T00:00:00,,5.1639788463317595,51.233652206558844,30,automatic,background,rural,yes,,3,-999,-999
BETN029,BE.CELINE-IRCEL.AQ,NET-Flanders,44N029,SPO-BETN029_00005_100,SPP-BETN029_00005_1,SAM-BETN029_00005,2000-12-01T00:00:00,,2.5823227814897503,51.01628011153519,2,automatic,background,rural,yes,,3,-999,-999
BETN035,BE.CELINE-IRCEL.AQ,NET-Flanders,42N035,SPO-BETN035_00005_100,SPP-BETN035_00005_1,SAM-BETN035_00005,2004-01-01T00:00:00,,4.8376180156986095,50.97754137851153,55,automatic,background,rural,yes,,3,-999,-999
BETN043,BE.CELINE-IRCEL.AQ,NET-Brussels,41N043,SPO-BETN043_00005_100,SPP-BETN043_00005_2,SAM-BETN043_00005,2005-01-01T00:00:00,,4.38297750509656,50.883694651242365,17,automatic,industrial,suburban,yes,,3,-999,-999
BETN045,BE.CELINE-IRCEL.AQ,NET-Flanders,42N045,SPO-BETN045_00005_100,SPP-BETN045_00005_2,SAM-BETN045_00005,2003-12-09T00:00:00,2017-01-01T00:00:00,5.368378532294259,50.93971186546469,41,automatic,background,suburban,yes,,3,-999,-999
BETN047,BE.CELINE-IRCEL.AQ,NET-Flanders,42N047,SPO-BETN047_00005_100,SPP-BETN047_00005_1,SAM-BETN047_00005,2019-04-24T00:00:00,,5.35320849836487,50.935542769449064,0,automatic,background,urban,yes,,3,-999,-999
BETN052,BE.CELINE-IRCEL.AQ,NET-Flanders,44N052,SPO-BETN052_00005_100,SPP-BETN052_00005_1,SAM-BETN052_00005,2005-01-01T00:00:00,,3.32249431903728,50.814873870317605,27,automatic,background,suburban,yes,,3,-999,-999
BETN054,BE.CELINE-IRCEL.AQ,NET-Flanders,42N054,SPO-BETN054_00005_100,SPP-BETN054_00005_1,SAM-BETN054_00005,2004-01-01T00:00:00,,5.103158609453951,50.711706094131614,135,automatic,background,rural,yes,,3,-999,-999
BETN060,BE.CELINE-IRCEL.AQ,NET-Wallonia,43N060,SPO-BETN060_00005_100,SPP-BETN060_00005_1,SAM-BETN060_00005,2011-01-01T00:00:00,,3.45762442718173,50.61671840219225,0,automatic,background,rural,yes,,3,-999,-999
BETN063,BE.CELINE-IRCEL.AQ,NET-Wallonia,43N063,SPO-BETN063_00005_100,SPP-BETN063_00005_2,SAM-BETN063_00005,2008-02-11T00:00:00,,4.668287682824641,50.65543910379871,145,automatic,background,rural,yes,,3,-999,-999
BETN067,BE.CELINE-IRCEL.AQ,NET-Wallonia,43N067,SPO-BETN067_00005_100,SPP-BETN067_00005_1,SAM-BETN067_00005,2011-01-01T00:00:00,,5.992752719187048,50.612277528532346,0,automatic,background,suburban,yes,,3,-999,-999
BETN070,BE.CELINE-IRCEL.AQ,NET-Wallonia,43N070,SPO-BETN070_00005_100,SPP-BETN070_00005_2,SAM-BETN070_00005,2008-02-08T00:00:00,,3.9397143255238394,50.465192156825616,30,automatic,background,suburban,yes,,3,-999,-999
BETN073,BE.CELINE-IRCEL.AQ,NET-Wallonia,43N073,SPO-BETN073_00005_100,SPP-BETN073_00005_2,SAM-BETN073_00005,2011-04-01T00:00:00,,4.98842295409252,50.50271634144125,160,automatic,background,rural,yes,,3,-999,-999
BETN085,BE.CELINE-IRCEL.AQ,NET-Wallonia,43N085,SPO-BETN085_00005_100,SPP-BETN085_00005_2,SAM-BETN085_00005,2008-02-07T00:00:00,,6.0017362885378205,50.30320782858783,490,automatic,background,rural,yes,,3,-999,-999
BETN093,BE.CELINE-IRCEL.AQ,NET-Wallonia,43N093,SPO-BETN093_00005_100,SPP-BETN093_00005_2,SAM-BETN093_00005,2008-02-25T00:00:00,,5.2351686547741,50.27447751134895,265,automatic,background,rural,yes,,3,-999,-999
BETN100,BE.CELINE-IRCEL.AQ,NET-Wallonia,43N100,SPO-BETN100_00005_100,SPP-BETN100_00005_2,SAM-BETN100_00005,2008-04-18T00:00:00,,4.594762762155871,50.09568343459073,225,automatic,background,rural,yes,,3,-999,-999
BETN113,BE.CELINE-IRCEL.AQ,NET-Wallonia,43N113,SPO-BETN113_00005_100,SPP-BETN113_00005_2,SAM-BETN113_00005,2011-04-01T00:00:00,,5.59301691406644,50.02702901774781,510,automatic,background,rural,yes,,3,-999,-999
BETN121,BE.CELINE-IRCEL.AQ,NET-Wallonia,43N121,SPO-BETN121_00005_100,SPP-BETN121_00005_2,SAM-BETN121_00005,2011-04-01T00:00:00,,5.202387466800059,49.87712849172962,430,automatic,background,rural,yes,,3,-999,-999
BETN132,BE.CELINE-IRCEL.AQ,NET-Wallonia,43N132,SPO-BETN132_00005_100,SPP-BETN132_00005_2,SAM-BETN132_00005,2008-02-07T00:00:00,,5.630397740609139,49.71928118828181,375,automatic,background,rural,yes,,3,-999,-999
BETR001,BE.CELINE-IRCEL.AQ,NET-Brussels,41R001,SPO-BETR001_00005_100,SPP-BETR001_00005_2,SAM-BETR001_00005,2005-01-01T00:00:00,,4.334103679825119,50.84971051855545,20,automatic,background,urban,yes,,3,-999,-999
BETR012,BE.CELINE-IRCEL.AQ,NET-Brussels,41R012,SPO-BETR012_00005_100,SPP-BETR012_00005_2,SAM-BETR012_00005,2004-05-12T00:00:00,,4.35862395810911,50.79664962505063,101,automatic,background,suburban,yes,,3,-999,-999
BETR020,BE.CELINE-IRCEL.AQ,NET-Flanders,42R020,SPO-BETR020_00005_100,SPP-BETR020_00005_1,SAM-BETR020_00005,1995-05-01T00:00:00,,4.436720763534071,50.94138711499129,12,automatic,background,suburban,yes,,3,-999,-999
BETR221,BE.CELINE-IRCEL.AQ,NET-Wallonia,43R221,SPO-BETR221_00005_100,SPP-BETR221_00005_2,SAM-BETR221_00005,2011-04-01T00:00:00,,5.62783529085265,50.65844441718482,65,automatic,background,urban,yes,,3,-999,-999
BETR222,BE.CELINE-IRCEL.AQ,NET-Wallonia,43R222,SPO-BETR222_00005_100,SPP-BETR222_00005_2,SAM-BETR222_00005,2011-04-01T00:00:00,,5.570222814112579,50.61341250188024,65,automatic,background,suburban,yes,,3,-999,-999
BETR223,BE.CELINE-IRCEL.AQ,NET-Wallonia,43R223,SPO-BETR223_00005_100,SPP-BETR223_00005_2,SAM-BETR223_00005,2008-01-31T00:00:00,,5.5164047551429904,50.620670879237586,50,automatic,industrial,suburban,yes,,3,-999,-999
BETR240,BE.CELINE-IRCEL.AQ,NET-Wallonia,43R240,SPO-BETR240_00005_100,SPP-BETR240_00005_4,SAM-BETR240_00005,2008-02-11T00:00:00,,5.39744605012733,50.58361434776715,135,automatic,industrial,suburban,yes,,3,-999,-999
BETR401,BE.CELINE-IRCEL.AQ,NET-Wallonia,43R401,SPO-BETR401_00005_100,SPP-BETR401_00005_1,SAM-BETR401_00005,2019-01-01T00:00:00,,4.86526094601164,50.462427940003394,65,automatic,background,urban,yes,,3,-999,-999
BETR501,BE.CELINE-IRCEL.AQ,NET-Wallonia,45R501,SPO-BETR501_00005_100,SPP-BETR501_00005_2,SAM-BETR501_00005,2008-02-21T00:00:00,,4.45217178104986,50.40931145241382,115,automatic,background,urban,yes,,3,-999,-999
BETR502,BE.CELINE-IRCEL.AQ,NET-Wallonia,45R502,SPO-BETR502_00005_100,SPP-BETR502_00005_2,SAM-BETR502_00005,2008-02-06T00:00:00,,4.45868085802172,50.42899539329509,135,automatic,background,suburban,yes,,3,-999,-999
BETR510,BE.CELINE-IRCEL.AQ,NET-Wallonia,45R510,SPO-BETR510_00005_100,SPP-BETR510_00005_2,SAM-BETR510_00005,2011-04-01T00:00:00,,4.521130208130439,50.41643335993693,118,automatic,background,suburban,yes,,3,-999,-999
BETR511,BE.CELINE-IRCEL.AQ,NET-Wallonia,45R511,SPO-BETR511_00005_100,SPP-BETR511_00005_1,SAM-BETR511_00005,2008-02-06T00:00:00,,4.4247004504024705,50.37759210252711,157,automatic,background,suburban,yes,,3,-999,-999
BETR512,BE.CELINE-IRCEL.AQ,NET-Wallonia,45R512,SPO-BETR512_00005_100,SPP-BETR512_00005_2,SAM-BETR512_00005,2008-02-21T00:00:00,,4.39589711703924,50.407810199815614,107,automatic,industrial,suburban,yes,,3,-999,-999
BETR701,BE.CELINE-IRCEL.AQ,NET-Flanders,44R701,SPO-BETR701_00005_100,SPP-BETR701_00005_2,SAM-BETR701_00005,2015-01-01T00:00:00,,3.7292981716905906,51.05833171666185,5,automatic,background,urban,yes,,3,-999,-999
BETR702,BE.CELINE-IRCEL.AQ,NET-Flanders,44R702,SPO-BETR702_00005_100,SPP-BETR702_00005_2,SAM-BETR702_00005,2015-01-01T00:00:00,,3.734971479685311,51.040689419824595,8,automatic,traffic,urban,yes,,3,10,5
BETR710,BE.CELINE-IRCEL.AQ,NET-Flanders,44R710,SPO-BETR710_00005_100,SPP-BETR710_00005_1,SAM-BETR710_00005,2004-03-01T00:00:00,,3.7752623896453605,51.061277698051676,6,automatic,background,suburban,yes,,3,-999,-999
BETR731,BE.CELINE-IRCEL.AQ,NET-Flanders,44R731,SPO-BETR731_00005_100,SPP-BETR731_00005_3,SAM-BETR731_00005,2015-01-01T00:00:00,,3.73950422044193,51.124690512296816,6,automatic,industrial,rural,yes,,3,-999,-999
BETR740,BE.CELINE-IRCEL.AQ,NET-Flanders,44R740,SPO-BETR740_00005_100,SPP-BETR740_00005_1,SAM-BETR740_00005,1995-07-01T00:00:00,,3.80873543041274,51.15013609039752,5,automatic,industrial,rural,yes,,3,-999,-999
BETR750,BE.CELINE-IRCEL.AQ,NET-Flanders,44R750,SPO-BETR750_00005_100,SPP-BETR750_00005_2,SAM-BETR750_00005,2015-01-01T00:00:00,,3.822920046804329,51.196063268895905,6,automatic,industrial,rural,yes,,3,-999,-999
BETR801,BE.CELINE-IRCEL.AQ,NET-Flanders,42R801,SPO-BETR801_00005_100,SPP-BETR801_00005_2,SAM-BETR801_00005,2015-05-01T00:00:00,,4.431821046968841,51.209662531306556,6,automatic,background,urban,yes,,3,-999,-999
BETR802,BE.CELINE-IRCEL.AQ,NET-Flanders,42R802,SPO-BETR802_00005_100,SPP-BETR802_00005_3,SAM-BETR802_00005,2015-01-01T00:00:00,,4.43179223079244,51.20951873198004,6,automatic,traffic,urban,yes,,3,10,5
BETR803,BE.CELINE-IRCEL.AQ,NET-Flanders,42R803,SPO-BETR803_00005_100,SPP-BETR803_00005_1,SAM-BETR803_00005,2015-09-01T00:00:00,,4.428454177535571,51.22862981346025,0,automatic,background,urban,yes,,3,-999,-999
BETR805,BE.CELINE-IRCEL.AQ,NET-Flanders,42R805,SPO-BETR805_00005_100,SPP-BETR805_00005_1,SAM-BETR805_00005,2015-08-01T00:00:00,,4.42155925106527,51.20822947221375,6,automatic,traffic,urban,yes,,3,10,5
BETR811,BE.CELINE-IRCEL.AQ,NET-Flanders,42R811,SPO-BETR811_00005_100,SPP-BETR811_00005_1,SAM-BETR811_00005,2004-01-01T00:00:00,,4.491362027935441,51.25210341224123,8,automatic,background,suburban,yes,,3,-999,-999
BETR815,BE.CELINE-IRCEL.AQ,NET-Flanders,42R815,SPO-BETR815_00005_100,SPP-BETR815_00005_2,SAM-BETR815_00005,2015-01-01T00:00:00,2018-01-01T00:00:00,4.33220643231032,51.214698816772085,7,automatic,industrial,suburban,yes,,3,-999,-999
BETR817,BE.CELINE-IRCEL.AQ,NET-Flanders,42R817,SPO-BETR817_00005_100,SPP-BETR817_00005_1,SAM-BETR817_00005,2015-07-01T00:00:00,,4.41794863777773,51.17713088819042,6,automatic,background,suburban,yes,,3,-999,-999
BETR818,BE.CELINE-IRCEL.AQ,NET-Flanders,42R818,SPO-BETR818_00005_100,SPP-BETR818_00005_1,,,,4.35048299135533,51.21223113307127,5,automatic,industrial,suburban,yes,,-999,-999,-999
BETR823,BE.CELINE-IRCEL.AQ,NET-Flanders,42R823,SPO-BETR823_00005_100,SPP-BETR823_00005_1,SAM-BETR823_00005,2016-01-01T00:00:00,,4.239930592809771,51.21325060460749,0,automatic,background,suburban,yes,,3,-999,-999
BETR831,BE.CELINE-IRCEL.AQ,NET-Flanders,42R831,SPO-BETR831_00005_100,SPP-BETR831_00005_1,SAM-BETR831_00005,2011-05-19T00:00:00,,4.339709947119869,51.34879529232821,3,automatic,industrial,rural,yes,,3,-999,-999
BETR834,BE.CELINE-IRCEL.AQ,NET-Flanders,42R834,SPO-BETR834_00005_100,SPP-BETR834_00005_1,SAM-BETR834_00005,2012-06-14T00:00:00,,4.380103544882489,51.092000037901386,0,automatic,background,suburban,yes,,3,-999,-999
BETR841,BE.CELINE-IRCEL.AQ,NET-Flanders,42R841,SPO-BETR841_00005_100,SPP-BETR841_00005_1,SAM-BETR841_00005,2002-10-01T00:00:00,2017-01-01T00:00:00,4.469321036547789,51.002525968782635,8,automatic,background,suburban,yes,,3,-999,-999
BETR842,BE.CELINE-IRCEL.AQ,NET-Flanders,42R842,SPO-BETR842_00005_100,SPP-BETR842_00005_1,SAM-BETR842_00005,2020-07-09T00:00:00,,4.4175399761132,51.22328680344011,0,automatic,traffic,urban,yes,,3,10,5
BETWOL1,BE.CELINE-IRCEL.AQ,NET-Brussels,41WOL1,SPO-BETWOL1_00005_100,SPP-BETWOL1_00005_2,SAM-BETWOL1_00005,2005-03-01T00:00:00,2020-12-09T00:00:00,4.425760659044469,50.85671305215097,78,automatic,traffic,suburban,yes,,3,10,5
