{
    "Countrycode": "BE",
    "Namespace": "BE.CELINE-IRCEL.AQ",
    "AirQualityNetwork": "NET-Brussels",
    "AirQualityStation": "STA-BETR001",
    "SamplingProcess": "SPP-BETR001_00005_2",
    "SamplingPoint": "SPO-BETR001_00005_100",
    "Sample": "SAM-BETR001_00005",
    "AirPollutantCode": "http://dd.eionet.europa.eu/vocabulary/aq/pollutant/5",
    "AirPollutant": "PM10"
}