DatetimeBegin,tp
2013-01-01 00:00:00,0.0010926465
2013-01-01 01:00:00,0.00082399184
2013-01-01 02:00:00,0.0007417796
2013-01-01 03:00:00,0.00072814757
2013-01-01 04:00:00,0.0009774165
2013-01-01 05:00:00,0.0011918261
2013-01-01 06:00:00,0.00092495885
2013-01-01 07:00:00,0.00053492305
2013-01-01 08:00:00,0.00042262045
2013-01-01 09:00:00,0.00037311064
2013-01-01 10:00:00,0.0011140308
2013-01-01 11:00:00,0.00058506033
2013-01-01 12:00:00,0.0002159646
2013-01-01 13:00:00,8.679723e-05
2013-01-01 14:00:00,5.7021243e-05
2013-01-01 15:00:00,7.431563e-05
2013-01-01 16:00:00,3.6622487e-06
2013-01-01 17:00:00,1.9073486e-06
2013-01-01 18:00:00,1.7836901e-06
2013-01-01 19:00:00,3.6870733e-07
2013-01-01 20:00:00,3.6870733e-07
2013-01-01 21:00:00,5.2991066e-07
2013-01-01 22:00:00,2.3359016e-06
2013-01-01 23:00:00,4.0038403e-06
2013-01-02 00:00:00,5.010588e-06
2013-01-02 01:00:00,6.5867753e-06
2013-01-02 02:00:00,9.948634e-06
2013-01-02 03:00:00,1.1228681e-05
2013-01-02 04:00:00,6.8301506e-06
2013-01-02 05:00:00,6.2655017e-06
2013-01-02 06:00:00,7.519281e-06
2013-01-02 07:00:00,3.5193705e-05
2013-01-02 08:00:00,1.8311239e-06
2013-01-02 09:00:00,9.536743e-07
2013-01-02 10:00:00,0.0
2013-01-02 11:00:00,0.0
2013-01-02 12:00:00,0.0
2013-01-02 13:00:00,1.7904631e-06
2013-01-02 14:00:00,2.924834e-06
2013-01-02 15:00:00,2.0134948e-06
2013-01-02 16:00:00,1.03610955e-05
2013-01-02 17:00:00,1.9326413e-05
2013-01-02 18:00:00,2.1557033e-05
2013-01-02 19:00:00,2.3787085e-05
2013-01-02 20:00:00,5.5484297e-06
2013-01-02 21:00:00,1.6120333e-07
2013-01-02 22:00:00,0.0
2013-01-02 23:00:00,0.0
2013-01-03 00:00:00,6.448134e-07
2013-01-03 01:00:00,1.3488644e-05
2013-01-03 02:00:00,0.00051358924
2013-01-03 03:00:00,0.00018732424
2013-01-03 04:00:00,0.00042966031
2013-01-03 05:00:00,7.737419e-05
2013-01-03 06:00:00,5.2422824e-05
2013-01-03 07:00:00,1.6290127e-05
2013-01-03 08:00:00,3.7683958e-06
2013-01-03 09:00:00,2.314734e-06
2013-01-03 10:00:00,2.9225106e-05
2013-01-03 11:00:00,3.9530118e-05
2013-01-03 12:00:00,2.9873074e-05
2013-01-03 13:00:00,0.00023357819
2013-01-03 14:00:00,0.00011789285
2013-01-03 15:00:00,6.0811726e-07
2013-01-03 16:00:00,1.9680438e-06
2013-01-03 17:00:00,4.9998744e-07
2013-01-03 18:00:00,6.7271194e-06
2013-01-03 19:00:00,3.5357589e-06
2013-01-03 20:00:00,2.4662862e-05
2013-01-03 21:00:00,1.306009e-05
2013-01-03 22:00:00,3.2120646e-05
2013-01-03 23:00:00,6.108827e-05
2013-01-04 00:00:00,3.523911e-06
2013-01-04 01:00:00,0.0
2013-01-04 02:00:00,0.0
2013-01-04 03:00:00,1.0917265e-06
2013-01-04 04:00:00,7.693206e-07
2013-01-04 05:00:00,1.5849419e-06
2013-01-04 06:00:00,4.501021e-06
2013-01-04 07:00:00,9.259764e-06
2013-01-04 08:00:00,1.064204e-05
2013-01-04 09:00:00,2.2297545e-06
2013-01-04 10:00:00,4.2300497e-05
2013-01-04 11:00:00,2.4549081e-05
2013-01-04 12:00:00,1.551403e-05
2013-01-04 13:00:00,9.772496e-06
2013-01-04 14:00:00,1.3313071e-05
2013-01-04 15:00:00,8.463376e-06
2013-01-04 16:00:00,1.4341835e-05
2013-01-04 17:00:00,5.658646e-05
2013-01-04 18:00:00,7.61929e-05
2013-01-04 19:00:00,4.0860123e-06
2013-01-04 20:00:00,1.3797457e-05
2013-01-04 21:00:00,4.138355e-05
2013-01-04 22:00:00,3.796068e-05
2013-01-04 23:00:00,1.5625788e-05
2013-01-05 00:00:00,1.1774429e-05
2013-01-05 01:00:00,5.5097516e-06
2013-01-05 02:00:00,5.8253854e-06
2013-01-05 03:00:00,5.747179e-06
2013-01-05 04:00:00,5.194118e-06
2013-01-05 05:00:00,7.962539e-06
2013-01-05 06:00:00,1.42407625e-05
2013-01-05 07:00:00,5.46949e-05
2013-01-05 08:00:00,3.2524375e-05
2013-01-05 09:00:00,2.3230386e-05
2013-01-05 10:00:00,3.5465273e-05
2013-01-05 11:00:00,5.3773374e-06
2013-01-05 12:00:00,6.9557675e-05
2013-01-05 13:00:00,6.5485365e-05
2013-01-05 14:00:00,0.00011661246
2013-01-05 15:00:00,3.001983e-05
2013-01-05 16:00:00,5.108783e-05
2013-01-05 17:00:00,1.4455864e-05
2013-01-05 18:00:00,1.5289785e-05
2013-01-05 19:00:00,5.6302933e-06
2013-01-05 20:00:00,4.7003035e-05
2013-01-05 21:00:00,7.220825e-05
2013-01-05 22:00:00,8.1925464e-05
2013-01-05 23:00:00,8.240343e-06
2013-01-06 00:00:00,6.777077e-06
2013-01-06 01:00:00,8.257005e-06
2013-01-06 02:00:00,5.46345e-06
2013-01-06 03:00:00,4.024184e-06
2013-01-06 04:00:00,4.4228145e-06
2013-01-06 05:00:00,1.4926517e-05
2013-01-06 06:00:00,9.434561e-06
2013-01-06 07:00:00,1.8824489e-05
2013-01-06 08:00:00,5.849669e-07
2013-01-06 09:00:00,0.0
2013-01-06 10:00:00,7.4617026e-07
2013-01-06 11:00:00,4.1179183e-06
2013-01-06 12:00:00,2.924834e-06
2013-01-06 13:00:00,2.339867e-06
2013-01-06 14:00:00,1.1699331e-06
2013-01-06 15:00:00,5.849669e-07
2013-01-06 16:00:00,2.7085744e-06
2013-01-06 17:00:00,3.0772817e-06
2013-01-06 18:00:00,2.4923147e-06
2013-01-06 19:00:00,2.8336377e-05
2013-01-06 20:00:00,2.954695e-05
2013-01-06 21:00:00,2.2421198e-05
2013-01-06 22:00:00,7.673427e-06
2013-01-06 23:00:00,5.3397926e-06
2013-01-07 00:00:00,3.2297303e-06
2013-01-07 01:00:00,7.974927e-06
2013-01-07 02:00:00,8.766004e-06
2013-01-07 03:00:00,2.0232925e-05
2013-01-07 04:00:00,4.812755e-05
2013-01-07 05:00:00,6.4772204e-05
2013-01-07 06:00:00,1.9868225e-05
2013-01-07 07:00:00,2.4763853e-05
2013-01-07 08:00:00,1.8791441e-05
2013-01-07 09:00:00,2.3990331e-05
2013-01-07 10:00:00,5.2121686e-06
2013-01-07 11:00:00,1.1154998e-05
2013-01-07 12:00:00,5.860378e-06
2013-01-07 13:00:00,4.368607e-06
2013-01-07 14:00:00,8.918451e-06
2013-01-07 15:00:00,4.318341e-06
2013-01-07 16:00:00,1.9073486e-06
2013-01-07 17:00:00,6.868805e-06
2013-01-07 18:00:00,1.6959733e-05
2013-01-07 19:00:00,6.534273e-05
2013-01-07 20:00:00,1.7755068e-05
2013-01-07 21:00:00,1.9668354e-05
2013-01-07 22:00:00,8.997227e-06
2013-01-07 23:00:00,2.6411988e-05
2013-01-08 00:00:00,1.087267e-05
2013-01-08 01:00:00,1.3150424e-05
2013-01-08 02:00:00,1.5454716e-05
2013-01-08 03:00:00,1.2265661e-05
2013-01-08 04:00:00,5.325398e-06
2013-01-08 05:00:00,5.018519e-06
2013-01-08 06:00:00,1.962405e-06
2013-01-08 07:00:00,5.9247595e-06
2013-01-08 08:00:00,9.318809e-06
2013-01-08 09:00:00,4.4315693e-06
2013-01-08 10:00:00,7.013655e-06
2013-01-08 11:00:00,7.661276e-06
2013-01-08 12:00:00,4.68056e-06
2013-01-08 13:00:00,6.7782103e-06
2013-01-08 14:00:00,3.3996885e-06
2013-01-08 15:00:00,3.445989e-06
2013-01-08 16:00:00,1.0222193e-05
2013-01-08 17:00:00,9.855184e-06
2013-01-08 18:00:00,4.658258e-06
2013-01-08 19:00:00,7.862595e-06
2013-01-08 20:00:00,1.0328389e-05
2013-01-08 21:00:00,9.574597e-06
2013-01-08 22:00:00,1.508718e-06
2013-01-08 23:00:00,8.774504e-07
2013-01-09 00:00:00,5.849669e-07
2013-01-09 01:00:00,2.9248343e-07
2013-01-09 02:00:00,3.1563377e-07
2013-01-09 03:00:00,0.0
2013-01-09 04:00:00,2.397731e-06
2013-01-09 05:00:00,1.9671943e-06
2013-01-09 06:00:00,1.8850469e-06
2013-01-09 07:00:00,1.2723853e-05
2013-01-09 08:00:00,2.1080748e-05
2013-01-09 09:00:00,4.4002867e-05
2013-01-09 10:00:00,7.899037e-05
2013-01-09 11:00:00,0.0005650092
2013-01-09 12:00:00,0.000879443
2013-01-09 13:00:00,0.0007227196
2013-01-09 14:00:00,0.00013261061
2013-01-09 15:00:00,0.0001718632
2013-01-09 16:00:00,4.6733534e-05
2013-01-09 17:00:00,9.283763e-06
2013-01-09 18:00:00,1.2142518e-05
2013-01-09 19:00:00,1.1378582e-05
2013-01-09 20:00:00,2.7627248e-05
2013-01-09 21:00:00,3.354794e-05
2013-01-09 22:00:00,2.73997e-05
2013-01-09 23:00:00,1.7416824e-05
2013-01-10 00:00:00,3.1796764e-05
2013-01-10 01:00:00,1.1523122e-05
2013-01-10 02:00:00,8.295399e-06
2013-01-10 03:00:00,7.665266e-06
2013-01-10 04:00:00,6.434636e-06
2013-01-10 05:00:00,4.785882e-06
2013-01-10 06:00:00,1.8610472e-06
2013-01-10 07:00:00,6.2183763e-06
2013-01-10 08:00:00,2.7548758e-06
2013-01-10 09:00:00,9.536743e-07
2013-01-10 10:00:00,5.849669e-07
2013-01-10 11:00:00,5.849669e-07
2013-01-10 12:00:00,1.3686822e-06
2013-01-10 13:00:00,9.999749e-07
2013-01-10 14:00:00,2.0067228e-06
2013-01-10 15:00:00,2.621612e-06
2013-01-10 16:00:00,9.536743e-07
2013-01-10 17:00:00,0.0
2013-01-10 18:00:00,1.8435367e-07
2013-01-10 19:00:00,9.536743e-07
2013-01-10 20:00:00,9.536743e-07
2013-01-10 21:00:00,2.6910639e-06
2013-01-10 22:00:00,5.188169e-06
2013-01-10 23:00:00,5.504652e-06
2013-01-11 00:00:00,1.056324e-05
2013-01-11 01:00:00,2.2170512e-05
2013-01-11 02:00:00,4.694087e-05
2013-01-11 03:00:00,8.369482e-05
2013-01-11 04:00:00,0.0001324014
2013-01-11 05:00:00,0.00013360304
2013-01-11 06:00:00,0.00010307254
2013-01-11 07:00:00,0.000107051295
2013-01-11 08:00:00,5.8361955e-05
2013-01-11 09:00:00,2.2245935e-05
2013-01-11 10:00:00,1.0843056e-05
2013-01-11 11:00:00,7.5495136e-06
2013-01-11 12:00:00,8.611318e-06
2013-01-11 13:00:00,1.2621107e-05
2013-01-11 14:00:00,1.0313145e-05
2013-01-11 15:00:00,4.679735e-06
2013-01-11 16:00:00,1.1699331e-06
2013-01-11 17:00:00,0.0
2013-01-11 18:00:00,0.0
2013-01-11 19:00:00,0.0
2013-01-11 20:00:00,0.0
2013-01-11 21:00:00,0.0
2013-01-11 22:00:00,0.0
2013-01-11 23:00:00,0.0
2013-01-12 00:00:00,0.0
2013-01-12 01:00:00,0.0
2013-01-12 02:00:00,0.0
2013-01-12 03:00:00,0.0
2013-01-12 04:00:00,0.0
2013-01-12 05:00:00,0.0
2013-01-12 06:00:00,0.0
2013-01-12 07:00:00,0.0
2013-01-12 08:00:00,0.0
2013-01-12 09:00:00,0.0
2013-01-12 10:00:00,0.0
2013-01-12 11:00:00,0.0
2013-01-12 12:00:00,0.0
2013-01-12 13:00:00,0.0
2013-01-12 14:00:00,0.0
2013-01-12 15:00:00,0.0
2013-01-12 16:00:00,5.849669e-07
2013-01-12 17:00:00,2.100457e-06
2013-01-12 18:00:00,9.118078e-06
2013-01-12 19:00:00,0.000146167
2013-01-12 20:00:00,0.0002631226
2013-01-12 21:00:00,0.0003596067
2013-01-12 22:00:00,0.00034207315
2013-01-12 23:00:00,0.0002471318
2013-01-13 00:00:00,0.00014296711
2013-01-13 01:00:00,9.950575e-05
2013-01-13 02:00:00,0.00011055029
2013-01-13 03:00:00,0.000115890114
2013-01-13 04:00:00,8.588447e-05
2013-01-13 05:00:00,3.7510545e-05
2013-01-13 06:00:00,8.531953e-06
2013-01-13 07:00:00,0.00013662748
2013-01-13 08:00:00,0.00014893527
2013-01-13 09:00:00,0.00012214095
2013-01-13 10:00:00,8.073686e-05
2013-01-13 11:00:00,4.9218754e-05
2013-01-13 12:00:00,2.596325e-05
2013-01-13 13:00:00,1.284414e-05
2013-01-13 14:00:00,5.156572e-06
2013-01-13 15:00:00,1.4624165e-06
2013-01-13 16:00:00,2.9248343e-07
2013-01-13 17:00:00,0.0
2013-01-13 18:00:00,0.0
2013-01-13 19:00:00,9.999749e-07
2013-01-13 20:00:00,2.6910639e-06
2013-01-13 21:00:00,4.881291e-06
2013-01-13 22:00:00,4.137103e-06
2013-01-13 23:00:00,2.1998312e-06
2013-01-14 00:00:00,9.536743e-07
2013-01-14 01:00:00,6.312676e-07
2013-01-14 02:00:00,6.0811726e-07
2013-01-14 03:00:00,5.849669e-07
2013-01-14 04:00:00,2.9248343e-07
2013-01-14 05:00:00,2.9248343e-07
2013-01-14 06:00:00,2.9248343e-07
2013-01-14 07:00:00,2.0705338e-06
2013-01-14 08:00:00,7.693206e-07
2013-01-14 09:00:00,4.0704845e-06
2013-01-14 10:00:00,5.362943e-06
2013-01-14 11:00:00,2.515466e-06
2013-01-14 12:00:00,9.768246e-07
2013-01-14 13:00:00,2.07504e-07
2013-01-14 14:00:00,0.0
2013-01-14 15:00:00,0.0
2013-01-14 16:00:00,0.0
2013-01-14 17:00:00,0.0
2013-01-14 18:00:00,0.0
2013-01-14 19:00:00,9.489436e-05
2013-01-14 20:00:00,0.0002680926
2013-01-14 21:00:00,0.0009168775
2013-01-14 22:00:00,0.0016930134
2013-01-14 23:00:00,0.0016930678
2013-01-15 00:00:00,0.0012883719
2013-01-15 01:00:00,0.0006567016
2013-01-15 02:00:00,0.00023428837
2013-01-15 03:00:00,7.592696e-05
2013-01-15 04:00:00,3.2098877e-05
2013-01-15 05:00:00,1.7351354e-05
2013-01-15 06:00:00,9.387127e-06
2013-01-15 07:00:00,1.2992305e-06
2013-01-15 08:00:00,3.510626e-06
2013-01-15 09:00:00,1.9591724e-05
2013-01-15 10:00:00,3.7962745e-05
2013-01-15 11:00:00,5.758443e-05
2013-01-15 12:00:00,0.00014399302
2013-01-15 13:00:00,0.00022482802
2013-01-15 14:00:00,0.00028735562
2013-01-15 15:00:00,0.00023599215
2013-01-15 16:00:00,9.957672e-05
2013-01-15 17:00:00,2.888385e-05
2013-01-15 18:00:00,1.2558993e-05
2013-01-15 19:00:00,9.093509e-06
2013-01-15 20:00:00,1.6019083e-05
2013-01-15 21:00:00,3.0821946e-05
2013-01-15 22:00:00,4.5368768e-05
2013-01-15 23:00:00,5.590044e-05
2013-01-16 00:00:00,3.529222e-05
2013-01-16 01:00:00,1.491439e-05
2013-01-16 02:00:00,5.772312e-06
2013-01-16 03:00:00,2.8630056e-06
2013-01-16 04:00:00,1.4855677e-06
2013-01-16 05:00:00,8.774504e-07
2013-01-16 06:00:00,2.9248343e-07
2013-01-16 07:00:00,0.0
2013-01-16 08:00:00,5.849669e-07
2013-01-16 09:00:00,2.9248343e-07
2013-01-16 10:00:00,2.9248343e-07
2013-01-16 11:00:00,2.9248343e-07
2013-01-16 12:00:00,2.9248343e-07
2013-01-16 13:00:00,3.1563377e-07
2013-01-16 14:00:00,6.312676e-07
2013-01-16 15:00:00,0.0
2013-01-16 16:00:00,9.237511e-07
2013-01-16 17:00:00,1.508718e-06
2013-01-16 18:00:00,1.6699214e-06
2013-01-16 19:00:00,1.5849419e-06
2013-01-16 20:00:00,2.1699088e-06
2013-01-16 21:00:00,2.1699088e-06
2013-01-16 22:00:00,1.5849419e-06
2013-01-16 23:00:00,3.1235832e-06
2013-01-17 00:00:00,9.634158e-06
2013-01-17 01:00:00,9.3086355e-06
2013-01-17 02:00:00,6.4930637e-06
2013-01-17 03:00:00,2.2162094e-06
2013-01-17 04:00:00,1.8542751e-06
2013-01-17 05:00:00,5.763556e-06
2013-01-17 06:00:00,3.2780135e-06
2013-01-17 07:00:00,3.3079368e-06
2013-01-17 08:00:00,2.8378718e-06
2013-01-17 09:00:00,3.238485e-06
2013-01-17 10:00:00,1.6080921e-06
2013-01-17 11:00:00,9.768246e-07
2013-01-17 12:00:00,3.1563377e-07
2013-01-17 13:00:00,1.6120333e-07
2013-01-17 14:00:00,2.9248343e-07
2013-01-17 15:00:00,0.0
2013-01-17 16:00:00,1.1388765e-06
2013-01-17 17:00:00,9.999749e-07
2013-01-17 18:00:00,4.15008e-07
2013-01-17 19:00:00,3.1379777e-06
2013-01-17 20:00:00,2.368657e-06
2013-01-17 21:00:00,1.1843285e-06
2013-01-17 22:00:00,9.381458e-07
2013-01-17 23:00:00,3.004715e-06
2013-01-18 00:00:00,4.4256212e-06
2013-01-18 01:00:00,4.289551e-06
2013-01-18 02:00:00,1.15056355e-05
2013-01-18 03:00:00,2.041363e-05
2013-01-18 04:00:00,1.4249749e-05
2013-01-18 05:00:00,8.423539e-06
2013-01-18 06:00:00,5.619555e-06
2013-01-18 07:00:00,1.214056e-05
2013-01-18 08:00:00,1.2660866e-05
2013-01-18 09:00:00,5.587649e-06
2013-01-18 10:00:00,3.6870733e-07
2013-01-18 11:00:00,0.0
2013-01-18 12:00:00,0.0
2013-01-18 13:00:00,1.038653e-06
2013-01-18 14:00:00,2.7153474e-06
2013-01-18 15:00:00,5.1526067e-06
2013-01-18 16:00:00,3.5058356e-06
2013-01-18 17:00:00,2.5521613e-06
2013-01-18 18:00:00,1.6447875e-06
2013-01-18 19:00:00,1.6120333e-07
2013-01-18 20:00:00,0.0
2013-01-18 21:00:00,1.8079736e-06
2013-01-18 22:00:00,1.2177001e-05
2013-01-18 23:00:00,3.24063e-05
2013-01-19 00:00:00,7.5778735e-05
2013-01-19 01:00:00,0.00014356613
2013-01-19 02:00:00,0.00015894798
2013-01-19 03:00:00,0.00012789822
2013-01-19 04:00:00,0.00011350136
2013-01-19 05:00:00,9.046409e-05
2013-01-19 06:00:00,3.7396836e-05
2013-01-19 07:00:00,1.4817823e-05
2013-01-19 08:00:00,5.2308133e-06
2013-01-19 09:00:00,1.8841974e-06
2013-01-19 10:00:00,1.4073603e-06
2013-01-19 11:00:00,9.0737365e-07
2013-01-19 12:00:00,4.5368682e-07
2013-01-19 13:00:00,2.9248343e-07
2013-01-19 14:00:00,0.0
2013-01-19 15:00:00,0.0
2013-01-19 16:00:00,0.0
2013-01-19 17:00:00,0.0
2013-01-19 18:00:00,0.0
2013-01-19 19:00:00,0.0
2013-01-19 20:00:00,0.0
2013-01-19 21:00:00,0.0
2013-01-19 22:00:00,0.0
2013-01-19 23:00:00,0.0
2013-01-20 00:00:00,0.0
2013-01-20 01:00:00,0.0
2013-01-20 02:00:00,0.0
2013-01-20 03:00:00,5.849669e-07
2013-01-20 04:00:00,3.986638e-06
2013-01-20 05:00:00,1.9691797e-05
2013-01-20 06:00:00,5.7834885e-05
2013-01-20 07:00:00,0.00080152485
2013-01-20 08:00:00,0.0009263058
2013-01-20 09:00:00,0.001037484
2013-01-20 10:00:00,0.00097606843
2013-01-20 11:00:00,0.00085757417
2013-01-20 12:00:00,0.00075944327
2013-01-20 13:00:00,0.00046326173
2013-01-20 14:00:00,0.00017018964
2013-01-20 15:00:00,3.3931836e-05
2013-01-20 16:00:00,4.086837e-06
2013-01-20 17:00:00,5.800228e-06
2013-01-20 18:00:00,6.7426314e-05
2013-01-20 19:00:00,7.0625785e-05
2013-01-20 20:00:00,4.2935368e-05
2013-01-20 21:00:00,2.3095956e-05
2013-01-20 22:00:00,1.45047115e-05
2013-01-20 23:00:00,1.4656311e-05
2013-01-21 00:00:00,3.4123892e-05
2013-01-21 01:00:00,7.478909e-05
2013-01-21 02:00:00,8.7928755e-05
2013-01-21 03:00:00,7.006532e-05
2013-01-21 04:00:00,4.14455e-05
2013-01-21 05:00:00,1.9752697e-05
2013-01-21 06:00:00,8.415916e-06
2013-01-21 07:00:00,1.1524226e-06
2013-01-21 08:00:00,4.6300656e-08
2013-01-21 09:00:00,6.312676e-07
2013-01-21 10:00:00,2.1699088e-06
2013-01-21 11:00:00,4.9247847e-06
2013-01-21 12:00:00,1.3986673e-05
2013-01-21 13:00:00,2.5422822e-05
2013-01-21 14:00:00,2.8432289e-05
2013-01-21 15:00:00,2.4949579e-05
2013-01-21 16:00:00,9.339644e-06
2013-01-21 17:00:00,4.1331377e-06
2013-01-21 18:00:00,1.01352e-06
2013-01-21 19:00:00,6.448134e-07
2013-01-21 20:00:00,0.0
2013-01-21 21:00:00,3.2240666e-07
2013-01-21 22:00:00,0.0
2013-01-21 23:00:00,0.0
2013-01-22 00:00:00,0.0
2013-01-22 01:00:00,3.8785083e-06
2013-01-22 02:00:00,1.12668195e-05
2013-01-22 03:00:00,1.7548999e-05
2013-01-22 04:00:00,6.758793e-05
2013-01-22 05:00:00,4.9294133e-05
2013-01-22 06:00:00,1.2924584e-06
2013-01-22 07:00:00,0.0
2013-01-22 08:00:00,0.0
2013-01-22 09:00:00,0.0
2013-01-22 10:00:00,0.0
2013-01-22 11:00:00,0.0
2013-01-22 12:00:00,0.0
2013-01-22 13:00:00,0.0
2013-01-22 14:00:00,0.0
2013-01-22 15:00:00,0.0
2013-01-22 16:00:00,0.0
2013-01-22 17:00:00,0.0
2013-01-22 18:00:00,0.0
2013-01-22 19:00:00,0.0
2013-01-22 20:00:00,0.0
2013-01-22 21:00:00,0.0
2013-01-22 22:00:00,0.0
2013-01-22 23:00:00,0.0
2013-01-23 00:00:00,0.0
2013-01-23 01:00:00,0.0
2013-01-23 02:00:00,0.0
2013-01-23 03:00:00,0.0
2013-01-23 04:00:00,0.0
2013-01-23 05:00:00,0.0
2013-01-23 06:00:00,0.0
2013-01-23 07:00:00,0.0
2013-01-23 08:00:00,0.0
2013-01-23 09:00:00,0.0
2013-01-23 10:00:00,0.0
2013-01-23 11:00:00,0.0
2013-01-23 12:00:00,0.0
2013-01-23 13:00:00,0.0
2013-01-23 14:00:00,0.0
2013-01-23 15:00:00,2.9248343e-07
2013-01-23 16:00:00,2.9248343e-07
2013-01-23 17:00:00,5.849669e-07
2013-01-23 18:00:00,0.0
2013-01-23 19:00:00,5.849669e-07
2013-01-23 20:00:00,0.0
2013-01-23 21:00:00,0.0
2013-01-23 22:00:00,0.0
2013-01-23 23:00:00,0.0
2013-01-24 00:00:00,0.0
2013-01-24 01:00:00,5.849669e-07
2013-01-24 02:00:00,2.9248343e-07
2013-01-24 03:00:00,5.849669e-07
2013-01-24 04:00:00,8.774504e-07
2013-01-24 05:00:00,8.774504e-07
2013-01-24 06:00:00,1.1699331e-06
2013-01-24 07:00:00,1.2162345e-06
2013-01-24 08:00:00,1.5386404e-06
2013-01-24 09:00:00,1.5386404e-06
2013-01-24 10:00:00,9.536743e-07
2013-01-24 11:00:00,9.999749e-07
2013-01-24 12:00:00,9.999749e-07
2013-01-24 13:00:00,4.7683716e-07
2013-01-24 14:00:00,6.312676e-07
2013-01-24 15:00:00,9.999749e-07
2013-01-24 16:00:00,2.4923147e-06
2013-01-24 17:00:00,1.5386404e-06
2013-01-24 18:00:00,1.5386404e-06
2013-01-24 19:00:00,4.3861182e-06
2013-01-24 20:00:00,8.446998e-06
2013-01-24 21:00:00,6.8939617e-06
2013-01-24 22:00:00,3.954732e-06
2013-01-24 23:00:00,1.9073486e-06
2013-01-25 00:00:00,1.7373895e-06
2013-01-25 01:00:00,2.8454942e-06
2013-01-25 02:00:00,5.4922402e-06
2013-01-25 03:00:00,6.9227517e-06
2013-01-25 04:00:00,4.960347e-06
2013-01-25 05:00:00,2.6679136e-06
2013-01-25 06:00:00,2.1746982e-06
2013-01-25 07:00:00,9.536743e-07
2013-01-25 08:00:00,9.999749e-07
2013-01-25 09:00:00,3.6870733e-07
2013-01-25 10:00:00,3.6870733e-07
2013-01-25 11:00:00,9.536743e-07
2013-01-25 12:00:00,2.768421e-06
2013-01-25 13:00:00,3.4922905e-06
2013-01-25 14:00:00,4.6300656e-08
2013-01-25 15:00:00,9.260128e-08
2013-01-25 16:00:00,8.4639345e-07
2013-01-25 17:00:00,4.6300656e-08
2013-01-25 18:00:00,0.0
2013-01-25 19:00:00,5.849669e-07
2013-01-25 20:00:00,1.8012015e-06
2013-01-25 21:00:00,1.2461569e-06
2013-01-25 22:00:00,6.312676e-07
2013-01-25 23:00:00,6.0811726e-07
2013-01-26 00:00:00,5.849669e-07
2013-01-26 01:00:00,0.0
2013-01-26 02:00:00,0.0
2013-01-26 03:00:00,0.0
2013-01-26 04:00:00,0.0
2013-01-26 05:00:00,0.0
2013-01-26 06:00:00,0.0
2013-01-26 07:00:00,0.0
2013-01-26 08:00:00,1.6583335e-06
2013-01-26 09:00:00,2.1075597e-05
2013-01-26 10:00:00,0.00010090455
2013-01-26 11:00:00,0.00028517144
2013-01-26 12:00:00,0.00024289881
2013-01-26 13:00:00,6.547976e-05
2013-01-26 14:00:00,1.1426604e-05
2013-01-26 15:00:00,1.2625351e-06
2013-01-26 16:00:00,2.9711355e-06
2013-01-26 17:00:00,2.9248343e-07
2013-01-26 18:00:00,4.5368682e-07
2013-01-26 19:00:00,1.2625351e-06
2013-01-26 20:00:00,0.0
2013-01-26 21:00:00,0.0
2013-01-26 22:00:00,0.0
2013-01-26 23:00:00,0.0
2013-01-27 00:00:00,0.0
2013-01-27 01:00:00,0.0
2013-01-27 02:00:00,2.5058607e-06
2013-01-27 03:00:00,8.774504e-07
2013-01-27 04:00:00,2.470014e-06
2013-01-27 05:00:00,0.0
2013-01-27 06:00:00,0.00015386907
2013-01-27 07:00:00,1.846756e-05
2013-01-27 08:00:00,0.00012482608
2013-01-27 09:00:00,0.00050690887
2013-01-27 10:00:00,0.0013784948
2013-01-27 11:00:00,0.0013208161
2013-01-27 12:00:00,0.00056133023
2013-01-27 13:00:00,0.00012806077
2013-01-27 14:00:00,8.540733e-06
2013-01-27 15:00:00,2.7373644e-06
2013-01-27 16:00:00,4.4453946e-06
2013-01-27 17:00:00,4.6300656e-08
2013-01-27 18:00:00,0.0
2013-01-27 19:00:00,0.0
2013-01-27 20:00:00,0.0
2013-01-27 21:00:00,0.0
2013-01-27 22:00:00,0.0
2013-01-27 23:00:00,0.0
2013-01-28 00:00:00,0.0
2013-01-28 01:00:00,0.0
2013-01-28 02:00:00,0.0
2013-01-28 03:00:00,0.0
2013-01-28 04:00:00,0.0
2013-01-28 05:00:00,6.380405e-07
2013-01-28 06:00:00,3.8429207e-05
2013-01-28 07:00:00,0.00022732471
2013-01-28 08:00:00,0.00043822709
2013-01-28 09:00:00,0.00014612306
2013-01-28 10:00:00,7.5735134e-06
2013-01-28 11:00:00,0.0
2013-01-28 12:00:00,0.0
2013-01-28 13:00:00,0.0
2013-01-28 14:00:00,0.0
2013-01-28 15:00:00,0.0
2013-01-28 16:00:00,0.0
2013-01-28 17:00:00,0.0
2013-01-28 18:00:00,0.0
2013-01-28 19:00:00,0.0
2013-01-28 20:00:00,0.00027079298
2013-01-28 21:00:00,0.00047256565
2013-01-28 22:00:00,9.458994e-05
2013-01-28 23:00:00,5.743478e-05
2013-01-29 00:00:00,4.7589157e-05
2013-01-29 01:00:00,0.00010370233
2013-01-29 02:00:00,0.00018427212
2013-01-29 03:00:00,0.0001574582
2013-01-29 04:00:00,7.549387e-05
2013-01-29 05:00:00,4.897843e-05
2013-01-29 06:00:00,0.0011610468
2013-01-29 07:00:00,0.001169503
2013-01-29 08:00:00,0.0020083848
2013-01-29 09:00:00,0.0016913409
2013-01-29 10:00:00,0.0013798941
2013-01-29 11:00:00,0.0021367772
2013-01-29 12:00:00,0.0012508682
2013-01-29 13:00:00,0.0011287434
2013-01-29 14:00:00,0.0003146606
2013-01-29 15:00:00,8.542526e-05
2013-01-29 16:00:00,0.000100269914
2013-01-29 17:00:00,1.5276295e-05
2013-01-29 18:00:00,2.8147215e-06
2013-01-29 19:00:00,1.9625644e-05
2013-01-29 20:00:00,9.999749e-07
2013-01-29 21:00:00,1.2760802e-06
2013-01-29 22:00:00,5.2471914e-06
2013-01-29 23:00:00,1.3686822e-06
2013-01-30 00:00:00,4.1698586e-06
2013-01-30 01:00:00,9.558219e-06
2013-01-30 02:00:00,1.2057308e-05
2013-01-30 03:00:00,3.9846555e-06
2013-01-30 04:00:00,2.8059658e-06
2013-01-30 05:00:00,4.5221886e-06
2013-01-30 06:00:00,1.2771239e-05
2013-01-30 07:00:00,0.0001526043
2013-01-30 08:00:00,0.00037721335
2013-01-30 09:00:00,0.0007506162
2013-01-30 10:00:00,0.0017262872
2013-01-30 11:00:00,0.0012571895
2013-01-30 12:00:00,0.000278685
2013-01-30 13:00:00,9.899787e-06
2013-01-30 14:00:00,4.961867e-05
2013-01-30 15:00:00,7.388876e-05
2013-01-30 16:00:00,2.924834e-06
2013-01-30 17:00:00,0.0
2013-01-30 18:00:00,0.0
2013-01-30 19:00:00,0.0
2013-01-30 20:00:00,0.0
2013-01-30 21:00:00,0.0
2013-01-30 22:00:00,0.0
2013-01-30 23:00:00,0.0
2013-01-31 00:00:00,0.0
2013-01-31 01:00:00,0.0
2013-01-31 02:00:00,0.0
2013-01-31 03:00:00,0.0
2013-01-31 04:00:00,8.774504e-07
2013-01-31 05:00:00,3.387841e-07
2013-01-31 06:00:00,0.0
2013-01-31 07:00:00,0.0
2013-01-31 08:00:00,0.0
2013-01-31 09:00:00,1.4141333e-06
2013-01-31 10:00:00,0.00055063935
2013-01-31 11:00:00,0.000599538
2013-01-31 12:00:00,0.0007267003
2013-01-31 13:00:00,0.00027217576
2013-01-31 14:00:00,0.00031762663
2013-01-31 15:00:00,0.00049131317
2013-01-31 16:00:00,1.7549e-06
2013-01-31 17:00:00,0.0
2013-01-31 18:00:00,0.0
2013-01-31 19:00:00,0.0
2013-01-31 20:00:00,0.0
2013-01-31 21:00:00,0.0
2013-01-31 22:00:00,0.0
2013-01-31 23:00:00,0.0
2013-02-01 00:00:00,0.0
2013-02-01 01:00:00,2.9248343e-07
2013-02-01 02:00:00,6.854434e-06
2013-02-01 03:00:00,5.4384305e-05
2013-02-01 04:00:00,0.00017136335
2013-02-01 05:00:00,0.00041876454
2013-02-01 06:00:00,0.00052135857
2013-02-01 07:00:00,0.000991158
2013-02-01 08:00:00,0.0011022929
2013-02-01 09:00:00,0.0010805565
2013-02-01 10:00:00,0.00094659394
2013-02-01 11:00:00,0.00078243576
2013-02-01 12:00:00,0.0004990767
2013-02-01 13:00:00,0.00029148674
2013-02-01 14:00:00,0.0004553711
2013-02-01 15:00:00,0.0013174803
2013-02-01 16:00:00,0.0016675775
2013-02-01 17:00:00,0.0011784926
2013-02-01 18:00:00,0.0003275692
2013-02-01 19:00:00,0.00011164759
2013-02-01 20:00:00,3.752623e-05
2013-02-01 21:00:00,2.1041298e-05
2013-02-01 22:00:00,1.2512977e-05
2013-02-01 23:00:00,4.2472157e-06
2013-02-02 00:00:00,1.5685637e-06
2013-02-02 01:00:00,1.591714e-06
2013-02-02 02:00:00,2.068551e-06
2013-02-02 03:00:00,3.4977682e-05
2013-02-02 04:00:00,6.1103885e-05
2013-02-02 05:00:00,0.000109489556
2013-02-02 06:00:00,0.00019148884
2013-02-02 07:00:00,0.00031612767
2013-02-02 08:00:00,0.0001946524
2013-02-02 09:00:00,7.1710354e-05
2013-02-02 10:00:00,6.946469e-05
2013-02-02 11:00:00,8.88464e-05
2013-02-02 12:00:00,6.321982e-05
2013-02-02 13:00:00,8.115827e-05
2013-02-02 14:00:00,0.00012485524
2013-02-02 15:00:00,8.1794904e-05
2013-02-02 16:00:00,1.947154e-05
2013-02-02 17:00:00,1.1451998e-05
2013-02-02 18:00:00,9.348732e-06
2013-02-02 19:00:00,9.536743e-07
2013-02-02 20:00:00,5.849669e-07
2013-02-02 21:00:00,0.0
2013-02-02 22:00:00,9.0737365e-07
2013-02-02 23:00:00,5.849669e-07
2013-02-03 00:00:00,9.0737365e-07
2013-02-03 01:00:00,1.6447875e-06
2013-02-03 02:00:00,4.2104957e-06
2013-02-03 03:00:00,4.913197e-06
2013-02-03 04:00:00,3.9527495e-06
2013-02-03 05:00:00,4.519007e-05
2013-02-03 06:00:00,8.218327e-06
2013-02-03 07:00:00,2.307961e-06
2013-02-03 08:00:00,1.2693081e-06
2013-02-03 09:00:00,9.237511e-07
2013-02-03 10:00:00,2.9248343e-07
2013-02-03 11:00:00,2.9248343e-07
2013-02-03 12:00:00,0.0
2013-02-03 13:00:00,0.0
2013-02-03 14:00:00,1.7573766e-05
2013-02-03 15:00:00,0.00022825891
2013-02-03 16:00:00,0.00048768055
2013-02-03 17:00:00,0.00048776786
2013-02-03 18:00:00,0.0002786673
2013-02-03 19:00:00,0.000108664244
2013-02-03 20:00:00,5.2862917e-05
2013-02-03 21:00:00,2.4593406e-05
2013-02-03 22:00:00,1.09844805e-05
2013-02-03 23:00:00,1.0194277e-05
2013-02-04 00:00:00,3.7703785e-06
2013-02-04 01:00:00,1.4484138e-05
2013-02-04 02:00:00,6.637028e-05
2013-02-04 03:00:00,2.855828e-05
2013-02-04 04:00:00,4.1331863e-05
2013-02-04 05:00:00,3.57727e-06
2013-02-04 06:00:00,1.8614155e-05
2013-02-04 07:00:00,6.189669e-05
2013-02-04 08:00:00,7.6627664e-05
2013-02-04 09:00:00,4.2668617e-05
2013-02-04 10:00:00,2.6392343e-05
2013-02-04 11:00:00,0.00021781505
2013-02-04 12:00:00,0.00018092051
2013-02-04 13:00:00,0.00030243583
2013-02-04 14:00:00,5.6142293e-05
2013-02-04 15:00:00,4.1300853e-05
2013-02-04 16:00:00,1.725652e-05
2013-02-04 17:00:00,5.849669e-07
2013-02-04 18:00:00,0.0
2013-02-04 19:00:00,5.2420306e-05
2013-02-04 20:00:00,1.697219e-05
2013-02-04 21:00:00,2.9248343e-07
2013-02-04 22:00:00,0.0
2013-02-04 23:00:00,0.0
2013-02-05 00:00:00,2.9248343e-07
2013-02-05 01:00:00,5.849669e-07
2013-02-05 02:00:00,8.774504e-07
2013-02-05 03:00:00,6.1932433e-06
2013-02-05 04:00:00,0.0001750405
2013-02-05 05:00:00,0.00081617665
2013-02-05 06:00:00,0.0006028628
2013-02-05 07:00:00,0.00034601614
2013-02-05 08:00:00,0.0005256075
2013-02-05 09:00:00,6.6741224e-05
2013-02-05 10:00:00,1.8796505e-05
2013-02-05 11:00:00,5.7920606e-06
2013-02-05 12:00:00,0.00011348359
2013-02-05 13:00:00,0.0001845603
2013-02-05 14:00:00,8.74784e-05
2013-02-05 15:00:00,5.117843e-05
2013-02-05 16:00:00,3.505987e-05
2013-02-05 17:00:00,6.312676e-07
2013-02-05 18:00:00,0.0
2013-02-05 19:00:00,0.0
2013-02-05 20:00:00,0.0
2013-02-05 21:00:00,0.0
2013-02-05 22:00:00,3.5265242e-05
2013-02-05 23:00:00,0.0004045847
2013-02-06 00:00:00,0.0007572253
2013-02-06 01:00:00,0.0007692815
2013-02-06 02:00:00,0.00046240469
2013-02-06 03:00:00,0.00039062067
2013-02-06 04:00:00,0.00029274262
2013-02-06 05:00:00,0.00043242052
2013-02-06 06:00:00,0.0003930414
2013-02-06 07:00:00,5.934495e-05
2013-02-06 08:00:00,0.00019439055
2013-02-06 09:00:00,0.00016985367
2013-02-06 10:00:00,0.00011751252
2013-02-06 11:00:00,2.5580986e-05
2013-02-06 12:00:00,8.982008e-06
2013-02-06 13:00:00,8.774504e-07
2013-02-06 14:00:00,0.0
2013-02-06 15:00:00,6.4035303e-06
2013-02-06 16:00:00,4.2720218e-05
2013-02-06 17:00:00,9.853541e-05
2013-02-06 18:00:00,7.443219e-05
2013-02-06 19:00:00,7.084194e-05
2013-02-06 20:00:00,2.4381574e-05
2013-02-06 21:00:00,0.00014988834
2013-02-06 22:00:00,0.00010161051
2013-02-06 23:00:00,0.0001369951
2013-02-07 00:00:00,0.00010772156
2013-02-07 01:00:00,0.00015658351
2013-02-07 02:00:00,0.0001651039
2013-02-07 03:00:00,0.00011455064
2013-02-07 04:00:00,0.00015003825
2013-02-07 05:00:00,7.334689e-05
2013-02-07 06:00:00,7.891301e-05
2013-02-07 07:00:00,0.0004622643
2013-02-07 08:00:00,0.00029382273
2013-02-07 09:00:00,0.0001346473
2013-02-07 10:00:00,0.00012947217
2013-02-07 11:00:00,0.00025216746
2013-02-07 12:00:00,0.00040277722
2013-02-07 13:00:00,0.0005653214
2013-02-07 14:00:00,0.0002756447
2013-02-07 15:00:00,0.00031794887
2013-02-07 16:00:00,0.0003796667
2013-02-07 17:00:00,3.1160715e-05
2013-02-07 18:00:00,4.2895917e-05
2013-02-07 19:00:00,0.00026376522
2013-02-07 20:00:00,0.0001250607
2013-02-07 21:00:00,0.00019308092
2013-02-07 22:00:00,9.761429e-05
2013-02-07 23:00:00,7.9392164e-05
2013-02-08 00:00:00,5.1135372e-05
2013-02-08 01:00:00,1.1954817e-05
2013-02-08 02:00:00,3.3079368e-06
2013-02-08 03:00:00,3.7297177e-06
2013-02-08 04:00:00,4.8609727e-06
2013-02-08 05:00:00,4.469115e-06
2013-02-08 06:00:00,4.376513e-06
2013-02-08 07:00:00,3.5860248e-06
2013-02-08 08:00:00,7.4617026e-07
2013-02-08 09:00:00,5.849669e-07
2013-02-08 10:00:00,1.1090087e-05
2013-02-08 11:00:00,1.9568979e-05
2013-02-08 12:00:00,1.1990688e-05
2013-02-08 13:00:00,5.094743e-06
2013-02-08 14:00:00,8.67567e-06
2013-02-08 15:00:00,2.3890127e-05
2013-02-08 16:00:00,5.75428e-05
2013-02-08 17:00:00,2.9432893e-05
2013-02-08 18:00:00,2.586894e-05
2013-02-08 19:00:00,3.3697652e-06
2013-02-08 20:00:00,2.1236074e-06
2013-02-08 21:00:00,5.849669e-07
2013-02-08 22:00:00,0.0
2013-02-08 23:00:00,0.0
2013-02-09 00:00:00,0.0
2013-02-09 01:00:00,0.0
2013-02-09 02:00:00,0.0
2013-02-09 03:00:00,0.0
2013-02-09 04:00:00,0.0
2013-02-09 05:00:00,0.0
2013-02-09 06:00:00,3.2240666e-07
2013-02-09 07:00:00,2.6583084e-06
2013-02-09 08:00:00,1.3686822e-06
2013-02-09 09:00:00,1.0462754e-06
2013-02-09 10:00:00,1.1843285e-06
2013-02-09 11:00:00,4.78648e-05
2013-02-09 12:00:00,6.429052e-05
2013-02-09 13:00:00,6.144894e-05
2013-02-09 14:00:00,9.128307e-05
2013-02-09 15:00:00,6.78786e-05
2013-02-09 16:00:00,1.3018884e-05
2013-02-09 17:00:00,2.8937775e-06
2013-02-09 18:00:00,8.6192193e-07
2013-02-09 19:00:00,2.919513e-05
2013-02-09 20:00:00,4.4373766e-05
2013-02-09 21:00:00,4.1330393e-05
2013-02-09 22:00:00,3.7410675e-05
2013-02-09 23:00:00,3.4095123e-05
2013-02-10 00:00:00,2.611056e-05
2013-02-10 01:00:00,1.8587321e-05
2013-02-10 02:00:00,8.817095e-06
2013-02-10 03:00:00,1.4226043e-06
2013-02-10 04:00:00,2.3150328e-08
2013-02-10 05:00:00,0.0
2013-02-10 06:00:00,0.0
2013-02-10 07:00:00,0.0
2013-02-10 08:00:00,0.0
2013-02-10 09:00:00,0.0
2013-02-10 10:00:00,0.0
2013-02-10 11:00:00,0.0
2013-02-10 12:00:00,0.0
2013-02-10 13:00:00,0.0
2013-02-10 14:00:00,0.0
2013-02-10 15:00:00,0.0
2013-02-10 16:00:00,0.0
2013-02-10 17:00:00,0.0
2013-02-10 18:00:00,0.0
2013-02-10 19:00:00,7.4617026e-07
2013-02-10 20:00:00,2.7384976e-06
2013-02-10 21:00:00,1.865311e-05
2013-02-10 22:00:00,5.5363664e-05
2013-02-10 23:00:00,0.00011051276
2013-02-11 00:00:00,0.00017441575
2013-02-11 01:00:00,0.00022887088
2013-02-11 02:00:00,0.00020078033
2013-02-11 03:00:00,0.00015644799
2013-02-11 04:00:00,0.0002863966
2013-02-11 05:00:00,0.00025703083
2013-02-11 06:00:00,0.0002526194
2013-02-11 07:00:00,0.0003069702
2013-02-11 08:00:00,0.00029208744
2013-02-11 09:00:00,0.00034638052
2013-02-11 10:00:00,0.00027122512
2013-02-11 11:00:00,0.00026324159
2013-02-11 12:00:00,0.00022484569
2013-02-11 13:00:00,0.00010772297
2013-02-11 14:00:00,6.2808336e-05
2013-02-11 15:00:00,8.045191e-05
2013-02-11 16:00:00,8.8776374e-05
2013-02-11 17:00:00,5.384785e-05
2013-02-11 18:00:00,4.2055966e-05
2013-02-11 19:00:00,3.3209246e-05
2013-02-11 20:00:00,3.2891636e-05
2013-02-11 21:00:00,5.617876e-05
2013-02-11 22:00:00,4.7781723e-05
2013-02-11 23:00:00,2.8960872e-05
2013-02-12 00:00:00,1.9384606e-05
2013-02-12 01:00:00,1.06315865e-05
2013-02-12 02:00:00,2.685424e-06
2013-02-12 03:00:00,2.9248343e-07
2013-02-12 04:00:00,0.0
2013-02-12 05:00:00,0.0
2013-02-12 06:00:00,0.0
2013-02-12 07:00:00,0.0
2013-02-12 08:00:00,0.0
2013-02-12 09:00:00,0.0
2013-02-12 10:00:00,0.0
2013-02-12 11:00:00,0.0
2013-02-12 12:00:00,0.0
2013-02-12 13:00:00,0.0
2013-02-12 14:00:00,0.0
2013-02-12 15:00:00,0.0
2013-02-12 16:00:00,0.0
2013-02-12 17:00:00,0.0
2013-02-12 18:00:00,0.0
2013-02-12 19:00:00,1.2461569e-06
2013-02-12 20:00:00,1.9073486e-06
2013-02-12 21:00:00,1.7760676e-06
2013-02-12 22:00:00,2.176681e-06
2013-02-12 23:00:00,2.0454008e-06
2013-02-13 00:00:00,2.5772943e-06
2013-02-13 01:00:00,1.0618032e-06
2013-02-13 02:00:00,3.1563377e-07
2013-02-13 03:00:00,9.30524e-07
2013-02-13 04:00:00,1.0618032e-06
2013-02-13 05:00:00,2.9248343e-07
2013-02-13 06:00:00,0.0
2013-02-13 07:00:00,2.9248343e-07
2013-02-13 08:00:00,0.0
2013-02-13 09:00:00,0.0
2013-02-13 10:00:00,1.1699331e-06
2013-02-13 11:00:00,6.4171245e-06
2013-02-13 12:00:00,6.312676e-07
2013-02-13 13:00:00,0.0
2013-02-13 14:00:00,0.0
2013-02-13 15:00:00,0.0
2013-02-13 16:00:00,0.0
2013-02-13 17:00:00,0.0
2013-02-13 18:00:00,0.0
2013-02-13 19:00:00,0.0
2013-02-13 20:00:00,0.0
2013-02-13 21:00:00,0.0
2013-02-13 22:00:00,0.0
2013-02-13 23:00:00,0.0
2013-02-14 00:00:00,0.0
2013-02-14 01:00:00,0.0
2013-02-14 02:00:00,0.0
2013-02-14 03:00:00,0.0
2013-02-14 04:00:00,0.0
2013-02-14 05:00:00,0.0
2013-02-14 06:00:00,1.1216498e-06
2013-02-14 07:00:00,3.5236153e-05
2013-02-14 08:00:00,8.394802e-05
2013-02-14 09:00:00,0.00016917898
2013-02-14 10:00:00,0.00024736696
2013-02-14 11:00:00,0.00028902246
2013-02-14 12:00:00,0.0003470278
2013-02-14 13:00:00,0.00052755675
2013-02-14 14:00:00,0.00086261844
2013-02-14 15:00:00,0.00068079843
2013-02-14 16:00:00,0.00035773963
2013-02-14 17:00:00,0.00010011904
2013-02-14 18:00:00,7.109088e-06
2013-02-14 19:00:00,2.2543492e-05
2013-02-14 20:00:00,1.2336245e-05
2013-02-14 21:00:00,5.1043235e-06
2013-02-14 22:00:00,3.227459e-05
2013-02-14 23:00:00,5.762973e-05
2013-02-15 00:00:00,6.914034e-05
2013-02-15 01:00:00,6.9149944e-05
2013-02-15 02:00:00,4.496584e-05
2013-02-15 03:00:00,0.00014620894
2013-02-15 04:00:00,7.600164e-05
2013-02-15 05:00:00,0.00015881656
2013-02-15 06:00:00,0.00013032614
2013-02-15 07:00:00,6.5839677e-06
2013-02-15 08:00:00,1.476812e-06
2013-02-15 09:00:00,4.9998744e-07
2013-02-15 10:00:00,6.312676e-07
2013-02-15 11:00:00,3.1563377e-07
2013-02-15 12:00:00,8.2916705e-07
2013-02-15 13:00:00,8.921828e-06
2013-02-15 14:00:00,3.0826952e-05
2013-02-15 15:00:00,0.00020383847
2013-02-15 16:00:00,5.7522557e-05
2013-02-15 17:00:00,2.0259817e-05
2013-02-15 18:00:00,6.9701864e-06
2013-02-15 19:00:00,2.7229698e-06
2013-02-15 20:00:00,2.1998312e-06
2013-02-15 21:00:00,2.3758621e-05
2013-02-15 22:00:00,5.33217e-06
2013-02-15 23:00:00,3.3841607e-06
2013-02-16 00:00:00,8.085063e-06
2013-02-16 01:00:00,9.648529e-06
2013-02-16 02:00:00,1.7972401e-05
2013-02-16 03:00:00,5.2282936e-05
2013-02-16 04:00:00,0.00016541973
2013-02-16 05:00:00,0.00020129568
2013-02-16 06:00:00,0.0001686748
2013-02-16 07:00:00,8.824641e-05
2013-02-16 08:00:00,1.760658e-05
2013-02-16 09:00:00,5.3303113e-05
2013-02-16 10:00:00,5.9254962e-05
2013-02-16 11:00:00,0.0001226149
2013-02-16 12:00:00,6.7940826e-05
2013-02-16 13:00:00,2.9464529e-05
2013-02-16 14:00:00,7.214614e-05
2013-02-16 15:00:00,0.00015885539
2013-02-16 16:00:00,0.0001973603
2013-02-16 17:00:00,5.2122952e-05
2013-02-16 18:00:00,2.7443093e-05
2013-02-16 19:00:00,3.6870733e-07
2013-02-16 20:00:00,9.260128e-08
2013-02-16 21:00:00,3.7542804e-06
2013-02-16 22:00:00,2.1447107e-05
2013-02-16 23:00:00,3.6949796e-06
2013-02-17 00:00:00,1.006747e-06
2013-02-17 01:00:00,6.380405e-07
2013-02-17 02:00:00,0.0
2013-02-17 03:00:00,0.0
2013-02-17 04:00:00,3.1563377e-07
2013-02-17 05:00:00,6.0811726e-07
2013-02-17 06:00:00,2.9248343e-07
2013-02-17 07:00:00,3.2240666e-07
2013-02-17 08:00:00,0.0
2013-02-17 09:00:00,0.0
2013-02-17 10:00:00,0.0
2013-02-17 11:00:00,0.0
2013-02-17 12:00:00,0.0
2013-02-17 13:00:00,0.0
2013-02-17 14:00:00,0.0
2013-02-17 15:00:00,0.0
2013-02-17 16:00:00,0.0
2013-02-17 17:00:00,3.2240666e-07
2013-02-17 18:00:00,5.0676033e-07
2013-02-17 19:00:00,1.6120333e-07
2013-02-17 20:00:00,0.0
2013-02-17 21:00:00,0.0
2013-02-17 22:00:00,0.0
2013-02-17 23:00:00,0.0
2013-02-18 00:00:00,0.0
2013-02-18 01:00:00,0.0
2013-02-18 02:00:00,0.0
2013-02-18 03:00:00,0.0
2013-02-18 04:00:00,0.0
2013-02-18 05:00:00,0.0
2013-02-18 06:00:00,0.0
2013-02-18 07:00:00,0.0
2013-02-18 08:00:00,0.0
2013-02-18 09:00:00,0.0
2013-02-18 10:00:00,0.0
2013-02-18 11:00:00,0.0
2013-02-18 12:00:00,0.0
2013-02-18 13:00:00,0.0
2013-02-18 14:00:00,0.0
2013-02-18 15:00:00,0.0
2013-02-18 16:00:00,0.0
2013-02-18 17:00:00,0.0
2013-02-18 18:00:00,0.0
2013-02-18 19:00:00,0.0
2013-02-18 20:00:00,0.0
2013-02-18 21:00:00,0.0
2013-02-18 22:00:00,0.0
2013-02-18 23:00:00,0.0
2013-02-19 00:00:00,0.0
2013-02-19 01:00:00,0.0
2013-02-19 02:00:00,0.0
2013-02-19 03:00:00,0.0
2013-02-19 04:00:00,0.0
2013-02-19 05:00:00,0.0
2013-02-19 06:00:00,0.0
2013-02-19 07:00:00,0.0
2013-02-19 08:00:00,0.0
2013-02-19 09:00:00,0.0
2013-02-19 10:00:00,2.3150328e-08
2013-02-19 11:00:00,7.1426433e-07
2013-02-19 12:00:00,0.0
2013-02-19 13:00:00,0.0
2013-02-19 14:00:00,0.0
2013-02-19 15:00:00,0.0
2013-02-19 16:00:00,0.0
2013-02-19 17:00:00,8.6192193e-07
2013-02-19 18:00:00,1.2177844e-05
2013-02-19 19:00:00,0.00013383511
2013-02-19 20:00:00,0.00016955192
2013-02-19 21:00:00,0.00012388734
2013-02-19 22:00:00,5.171413e-05
2013-02-19 23:00:00,1.1869838e-05
2013-02-20 00:00:00,2.8841732e-06
2013-02-20 01:00:00,1.4305115e-06
2013-02-20 02:00:00,1.4305115e-06
2013-02-20 03:00:00,1.9923273e-06
2013-02-20 04:00:00,1.0618032e-06
2013-02-20 05:00:00,1.0618032e-06
2013-02-20 06:00:00,7.693206e-07
2013-02-20 07:00:00,8.774504e-07
2013-02-20 08:00:00,9.536743e-07
2013-02-20 09:00:00,9.536743e-07
2013-02-20 10:00:00,4.6300656e-08
2013-02-20 11:00:00,0.0
2013-02-20 12:00:00,0.0
2013-02-20 13:00:00,1.6120333e-07
2013-02-20 14:00:00,2.9248343e-07
2013-02-20 15:00:00,0.0
2013-02-20 16:00:00,0.0
2013-02-20 17:00:00,0.0
2013-02-20 18:00:00,0.0
2013-02-20 19:00:00,0.0
2013-02-20 20:00:00,0.0
2013-02-20 21:00:00,0.0
2013-02-20 22:00:00,0.0
2013-02-20 23:00:00,0.0
2013-02-21 00:00:00,0.0
2013-02-21 01:00:00,0.0
2013-02-21 02:00:00,0.0
2013-02-21 03:00:00,0.0
2013-02-21 04:00:00,0.0
2013-02-21 05:00:00,0.0
2013-02-21 06:00:00,0.0
2013-02-21 07:00:00,2.9248343e-07
2013-02-21 08:00:00,1.8311239e-06
2013-02-21 09:00:00,1.1679504e-06
2013-02-21 10:00:00,0.0
2013-02-21 11:00:00,0.0
2013-02-21 12:00:00,0.0
2013-02-21 13:00:00,0.0
2013-02-21 14:00:00,2.9248343e-07
2013-02-21 15:00:00,5.7878397e-06
2013-02-21 16:00:00,1.6172955e-05
2013-02-21 17:00:00,4.6139403e-06
2013-02-21 18:00:00,0.0
2013-02-21 19:00:00,0.0
2013-02-21 20:00:00,0.0
2013-02-21 21:00:00,0.0
2013-02-21 22:00:00,0.0
2013-02-21 23:00:00,0.0
2013-02-22 00:00:00,0.0
2013-02-22 01:00:00,0.0
2013-02-22 02:00:00,0.0
2013-02-22 03:00:00,0.0
2013-02-22 04:00:00,0.0
2013-02-22 05:00:00,0.0
2013-02-22 06:00:00,0.0
2013-02-22 07:00:00,6.9953194e-06
2013-02-22 08:00:00,1.578391e-05
2013-02-22 09:00:00,1.8234714e-05
2013-02-22 10:00:00,1.2046569e-05
2013-02-22 11:00:00,4.4295866e-06
2013-02-22 12:00:00,6.611908e-07
2013-02-22 13:00:00,9.768246e-07
2013-02-22 14:00:00,1.5849419e-06
2013-02-22 15:00:00,4.7548256e-06
2013-02-22 16:00:00,4.1251362e-05
2013-02-22 17:00:00,1.0482795e-05
2013-02-22 18:00:00,5.6158988e-06
2013-02-22 19:00:00,1.2155549e-05
2013-02-22 20:00:00,8.214361e-06
2013-02-22 21:00:00,4.690164e-06
2013-02-22 22:00:00,3.1052223e-06
2013-02-22 23:00:00,1.006747e-06
2013-02-23 00:00:00,3.2240666e-07
2013-02-23 01:00:00,0.0
2013-02-23 02:00:00,1.6120333e-07
2013-02-23 03:00:00,0.0
2013-02-23 04:00:00,0.0
2013-02-23 05:00:00,0.0
2013-02-23 06:00:00,6.312676e-07
2013-02-23 07:00:00,9.237511e-07
2013-02-23 08:00:00,1.0448081e-05
2013-02-23 09:00:00,9.863114e-06
2013-02-23 10:00:00,1.0004e-05
2013-02-23 11:00:00,1.0957674e-05
2013-02-23 12:00:00,1.0910239e-05
2013-02-23 13:00:00,2.017172e-05
2013-02-23 14:00:00,2.5710542e-05
2013-02-23 15:00:00,1.8873907e-05
2013-02-23 16:00:00,2.307116e-05
2013-02-23 17:00:00,3.9444014e-05
2013-02-23 18:00:00,3.220052e-05
2013-02-23 19:00:00,1.5580357e-05
2013-02-23 20:00:00,1.2617991e-05
2013-02-23 21:00:00,9.286903e-06
2013-02-23 22:00:00,9.727045e-06
2013-02-23 23:00:00,3.7979044e-05
2013-02-24 00:00:00,9.3505034e-05
2013-02-24 01:00:00,9.84385e-05
2013-02-24 02:00:00,6.238153e-05
2013-02-24 03:00:00,8.861188e-05
2013-02-24 04:00:00,0.00014904233
2013-02-24 05:00:00,0.00022912382
2013-02-24 06:00:00,0.0002574355
2013-02-24 07:00:00,0.00014295746
2013-02-24 08:00:00,0.00012077001
2013-02-24 09:00:00,0.00012329905
2013-02-24 10:00:00,0.00012476991
2013-02-24 11:00:00,0.0001436565
2013-02-24 12:00:00,0.00014557315
2013-02-24 13:00:00,0.00017978568
2013-02-24 14:00:00,0.00011555865
2013-02-24 15:00:00,0.00011519983
2013-02-24 16:00:00,0.0001238193
2013-02-24 17:00:00,0.00013808039
2013-02-24 18:00:00,0.00017168517
2013-02-24 19:00:00,0.00013619079
2013-02-24 20:00:00,0.00011464306
2013-02-24 21:00:00,7.556075e-05
2013-02-24 22:00:00,3.785391e-05
2013-02-24 23:00:00,2.629013e-05
2013-02-25 00:00:00,1.7477258e-05
2013-02-25 01:00:00,6.1082637e-06
2013-02-25 02:00:00,1.6624123e-05
2013-02-25 03:00:00,7.1911374e-05
2013-02-25 04:00:00,0.00012579658
2013-02-25 05:00:00,0.000101431244
2013-02-25 06:00:00,8.415499e-05
2013-02-25 07:00:00,5.894716e-05
2013-02-25 08:00:00,5.756243e-05
2013-02-25 09:00:00,6.713277e-05
2013-02-25 10:00:00,0.00011508634
2013-02-25 11:00:00,0.00011644029
2013-02-25 12:00:00,8.9311696e-05
2013-02-25 13:00:00,6.164587e-05
2013-02-25 14:00:00,9.685849e-05
2013-02-25 15:00:00,0.00020874508
2013-02-25 16:00:00,0.000390884
2013-02-25 17:00:00,0.0005955871
2013-02-25 18:00:00,0.00049446314
2013-02-25 19:00:00,0.00014053841
2013-02-25 20:00:00,6.210311e-05
2013-02-25 21:00:00,4.881012e-05
2013-02-25 22:00:00,3.435259e-05
2013-02-25 23:00:00,2.998035e-05
2013-02-26 00:00:00,2.0922424e-05
2013-02-26 01:00:00,5.20089e-06
2013-02-26 02:00:00,3.6870733e-07
2013-02-26 03:00:00,3.2240666e-07
2013-02-26 04:00:00,0.0
2013-02-26 05:00:00,0.0
2013-02-26 06:00:00,0.0
2013-02-26 07:00:00,0.0
2013-02-26 08:00:00,0.0
2013-02-26 09:00:00,0.0
2013-02-26 10:00:00,0.0
2013-02-26 11:00:00,1.8435367e-07
2013-02-26 12:00:00,2.9248343e-07
2013-02-26 13:00:00,0.0
2013-02-26 14:00:00,0.0
2013-02-26 15:00:00,0.0
2013-02-26 16:00:00,5.0676033e-07
2013-02-26 17:00:00,3.2240666e-07
2013-02-26 18:00:00,1.6120333e-07
2013-02-26 19:00:00,4.9998744e-07
2013-02-26 20:00:00,2.3150328e-08
2013-02-26 21:00:00,8.1562126e-07
2013-02-26 22:00:00,3.2613507e-06
2013-02-26 23:00:00,9.479419e-06
2013-02-27 00:00:00,1.6367427e-05
2013-02-27 01:00:00,1.0538676e-05
2013-02-27 02:00:00,1.722994e-06
2013-02-27 03:00:00,1.2461569e-06
2013-02-27 04:00:00,1.722994e-06
2013-02-27 05:00:00,1.4305115e-06
2013-02-27 06:00:00,1.7760676e-06
2013-02-27 07:00:00,6.691679e-05
2013-02-27 08:00:00,9.804402e-06
2013-02-27 09:00:00,1.8478386e-05
2013-02-27 10:00:00,1.0109297e-05
2013-02-27 11:00:00,3.5078183e-06
2013-02-27 12:00:00,1.3542867e-06
2013-02-27 13:00:00,7.693206e-07
2013-02-27 14:00:00,7.4617026e-07
2013-02-27 15:00:00,0.0
2013-02-27 16:00:00,0.0
2013-02-27 17:00:00,0.0
2013-02-27 18:00:00,5.849669e-07
2013-02-27 19:00:00,5.708392e-05
2013-02-27 20:00:00,9.536743e-07
2013-02-27 21:00:00,1.0917265e-06
2013-02-27 22:00:00,1.2760802e-06
2013-02-27 23:00:00,2.7065917e-06
2013-02-28 00:00:00,5.9586237e-06
2013-02-28 01:00:00,1.162394e-05
2013-02-28 02:00:00,2.4990877e-06
2013-02-28 03:00:00,1.8841974e-06
2013-02-28 04:00:00,1.8610472e-06
2013-02-28 05:00:00,1.8610472e-06
2013-02-28 06:00:00,1.8610472e-06
2013-02-28 07:00:00,8.9269515e-06
2013-02-28 08:00:00,1.6120333e-07
2013-02-28 09:00:00,1.6120333e-07
2013-02-28 10:00:00,1.6120333e-07
2013-02-28 11:00:00,0.0
2013-02-28 12:00:00,0.0
2013-02-28 13:00:00,0.0
2013-02-28 14:00:00,0.0
2013-02-28 15:00:00,0.0
2013-02-28 16:00:00,0.0
2013-02-28 17:00:00,0.0
2013-02-28 18:00:00,0.0
2013-02-28 19:00:00,3.7472282e-06
2013-02-28 20:00:00,8.2239416e-07
2013-02-28 21:00:00,6.611908e-07
2013-02-28 22:00:00,6.611908e-07
2013-02-28 23:00:00,1.3754543e-06
2013-03-01 00:00:00,6.3705156e-06
2013-03-01 01:00:00,6.3115176e-06
2013-03-01 02:00:00,3.0453766e-06
2013-03-01 03:00:00,6.2827285e-06
2013-03-01 04:00:00,7.2683088e-06
2013-03-01 05:00:00,1.6863196e-05
2013-03-01 06:00:00,8.739541e-05
2013-03-01 07:00:00,8.1219754e-05
2013-03-01 08:00:00,3.511594e-05
2013-03-01 09:00:00,3.5228368e-05
2013-03-01 10:00:00,3.5139106e-05
2013-03-01 11:00:00,4.917894e-05
2013-03-01 12:00:00,2.528455e-05
2013-03-01 13:00:00,1.1699331e-06
2013-03-01 14:00:00,0.0
2013-03-01 15:00:00,0.0
2013-03-01 16:00:00,0.0
2013-03-01 17:00:00,0.0
2013-03-01 18:00:00,0.0
2013-03-01 19:00:00,1.1699331e-06
2013-03-01 20:00:00,3.371181e-05
2013-03-01 21:00:00,1.7392595e-05
2013-03-01 22:00:00,3.0035313e-05
2013-03-01 23:00:00,7.893652e-06
2013-03-02 00:00:00,2.2297545e-06
2013-03-02 01:00:00,8.358338e-06
2013-03-02 02:00:00,1.2281729e-05
2013-03-02 03:00:00,3.1148275e-06
2013-03-02 04:00:00,4.019369e-06
2013-03-02 05:00:00,1.9374973e-05
2013-03-02 06:00:00,1.9007406e-05
2013-03-02 07:00:00,5.4323937e-06
2013-03-02 08:00:00,1.0462754e-06
2013-03-02 09:00:00,1.2760802e-06
2013-03-02 10:00:00,0.0
2013-03-02 11:00:00,0.0
2013-03-02 12:00:00,0.0
2013-03-02 13:00:00,0.0
2013-03-02 14:00:00,0.0
2013-03-02 15:00:00,0.0
2013-03-02 16:00:00,0.0
2013-03-02 17:00:00,0.0
2013-03-02 18:00:00,0.0
2013-03-02 19:00:00,0.0
2013-03-02 20:00:00,0.0
2013-03-02 21:00:00,0.0
2013-03-02 22:00:00,1.2297796e-06
2013-03-02 23:00:00,2.1699088e-06
2013-03-03 00:00:00,0.0
2013-03-03 01:00:00,4.6300656e-08
2013-03-03 02:00:00,1.0849544e-06
2013-03-03 03:00:00,2.8167042e-06
2013-03-03 04:00:00,6.1844876e-06
2013-03-03 05:00:00,1.6679378e-06
2013-03-03 06:00:00,1.1699331e-06
2013-03-03 07:00:00,2.9248343e-07
2013-03-03 08:00:00,0.0
2013-03-03 09:00:00,4.6300656e-08
2013-03-03 10:00:00,4.6300656e-08
2013-03-03 11:00:00,9.612959e-07
2013-03-03 12:00:00,4.053537e-06
2013-03-03 13:00:00,4.7751437e-06
2013-03-03 14:00:00,3.2240666e-07
2013-03-03 15:00:00,1.1699331e-06
2013-03-03 16:00:00,8.2916705e-07
2013-03-03 17:00:00,0.0
2013-03-03 18:00:00,0.0
2013-03-03 19:00:00,0.0
2013-03-03 20:00:00,0.0
2013-03-03 21:00:00,0.0
2013-03-03 22:00:00,0.0
2013-03-03 23:00:00,0.0
2013-03-04 00:00:00,0.0
2013-03-04 01:00:00,0.0
2013-03-04 02:00:00,0.0
2013-03-04 03:00:00,0.0
2013-03-04 04:00:00,0.0
2013-03-04 05:00:00,0.0
2013-03-04 06:00:00,0.0
2013-03-04 07:00:00,0.0
2013-03-04 08:00:00,0.0
2013-03-04 09:00:00,0.0
2013-03-04 10:00:00,0.0
2013-03-04 11:00:00,0.0
2013-03-04 12:00:00,0.0
2013-03-04 13:00:00,0.0
2013-03-04 14:00:00,0.0
2013-03-04 15:00:00,0.0
2013-03-04 16:00:00,0.0
2013-03-04 17:00:00,0.0
2013-03-04 18:00:00,0.0
2013-03-04 19:00:00,0.0
2013-03-04 20:00:00,0.0
2013-03-04 21:00:00,0.0
2013-03-04 22:00:00,0.0
2013-03-04 23:00:00,0.0
2013-03-05 00:00:00,0.0
2013-03-05 01:00:00,0.0
2013-03-05 02:00:00,0.0
2013-03-05 03:00:00,0.0
2013-03-05 04:00:00,0.0
2013-03-05 05:00:00,0.0
2013-03-05 06:00:00,0.0
2013-03-05 07:00:00,0.0
2013-03-05 08:00:00,0.0
2013-03-05 09:00:00,0.0
2013-03-05 10:00:00,0.0
2013-03-05 11:00:00,0.0
2013-03-05 12:00:00,0.0
2013-03-05 13:00:00,0.0
2013-03-05 14:00:00,0.0
2013-03-05 15:00:00,0.0
2013-03-05 16:00:00,0.0
2013-03-05 17:00:00,0.0
2013-03-05 18:00:00,0.0
2013-03-05 19:00:00,0.0
2013-03-05 20:00:00,0.0
2013-03-05 21:00:00,0.0
2013-03-05 22:00:00,0.0
2013-03-05 23:00:00,0.0
2013-03-06 00:00:00,0.0
2013-03-06 01:00:00,0.0
2013-03-06 02:00:00,0.0
2013-03-06 03:00:00,0.0
2013-03-06 04:00:00,0.0
2013-03-06 05:00:00,0.0
2013-03-06 06:00:00,0.0
2013-03-06 07:00:00,0.0
2013-03-06 08:00:00,0.0
2013-03-06 09:00:00,0.0
2013-03-06 10:00:00,0.0
2013-03-06 11:00:00,0.0
2013-03-06 12:00:00,0.0
2013-03-06 13:00:00,0.0
2013-03-06 14:00:00,0.0
2013-03-06 15:00:00,0.0
2013-03-06 16:00:00,0.0
2013-03-06 17:00:00,0.0
2013-03-06 18:00:00,0.0
2013-03-06 19:00:00,0.0
2013-03-06 20:00:00,0.0
2013-03-06 21:00:00,0.0
2013-03-06 22:00:00,0.0
2013-03-06 23:00:00,0.0
2013-03-07 00:00:00,0.0
2013-03-07 01:00:00,0.0
2013-03-07 02:00:00,0.0
2013-03-07 03:00:00,0.0
2013-03-07 04:00:00,0.0
2013-03-07 05:00:00,0.0
2013-03-07 06:00:00,1.3542867e-06
2013-03-07 07:00:00,4.170992e-06
2013-03-07 08:00:00,1.4919465e-05
2013-03-07 09:00:00,5.899236e-05
2013-03-07 10:00:00,0.00015753621
2013-03-07 11:00:00,0.00025479728
2013-03-07 12:00:00,0.00026203273
2013-03-07 13:00:00,0.00017490682
2013-03-07 14:00:00,5.5675526e-05
2013-03-07 15:00:00,5.161528e-05
2013-03-07 16:00:00,1.43282405e-05
2013-03-07 17:00:00,8.8114626e-05
2013-03-07 18:00:00,0.00013658658
2013-03-07 19:00:00,0.00058185635
2013-03-07 20:00:00,0.00020841399
2013-03-07 21:00:00,2.8213515e-05
2013-03-07 22:00:00,2.960397e-06
2013-03-07 23:00:00,0.0
2013-03-08 00:00:00,0.0
2013-03-08 01:00:00,0.0
2013-03-08 02:00:00,0.0
2013-03-08 03:00:00,0.0
2013-03-08 04:00:00,2.9248343e-07
2013-03-08 05:00:00,0.0
2013-03-08 06:00:00,0.0
2013-03-08 07:00:00,0.0
2013-03-08 08:00:00,0.0
2013-03-08 09:00:00,0.0
2013-03-08 10:00:00,0.0
2013-03-08 11:00:00,0.0
2013-03-08 12:00:00,5.4121847e-05
2013-03-08 13:00:00,0.00015843964
2013-03-08 14:00:00,6.770469e-05
2013-03-08 15:00:00,0.00018943226
2013-03-08 16:00:00,0.00027291756
2013-03-08 17:00:00,0.00045591197
2013-03-08 18:00:00,0.0005058353
2013-03-08 19:00:00,0.0003898365
2013-03-08 20:00:00,0.00059433933
2013-03-08 21:00:00,0.00078995246
2013-03-08 22:00:00,0.000906341
2013-03-08 23:00:00,0.00061531365
2013-03-09 00:00:00,0.00029964955
2013-03-09 01:00:00,0.00016259713
2013-03-09 02:00:00,0.00016585282
2013-03-09 03:00:00,0.00037933537
2013-03-09 04:00:00,0.00074442476
2013-03-09 05:00:00,0.0013994405
2013-03-09 06:00:00,0.0010596847
2013-03-09 07:00:00,0.00068981294
2013-03-09 08:00:00,0.00048004673
2013-03-09 09:00:00,0.00032492797
2013-03-09 10:00:00,0.00022565559
2013-03-09 11:00:00,0.00013191003
2013-03-09 12:00:00,0.00013536411
2013-03-09 13:00:00,0.0001225797
2013-03-09 14:00:00,7.256963e-05
2013-03-09 15:00:00,1.7305283e-05
2013-03-09 16:00:00,6.843411e-06
2013-03-09 17:00:00,1.9217432e-06
2013-03-09 18:00:00,5.7621133e-07
2013-03-09 19:00:00,6.611908e-07
2013-03-09 20:00:00,9.30524e-07
2013-03-09 21:00:00,1.8435367e-07
2013-03-09 22:00:00,3.2240666e-07
2013-03-09 23:00:00,1.3291537e-06
2013-03-10 00:00:00,5.1235083e-06
2013-03-10 01:00:00,1.4196651e-05
2013-03-10 02:00:00,2.838936e-05
2013-03-10 03:00:00,7.121681e-05
2013-03-10 04:00:00,0.00017760076
2013-03-10 05:00:00,0.00031191832
2013-03-10 06:00:00,0.000485454
2013-03-10 07:00:00,0.00042006606
2013-03-10 08:00:00,0.00061194296
2013-03-10 09:00:00,0.00058002886
2013-03-10 10:00:00,0.00041384064
2013-03-10 11:00:00,0.00028984598
2013-03-10 12:00:00,0.00018458949
2013-03-10 13:00:00,9.189111e-05
2013-03-10 14:00:00,1.9888874e-05
2013-03-10 15:00:00,1.1699331e-06
2013-03-10 16:00:00,2.9248343e-07
2013-03-10 17:00:00,2.1236074e-06
2013-03-10 18:00:00,6.955791e-06
2013-03-10 19:00:00,1.5386404e-06
2013-03-10 20:00:00,2.4923147e-06
2013-03-10 21:00:00,3.1235832e-06
2013-03-10 22:00:00,3.445989e-06
2013-03-10 23:00:00,4.9383298e-06
2013-03-11 00:00:00,4.300289e-06
2013-03-11 01:00:00,3.6390984e-06
2013-03-11 02:00:00,9.012731e-06
2013-03-11 03:00:00,2.3455039e-05
2013-03-11 04:00:00,1.5101551e-05
2013-03-11 05:00:00,2.6325724e-05
2013-03-11 06:00:00,8.714349e-06
2013-03-11 07:00:00,1.681973e-05
2013-03-11 08:00:00,7.496521e-05
2013-03-11 09:00:00,9.541595e-05
2013-03-11 10:00:00,0.00014986459
2013-03-11 11:00:00,0.0001932723
2013-03-11 12:00:00,0.00021817564
2013-03-11 13:00:00,0.00023123433
2013-03-11 14:00:00,0.00022496717
2013-03-11 15:00:00,0.00022970227
2013-03-11 16:00:00,0.00024946593
2013-03-11 17:00:00,0.00019593518
2013-03-11 18:00:00,9.507805e-05
2013-03-11 19:00:00,9.3269264e-05
2013-03-11 20:00:00,6.899236e-05
2013-03-11 21:00:00,0.000114970026
2013-03-11 22:00:00,0.00027000392
2013-03-11 23:00:00,0.0002803353
2013-03-12 00:00:00,0.0005311044
2013-03-12 01:00:00,0.0007177864
2013-03-12 02:00:00,0.00074631
2013-03-12 03:00:00,0.00073900586
2013-03-12 04:00:00,0.0007461037
2013-03-12 05:00:00,0.00084678736
2013-03-12 06:00:00,0.0009029438
2013-03-12 07:00:00,0.00056921504
2013-03-12 08:00:00,0.00044130627
2013-03-12 09:00:00,0.0005194878
2013-03-12 10:00:00,0.0004410867
2013-03-12 11:00:00,0.00036327844
2013-03-12 12:00:00,0.0002515749
2013-03-12 13:00:00,0.00019123044
2013-03-12 14:00:00,0.00016369979
2013-03-12 15:00:00,0.000113794624
2013-03-12 16:00:00,6.4253705e-05
2013-03-12 17:00:00,6.0216276e-05
2013-03-12 18:00:00,2.288993e-05
2013-03-12 19:00:00,5.849669e-07
2013-03-12 20:00:00,0.0
2013-03-12 21:00:00,0.0
2013-03-12 22:00:00,0.0
2013-03-12 23:00:00,0.0
2013-03-13 00:00:00,0.0
2013-03-13 01:00:00,0.0
2013-03-13 02:00:00,0.0
2013-03-13 03:00:00,0.0
2013-03-13 04:00:00,0.0
2013-03-13 05:00:00,0.0
2013-03-13 06:00:00,0.0
2013-03-13 07:00:00,1.6120333e-07
2013-03-13 08:00:00,5.0676033e-07
2013-03-13 09:00:00,1.1747234e-06
2013-03-13 10:00:00,6.3137613e-06
2013-03-13 11:00:00,6.0927114e-06
2013-03-13 12:00:00,1.3223816e-06
2013-03-13 13:00:00,4.001009e-06
2013-03-13 14:00:00,2.5377827e-05
2013-03-13 15:00:00,5.330678e-05
2013-03-13 16:00:00,0.0002143243
2013-03-13 17:00:00,0.00028510112
2013-03-13 18:00:00,0.0001661331
2013-03-13 19:00:00,8.483483e-05
2013-03-13 20:00:00,6.601478e-06
2013-03-13 21:00:00,6.611908e-07
2013-03-13 22:00:00,1.006747e-06
2013-03-13 23:00:00,7.8176645e-06
2013-03-14 00:00:00,1.3700344e-05
2013-03-14 01:00:00,4.79741e-05
2013-03-14 02:00:00,3.7034042e-05
2013-03-14 03:00:00,3.4610697e-05
2013-03-14 04:00:00,1.11391955e-05
2013-03-14 05:00:00,4.1534813e-06
2013-03-14 06:00:00,6.0269413e-06
2013-03-14 07:00:00,0.000248563
2013-03-14 08:00:00,5.2471914e-06
2013-03-14 09:00:00,4.073292e-06
2013-03-14 10:00:00,3.9002858e-05
2013-03-14 11:00:00,5.9920378e-05
2013-03-14 12:00:00,6.925332e-05
2013-03-14 13:00:00,7.263664e-05
2013-03-14 14:00:00,3.1132455e-05
2013-03-14 15:00:00,1.8248844e-05
2013-03-14 16:00:00,3.5561015e-06
2013-03-14 17:00:00,0.0
2013-03-14 18:00:00,0.0
2013-03-14 19:00:00,0.0
2013-03-14 20:00:00,0.0
2013-03-14 21:00:00,0.0
2013-03-14 22:00:00,0.0
2013-03-14 23:00:00,0.0
2013-03-15 00:00:00,0.0
2013-03-15 01:00:00,0.0
2013-03-15 02:00:00,0.0
2013-03-15 03:00:00,0.0
2013-03-15 04:00:00,0.0
2013-03-15 05:00:00,0.0
2013-03-15 06:00:00,0.0
2013-03-15 07:00:00,0.0
2013-03-15 08:00:00,6.8434116e-07
2013-03-15 09:00:00,5.7539273e-06
2013-03-15 10:00:00,4.5774534e-05
2013-03-15 11:00:00,9.914917e-05
2013-03-15 12:00:00,5.606425e-05
2013-03-15 13:00:00,1.24203225e-05
2013-03-15 14:00:00,3.3329692e-05
2013-03-15 15:00:00,8.323886e-05
2013-03-15 16:00:00,6.12076e-05
2013-03-15 17:00:00,1.29705995e-05
2013-03-15 18:00:00,2.3065428e-07
2013-03-15 19:00:00,5.1232482e-06
2013-03-15 20:00:00,0.0
2013-03-15 21:00:00,0.0
2013-03-15 22:00:00,0.0
2013-03-15 23:00:00,0.0
2013-03-16 00:00:00,2.0315012e-05
2013-03-16 01:00:00,4.511034e-05
2013-03-16 02:00:00,0.00011739765
2013-03-16 03:00:00,7.3537376e-05
2013-03-16 04:00:00,4.960432e-05
2013-03-16 05:00:00,0.0
2013-03-16 06:00:00,0.0
2013-03-16 07:00:00,0.0
2013-03-16 08:00:00,0.0
2013-03-16 09:00:00,0.0
2013-03-16 10:00:00,0.0
2013-03-16 11:00:00,0.0
2013-03-16 12:00:00,0.0
2013-03-16 13:00:00,0.0
2013-03-16 14:00:00,0.0
2013-03-16 15:00:00,0.0
2013-03-16 16:00:00,0.0
2013-03-16 17:00:00,4.4266053e-05
2013-03-16 18:00:00,0.0
2013-03-16 19:00:00,0.0
2013-03-16 20:00:00,0.0
2013-03-16 21:00:00,1.1663443e-05
2013-03-16 22:00:00,0.000505612
2013-03-16 23:00:00,0.0003209042
2013-03-17 00:00:00,0.00026837923
2013-03-17 01:00:00,0.00012864397
2013-03-17 02:00:00,3.9226317e-05
2013-03-17 03:00:00,5.308735e-06
2013-03-17 04:00:00,1.7692955e-06
2013-03-17 05:00:00,3.81668e-06
2013-03-17 06:00:00,1.8774253e-06
2013-03-17 07:00:00,9.536743e-07
2013-03-17 08:00:00,1.7529173e-06
2013-03-17 09:00:00,3.2780135e-06
2013-03-17 10:00:00,8.774504e-07
2013-03-17 11:00:00,5.2991066e-07
2013-03-17 12:00:00,9.204175e-05
2013-03-17 13:00:00,0.0001265162
2013-03-17 14:00:00,1.30532935e-05
2013-03-17 15:00:00,5.9089332e-05
2013-03-17 16:00:00,0.00029329513
2013-03-17 17:00:00,0.00035645324
2013-03-17 18:00:00,0.0004792884
2013-03-17 19:00:00,0.000558547
2013-03-17 20:00:00,6.610644e-05
2013-03-17 21:00:00,1.6852195e-05
2013-03-17 22:00:00,3.253334e-05
2013-03-17 23:00:00,2.674153e-05
2013-03-18 00:00:00,1.0298132e-05
2013-03-18 01:00:00,1.7142393e-06
2013-03-18 02:00:00,5.53061e-07
2013-03-18 03:00:00,3.45557e-07
2013-03-18 04:00:00,1.8435367e-07
2013-03-18 05:00:00,1.6120333e-07
2013-03-18 06:00:00,0.0
2013-03-18 07:00:00,6.992487e-06
2013-03-18 08:00:00,4.6755216e-05
2013-03-18 09:00:00,0.00010241158
2013-03-18 10:00:00,3.7253514e-05
2013-03-18 11:00:00,4.618129e-05
2013-03-18 12:00:00,2.8556184e-05
2013-03-18 13:00:00,0.0
2013-03-18 14:00:00,1.1332232e-05
2013-03-18 15:00:00,3.1166826e-05
2013-03-18 16:00:00,6.164145e-06
2013-03-18 17:00:00,3.2240666e-07
2013-03-18 18:00:00,0.0
2013-03-18 19:00:00,2.9297793e-05
2013-03-18 20:00:00,1.0324375e-05
2013-03-18 21:00:00,4.1104606e-05
2013-03-18 22:00:00,0.00015105242
2013-03-18 23:00:00,0.00017311612
2013-03-19 00:00:00,2.8787574e-05
2013-03-19 01:00:00,2.4628942e-05
2013-03-19 02:00:00,1.9632746e-05
2013-03-19 03:00:00,5.502235e-05
2013-03-19 04:00:00,0.00011726591
2013-03-19 05:00:00,0.00019402133
2013-03-19 06:00:00,0.00027324026
2013-03-19 07:00:00,0.00030289986
2013-03-19 08:00:00,0.00022545613
2013-03-19 09:00:00,0.00024023971
2013-03-19 10:00:00,0.00017997163
2013-03-19 11:00:00,0.00019800133
2013-03-19 12:00:00,0.0002885179
2013-03-19 13:00:00,0.00042608846
2013-03-19 14:00:00,0.0002496203
2013-03-19 15:00:00,0.0006445346
2013-03-19 16:00:00,0.0006271193
2013-03-19 17:00:00,0.00036570826
2013-03-19 18:00:00,9.203906e-06
2013-03-19 19:00:00,2.547371e-06
2013-03-19 20:00:00,1.5817248e-05
2013-03-19 21:00:00,1.634039e-05
2013-03-19 22:00:00,8.227082e-06
2013-03-19 23:00:00,7.333254e-06
2013-03-20 00:00:00,1.5650105e-05
2013-03-20 01:00:00,2.192719e-05
2013-03-20 02:00:00,0.00012466231
2013-03-20 03:00:00,0.00028476352
2013-03-20 04:00:00,0.00042990223
2013-03-20 05:00:00,0.0005601968
2013-03-20 06:00:00,0.0007005364
2013-03-20 07:00:00,0.0006654805
2013-03-20 08:00:00,0.0005914455
2013-03-20 09:00:00,0.00063153985
2013-03-20 10:00:00,0.0004288936
2013-03-20 11:00:00,0.00034803874
2013-03-20 12:00:00,0.00022974367
2013-03-20 13:00:00,0.00018522375
2013-03-20 14:00:00,0.00014016074
2013-03-20 15:00:00,9.899754e-05
2013-03-20 16:00:00,4.947363e-05
2013-03-20 17:00:00,2.3896078e-05
2013-03-20 18:00:00,9.778136e-06
2013-03-20 19:00:00,1.4425965e-05
2013-03-20 20:00:00,1.8091043e-05
2013-03-20 21:00:00,2.6941489e-05
2013-03-20 22:00:00,2.2508786e-05
2013-03-20 23:00:00,1.3159204e-05
2013-03-21 00:00:00,4.833032e-06
2013-03-21 01:00:00,1.9855552e-06
2013-03-21 02:00:00,2.5705222e-06
2013-03-21 03:00:00,2.1467586e-06
2013-03-21 04:00:00,6.0811726e-07
2013-03-21 05:00:00,2.9248343e-07
2013-03-21 06:00:00,2.9248343e-07
2013-03-21 07:00:00,0.0
2013-03-21 08:00:00,0.0
2013-03-21 09:00:00,2.9623798e-06
2013-03-21 10:00:00,9.536743e-07
2013-03-21 11:00:00,2.5916897e-06
2013-03-21 12:00:00,1.5530359e-06
2013-03-21 13:00:00,2.3065428e-07
2013-03-21 14:00:00,0.0
2013-03-21 15:00:00,0.0
2013-03-21 16:00:00,0.0
2013-03-21 17:00:00,0.0
2013-03-21 18:00:00,0.0
2013-03-21 19:00:00,0.0
2013-03-21 20:00:00,0.0
2013-03-21 21:00:00,0.0
2013-03-21 22:00:00,0.0
2013-03-21 23:00:00,0.0
2013-03-22 00:00:00,0.0
2013-03-22 01:00:00,0.0
2013-03-22 02:00:00,0.0
2013-03-22 03:00:00,0.0
2013-03-22 04:00:00,0.0
2013-03-22 05:00:00,0.0
2013-03-22 06:00:00,0.0
2013-03-22 07:00:00,0.0
2013-03-22 08:00:00,0.0
2013-03-22 09:00:00,0.0
2013-03-22 10:00:00,0.0
2013-03-22 11:00:00,0.0
2013-03-22 12:00:00,0.0
2013-03-22 13:00:00,0.0
2013-03-22 14:00:00,0.0
2013-03-22 15:00:00,0.0
2013-03-22 16:00:00,0.0
2013-03-22 17:00:00,0.0
2013-03-22 18:00:00,0.0
2013-03-22 19:00:00,5.7656478e-05
2013-03-22 20:00:00,0.0003295124
2013-03-22 21:00:00,0.0
2013-03-22 22:00:00,0.0
2013-03-22 23:00:00,1.8474428e-05
2013-03-23 00:00:00,6.0340666e-05
2013-03-23 01:00:00,7.071807e-05
2013-03-23 02:00:00,2.9356102e-05
2013-03-23 03:00:00,1.1638329e-05
2013-03-23 04:00:00,1.930499e-06
2013-03-23 05:00:00,8.683528e-06
2013-03-23 06:00:00,2.2104956e-05
2013-03-23 07:00:00,0.00033574342
2013-03-23 08:00:00,0.0002684677
2013-03-23 09:00:00,0.00019542359
2013-03-23 10:00:00,0.00021886398
2013-03-23 11:00:00,0.00033262302
2013-03-23 12:00:00,0.00045420183
2013-03-23 13:00:00,0.0002317785
2013-03-23 14:00:00,0.00022890337
2013-03-23 15:00:00,0.00023875982
2013-03-23 16:00:00,0.00023788119
2013-03-23 17:00:00,0.00018814999
2013-03-23 18:00:00,0.00020463245
2013-03-23 19:00:00,6.0098886e-05
2013-03-23 20:00:00,8.999143e-05
2013-03-23 21:00:00,0.00025535515
2013-03-23 22:00:00,0.0005735466
2013-03-23 23:00:00,0.00043965084
2013-03-24 00:00:00,0.00039367727
2013-03-24 01:00:00,0.00030789245
2013-03-24 02:00:00,0.0003218751
2013-03-24 03:00:00,0.0002631175
2013-03-24 04:00:00,0.00020037263
2013-03-24 05:00:00,0.000350361
2013-03-24 06:00:00,0.00026117917
2013-03-24 07:00:00,0.00030531245
2013-03-24 08:00:00,0.00029135705
2013-03-24 09:00:00,0.00020694376
2013-03-24 10:00:00,0.0002102361
2013-03-24 11:00:00,0.00013579313
2013-03-24 12:00:00,6.7814704e-05
2013-03-24 13:00:00,2.3688248e-05
2013-03-24 14:00:00,2.9671692e-06
2013-03-24 15:00:00,0.0
2013-03-24 16:00:00,0.0
2013-03-24 17:00:00,0.0
2013-03-24 18:00:00,0.0
2013-03-24 19:00:00,0.0
2013-03-24 20:00:00,6.1489015e-07
2013-03-24 21:00:00,3.113978e-06
2013-03-24 22:00:00,3.245258e-06
2013-03-24 23:00:00,1.38421e-06
2013-03-25 00:00:00,6.380405e-07
2013-03-25 01:00:00,0.0
2013-03-25 02:00:00,0.0
2013-03-25 03:00:00,0.0
2013-03-25 04:00:00,0.0
2013-03-25 05:00:00,0.0
2013-03-25 06:00:00,0.0
2013-03-25 07:00:00,0.0
2013-03-25 08:00:00,0.0
2013-03-25 09:00:00,4.6300656e-08
2013-03-25 10:00:00,0.0
2013-03-25 11:00:00,0.0
2013-03-25 12:00:00,0.0
2013-03-25 13:00:00,0.0
2013-03-25 14:00:00,0.0
2013-03-25 15:00:00,0.0
2013-03-25 16:00:00,0.0
2013-03-25 17:00:00,0.0
2013-03-25 18:00:00,0.0
2013-03-25 19:00:00,0.0
2013-03-25 20:00:00,0.0
2013-03-25 21:00:00,0.0
2013-03-25 22:00:00,0.0
2013-03-25 23:00:00,0.0
2013-03-26 00:00:00,0.0
2013-03-26 01:00:00,0.0
2013-03-26 02:00:00,0.0
2013-03-26 03:00:00,0.0
2013-03-26 04:00:00,0.0
2013-03-26 05:00:00,0.0
2013-03-26 06:00:00,0.0
2013-03-26 07:00:00,0.0
2013-03-26 08:00:00,0.0
2013-03-26 09:00:00,0.0
2013-03-26 10:00:00,0.0
2013-03-26 11:00:00,0.0
2013-03-26 12:00:00,0.0
2013-03-26 13:00:00,0.0
2013-03-26 14:00:00,0.0
2013-03-26 15:00:00,0.0
2013-03-26 16:00:00,0.0
2013-03-26 17:00:00,0.0
2013-03-26 18:00:00,0.0
2013-03-26 19:00:00,0.0
2013-03-26 20:00:00,0.0
2013-03-26 21:00:00,0.0
2013-03-26 22:00:00,0.0
2013-03-26 23:00:00,0.0
2013-03-27 00:00:00,0.0
2013-03-27 01:00:00,0.0
2013-03-27 02:00:00,0.0
2013-03-27 03:00:00,0.0
2013-03-27 04:00:00,0.0
2013-03-27 05:00:00,0.0
2013-03-27 06:00:00,0.0
2013-03-27 07:00:00,0.0
2013-03-27 08:00:00,0.0
2013-03-27 09:00:00,0.0
2013-03-27 10:00:00,0.0
2013-03-27 11:00:00,0.0
2013-03-27 12:00:00,0.0
2013-03-27 13:00:00,0.0
2013-03-27 14:00:00,0.0
2013-03-27 15:00:00,0.0
2013-03-27 16:00:00,0.0
2013-03-27 17:00:00,4.466283e-06
2013-03-27 18:00:00,1.2529299e-06
2013-03-27 19:00:00,0.0
2013-03-27 20:00:00,0.0
2013-03-27 21:00:00,2.9248343e-07
2013-03-27 22:00:00,2.9248343e-07
2013-03-27 23:00:00,0.0
2013-03-28 00:00:00,0.0
2013-03-28 01:00:00,0.0
2013-03-28 02:00:00,0.0
2013-03-28 03:00:00,5.849669e-07
2013-03-28 04:00:00,1.38421e-06
2013-03-28 05:00:00,2.660291e-06
2013-03-28 06:00:00,3.5908151e-06
2013-03-28 07:00:00,2.0753241e-06
2013-03-28 08:00:00,6.1489015e-07
2013-03-28 09:00:00,0.0
2013-03-28 10:00:00,0.0
2013-03-28 11:00:00,3.9929626e-05
2013-03-28 12:00:00,0.00012903918
2013-03-28 13:00:00,2.8177135e-05
2013-03-28 14:00:00,6.28087e-05
2013-03-28 15:00:00,0.00010658229
2013-03-28 16:00:00,9.222921e-05
2013-03-28 17:00:00,8.297137e-05
2013-03-28 18:00:00,4.4790548e-05
2013-03-28 19:00:00,3.401609e-05
2013-03-28 20:00:00,2.3032699e-05
2013-03-28 21:00:00,2.9090123e-05
2013-03-28 22:00:00,3.8231068e-05
2013-03-28 23:00:00,4.955943e-05
2013-03-29 00:00:00,5.8233447e-05
2013-03-29 01:00:00,4.2913423e-05
2013-03-29 02:00:00,2.6428228e-05
2013-03-29 03:00:00,1.4938673e-05
2013-03-29 04:00:00,5.094743e-06
2013-03-29 05:00:00,8.774504e-07
2013-03-29 06:00:00,3.387841e-07
2013-03-29 07:00:00,1.6699214e-06
2013-03-29 08:00:00,6.0811726e-07
2013-03-29 09:00:00,3.2240666e-07
2013-03-29 10:00:00,0.0
2013-03-29 11:00:00,0.0
2013-03-29 12:00:00,2.9248343e-07
2013-03-29 13:00:00,3.1563377e-07
2013-03-29 14:00:00,5.849669e-07
2013-03-29 15:00:00,5.849669e-07
2013-03-29 16:00:00,1.9807403e-06
2013-03-29 17:00:00,9.1002585e-06
2013-03-29 18:00:00,8.645747e-06
2013-03-29 19:00:00,0.0
2013-03-29 20:00:00,0.0
2013-03-29 21:00:00,0.0
2013-03-29 22:00:00,0.0
2013-03-29 23:00:00,0.0
2013-03-30 00:00:00,0.0
2013-03-30 01:00:00,0.0
2013-03-30 02:00:00,0.0
2013-03-30 03:00:00,0.0
2013-03-30 04:00:00,0.0
2013-03-30 05:00:00,2.3150328e-08
2013-03-30 06:00:00,4.5368682e-07
2013-03-30 07:00:00,0.0
2013-03-30 08:00:00,2.9248343e-07
2013-03-30 09:00:00,1.1272999e-05
2013-03-30 10:00:00,9.169709e-06
2013-03-30 11:00:00,4.2121937e-06
2013-03-30 12:00:00,7.801876e-06
2013-03-30 13:00:00,6.428403e-06
2013-03-30 14:00:00,2.523871e-05
2013-03-30 15:00:00,5.4537217e-05
2013-03-30 16:00:00,6.0429273e-05
2013-03-30 17:00:00,6.762658e-06
2013-03-30 18:00:00,5.7084753e-06
2013-03-30 19:00:00,1.6120333e-07
2013-03-30 20:00:00,0.0
2013-03-30 21:00:00,3.2240666e-07
2013-03-30 22:00:00,9.536743e-07
2013-03-30 23:00:00,2.9248343e-07
2013-03-31 00:00:00,0.0
2013-03-31 01:00:00,0.0
2013-03-31 02:00:00,0.0
2013-03-31 03:00:00,0.0
2013-03-31 04:00:00,0.0
2013-03-31 05:00:00,6.0811726e-07
2013-03-31 06:00:00,9.237511e-07
2013-03-31 07:00:00,1.2461569e-06
2013-03-31 08:00:00,4.6300656e-08
2013-03-31 09:00:00,5.0676033e-07
2013-03-31 10:00:00,0.0
2013-03-31 11:00:00,0.0
2013-03-31 12:00:00,0.0
2013-03-31 13:00:00,7.537921e-07
2013-03-31 14:00:00,1.834512e-05
2013-03-31 15:00:00,3.1347634e-05
2013-03-31 16:00:00,4.7259397e-05
2013-03-31 17:00:00,2.432469e-06
2013-03-31 18:00:00,0.0
2013-03-31 19:00:00,0.0
2013-03-31 20:00:00,0.0
2013-03-31 21:00:00,0.0
2013-03-31 22:00:00,0.0
2013-03-31 23:00:00,0.0
2013-04-01 00:00:00,0.0
2013-04-01 01:00:00,0.0
2013-04-01 02:00:00,0.0
2013-04-01 03:00:00,0.0
2013-04-01 04:00:00,0.0
2013-04-01 05:00:00,0.0
2013-04-01 06:00:00,0.0
2013-04-01 07:00:00,0.0
2013-04-01 08:00:00,0.0
2013-04-01 09:00:00,0.0
2013-04-01 10:00:00,0.0
2013-04-01 11:00:00,0.0
2013-04-01 12:00:00,0.0
2013-04-01 13:00:00,0.0
2013-04-01 14:00:00,0.0
2013-04-01 15:00:00,0.0
2013-04-01 16:00:00,0.0
2013-04-01 17:00:00,0.0
2013-04-01 18:00:00,0.0
2013-04-01 19:00:00,0.0
2013-04-01 20:00:00,0.0
2013-04-01 21:00:00,0.0
2013-04-01 22:00:00,0.0
2013-04-01 23:00:00,0.0
2013-04-02 00:00:00,0.0
2013-04-02 01:00:00,0.0
2013-04-02 02:00:00,0.0
2013-04-02 03:00:00,0.0
2013-04-02 04:00:00,0.0
2013-04-02 05:00:00,0.0
2013-04-02 06:00:00,0.0
2013-04-02 07:00:00,0.0
2013-04-02 08:00:00,0.0
2013-04-02 09:00:00,0.0
2013-04-02 10:00:00,0.0
2013-04-02 11:00:00,0.0
2013-04-02 12:00:00,0.0
2013-04-02 13:00:00,0.0
2013-04-02 14:00:00,0.0
2013-04-02 15:00:00,0.0
2013-04-02 16:00:00,0.0
2013-04-02 17:00:00,0.0
2013-04-02 18:00:00,0.0
2013-04-02 19:00:00,0.0
2013-04-02 20:00:00,0.0
2013-04-02 21:00:00,0.0
2013-04-02 22:00:00,0.0
2013-04-02 23:00:00,0.0
2013-04-03 00:00:00,0.0
2013-04-03 01:00:00,0.0
2013-04-03 02:00:00,0.0
2013-04-03 03:00:00,5.849669e-07
2013-04-03 04:00:00,2.8398545e-06
2013-04-03 05:00:00,5.0715926e-06
2013-04-03 06:00:00,6.1102464e-06
2013-04-03 07:00:00,6.4558035e-06
2013-04-03 08:00:00,8.187554e-06
2013-04-03 09:00:00,8.742598e-06
2013-04-03 10:00:00,4.1478415e-06
2013-04-03 11:00:00,0.00010033358
2013-04-03 12:00:00,0.00017205533
2013-04-03 13:00:00,0.00023313839
2013-04-03 14:00:00,0.0001255032
2013-04-03 15:00:00,7.5724805e-05
2013-04-03 16:00:00,4.547297e-06
2013-04-03 17:00:00,0.0
2013-04-03 18:00:00,0.0
2013-04-03 19:00:00,0.0
2013-04-03 20:00:00,0.0
2013-04-03 21:00:00,0.0
2013-04-03 22:00:00,0.0
2013-04-03 23:00:00,0.0
2013-04-04 00:00:00,0.0
2013-04-04 01:00:00,0.0
2013-04-04 02:00:00,0.0
2013-04-04 03:00:00,0.0
2013-04-04 04:00:00,2.9248343e-07
2013-04-04 05:00:00,5.849669e-07
2013-04-04 06:00:00,7.693206e-07
2013-04-04 07:00:00,7.693206e-07
2013-04-04 08:00:00,1.8774253e-06
2013-04-04 09:00:00,1.8774253e-06
2013-04-04 10:00:00,0.0
2013-04-04 11:00:00,2.653518e-06
2013-04-04 12:00:00,9.121734e-06
2013-04-04 13:00:00,6.308146e-06
2013-04-04 14:00:00,1.4923398e-06
2013-04-04 15:00:00,0.0
2013-04-04 16:00:00,0.0
2013-04-04 17:00:00,0.0
2013-04-04 18:00:00,0.0
2013-04-04 19:00:00,0.0
2013-04-04 20:00:00,0.0
2013-04-04 21:00:00,0.0
2013-04-04 22:00:00,0.0
2013-04-04 23:00:00,0.0
2013-04-05 00:00:00,0.0
2013-04-05 01:00:00,0.0
2013-04-05 02:00:00,3.2240666e-07
2013-04-05 03:00:00,3.2240666e-07
2013-04-05 04:00:00,0.0
2013-04-05 05:00:00,0.0
2013-04-05 06:00:00,0.0
2013-04-05 07:00:00,0.0
2013-04-05 08:00:00,0.0
2013-04-05 09:00:00,0.0
2013-04-05 10:00:00,0.0
2013-04-05 11:00:00,0.0
2013-04-05 12:00:00,0.0
2013-04-05 13:00:00,0.0
2013-04-05 14:00:00,0.0
2013-04-05 15:00:00,0.0
2013-04-05 16:00:00,0.0
2013-04-05 17:00:00,0.0
2013-04-05 18:00:00,2.9248343e-07
2013-04-05 19:00:00,2.8514178e-06
2013-04-05 20:00:00,1.3953894e-05
2013-04-05 21:00:00,2.2873763e-05
2013-04-05 22:00:00,2.3853412e-05
2013-04-05 23:00:00,1.7119834e-05
2013-04-06 00:00:00,7.9518e-06
2013-04-06 01:00:00,4.213327e-06
2013-04-06 02:00:00,4.3976806e-06
2013-04-06 03:00:00,6.9043917e-06
2013-04-06 04:00:00,1.15578605e-05
2013-04-06 05:00:00,1.6141872e-05
2013-04-06 06:00:00,1.8626568e-05
2013-04-06 07:00:00,1.2988372e-05
2013-04-06 08:00:00,7.2587036e-06
2013-04-06 09:00:00,1.1662333e-05
2013-04-06 10:00:00,2.076148e-05
2013-04-06 11:00:00,3.2595446e-05
2013-04-06 12:00:00,4.6097994e-05
2013-04-06 13:00:00,3.3720542e-05
2013-04-06 14:00:00,2.5607515e-05
2013-04-06 15:00:00,2.081148e-05
2013-04-06 16:00:00,1.2160647e-05
2013-04-06 17:00:00,0.0
2013-04-06 18:00:00,0.0
2013-04-06 19:00:00,0.0
2013-04-06 20:00:00,0.0
2013-04-06 21:00:00,0.0
2013-04-06 22:00:00,0.0
2013-04-06 23:00:00,0.0
2013-04-07 00:00:00,0.0
2013-04-07 01:00:00,0.0
2013-04-07 02:00:00,0.0
2013-04-07 03:00:00,0.0
2013-04-07 04:00:00,0.0
2013-04-07 05:00:00,0.0
2013-04-07 06:00:00,0.0
2013-04-07 07:00:00,0.0
2013-04-07 08:00:00,0.0
2013-04-07 09:00:00,0.0
2013-04-07 10:00:00,0.0
2013-04-07 11:00:00,0.0
2013-04-07 12:00:00,0.0
2013-04-07 13:00:00,0.0
2013-04-07 14:00:00,0.0
2013-04-07 15:00:00,0.0
2013-04-07 16:00:00,0.0
2013-04-07 17:00:00,0.0
2013-04-07 18:00:00,0.0
2013-04-07 19:00:00,0.0
2013-04-07 20:00:00,0.0
2013-04-07 21:00:00,0.0
2013-04-07 22:00:00,0.0
2013-04-07 23:00:00,0.0
2013-04-08 00:00:00,0.0
2013-04-08 01:00:00,0.0
2013-04-08 02:00:00,0.0
2013-04-08 03:00:00,0.0
2013-04-08 04:00:00,0.0
2013-04-08 05:00:00,0.0
2013-04-08 06:00:00,0.0
2013-04-08 07:00:00,0.0
2013-04-08 08:00:00,0.0
2013-04-08 09:00:00,0.0
2013-04-08 10:00:00,0.0
2013-04-08 11:00:00,0.0
2013-04-08 12:00:00,4.49535e-05
2013-04-08 13:00:00,7.788923e-05
2013-04-08 14:00:00,4.227007e-05
2013-04-08 15:00:00,7.526523e-05
2013-04-08 16:00:00,8.6267886e-05
2013-04-08 17:00:00,0.0001190506
2013-04-08 18:00:00,8.813433e-05
2013-04-08 19:00:00,0.0
2013-04-08 20:00:00,0.0
2013-04-08 21:00:00,0.0
2013-04-08 22:00:00,0.0
2013-04-08 23:00:00,0.0
2013-04-09 00:00:00,0.0
2013-04-09 01:00:00,0.0
2013-04-09 02:00:00,0.0
2013-04-09 03:00:00,0.0
2013-04-09 04:00:00,0.0
2013-04-09 05:00:00,8.774504e-07
2013-04-09 06:00:00,1.4035241e-05
2013-04-09 07:00:00,1.0396142e-05
2013-04-09 08:00:00,0.0001865684
2013-04-09 09:00:00,0.00057815015
2013-04-09 10:00:00,0.0005967037
2013-04-09 11:00:00,0.00094106584
2013-04-09 12:00:00,0.00034234184
2013-04-09 13:00:00,9.127031e-05
2013-04-09 14:00:00,5.7623154e-05
2013-04-09 15:00:00,0.00013981441
2013-04-09 16:00:00,7.130214e-05
2013-04-09 17:00:00,6.458744e-05
2013-04-09 18:00:00,5.2254574e-05
2013-04-09 19:00:00,4.0673112e-05
2013-04-09 20:00:00,7.2587036e-06
2013-04-09 21:00:00,1.6148651e-06
2013-04-09 22:00:00,6.312676e-07
2013-04-09 23:00:00,0.0
2013-04-10 00:00:00,5.0676033e-07
2013-04-10 01:00:00,3.45557e-07
2013-04-10 02:00:00,1.3866059e-05
2013-04-10 03:00:00,0.000100780264
2013-04-10 04:00:00,9.621144e-05
2013-04-10 05:00:00,0.00011463436
2013-04-10 06:00:00,0.00018398477
2013-04-10 07:00:00,5.525387e-05
2013-04-10 08:00:00,3.385576e-05
2013-04-10 09:00:00,4.5649882e-05
2013-04-10 10:00:00,7.1469534e-05
2013-04-10 11:00:00,3.8460974e-05
2013-04-10 12:00:00,5.905956e-05
2013-04-10 13:00:00,5.81544e-05
2013-04-10 14:00:00,2.5329151e-05
2013-04-10 15:00:00,1.853249e-05
2013-04-10 16:00:00,1.1699331e-06
2013-04-10 17:00:00,4.094768e-06
2013-04-10 18:00:00,0.0
2013-04-10 19:00:00,1.2602747e-05
2013-04-10 20:00:00,0.00011154724
2013-04-10 21:00:00,0.0003422983
2013-04-10 22:00:00,0.0006261878
2013-04-10 23:00:00,0.0011824726
2013-04-11 00:00:00,0.00089441566
2013-04-11 01:00:00,0.0011286223
2013-04-11 02:00:00,0.0006682661
2013-04-11 03:00:00,0.00042108586
2013-04-11 04:00:00,0.00015723043
2013-04-11 05:00:00,0.00015421787
2013-04-11 06:00:00,0.00025350647
2013-04-11 07:00:00,0.0002873768
2013-04-11 08:00:00,0.00014831543
2013-04-11 09:00:00,0.00012593313
2013-04-11 10:00:00,6.2334395e-05
2013-04-11 11:00:00,4.7440248e-05
2013-04-11 12:00:00,6.486046e-05
2013-04-11 13:00:00,3.1638425e-05
2013-04-11 14:00:00,3.4333396e-05
2013-04-11 15:00:00,1.6778256e-05
2013-04-11 16:00:00,0.0
2013-04-11 17:00:00,2.924834e-06
2013-04-11 18:00:00,0.0
2013-04-11 19:00:00,0.0
2013-04-11 20:00:00,8.774504e-07
2013-04-11 21:00:00,2.9248343e-07
2013-04-11 22:00:00,2.9248343e-07
2013-04-11 23:00:00,8.774504e-07
2013-04-12 00:00:00,2.9248343e-07
2013-04-12 01:00:00,2.9248343e-07
2013-04-12 02:00:00,0.0
2013-04-12 03:00:00,5.8341166e-06
2013-04-12 04:00:00,5.35321e-05
2013-04-12 05:00:00,4.7534068e-06
2013-04-12 06:00:00,0.0
2013-04-12 07:00:00,6.888323e-06
2013-04-12 08:00:00,4.3939624e-05
2013-04-12 09:00:00,0.0001475805
2013-04-12 10:00:00,0.0002503486
2013-04-12 11:00:00,9.856328e-05
2013-04-12 12:00:00,0.00017475725
2013-04-12 13:00:00,0.0004636282
2013-04-12 14:00:00,0.00046725245
2013-04-12 15:00:00,0.0006410994
2013-04-12 16:00:00,8.1587525e-05
2013-04-12 17:00:00,2.2966997e-05
2013-04-12 18:00:00,5.849669e-07
2013-04-12 19:00:00,0.0
2013-04-12 20:00:00,0.0
2013-04-12 21:00:00,1.3359268e-06
2013-04-12 22:00:00,3.1756223e-05
2013-04-12 23:00:00,6.6961045e-05
2013-04-13 00:00:00,2.1728643e-05
2013-04-13 01:00:00,1.1005339e-05
2013-04-13 02:00:00,1.7373895e-06
2013-04-13 03:00:00,6.312676e-07
2013-04-13 04:00:00,0.0
2013-04-13 05:00:00,0.0
2013-04-13 06:00:00,0.0
2013-04-13 07:00:00,4.6300656e-08
2013-04-13 08:00:00,0.0
2013-04-13 09:00:00,1.9027182e-05
2013-04-13 10:00:00,5.4192875e-05
2013-04-13 11:00:00,8.3184525e-05
2013-04-13 12:00:00,0.00010478661
2013-04-13 13:00:00,6.1954815e-06
2013-04-13 14:00:00,0.0
2013-04-13 15:00:00,0.0
2013-04-13 16:00:00,5.849669e-07
2013-04-13 17:00:00,6.342436e-05
2013-04-13 18:00:00,0.00030414038
2013-04-13 19:00:00,0.0003228758
2013-04-13 20:00:00,0.0002516529
2013-04-13 21:00:00,0.00014382874
2013-04-13 22:00:00,0.00025278144
2013-04-13 23:00:00,0.0014029057
2013-04-14 00:00:00,0.00016400212
2013-04-14 01:00:00,3.1650008e-05
2013-04-14 02:00:00,4.913197e-06
2013-04-14 03:00:00,3.0992987e-06
2013-04-14 04:00:00,6.8434116e-07
2013-04-14 05:00:00,1.8435367e-07
2013-04-14 06:00:00,0.0
2013-04-14 07:00:00,0.0
2013-04-14 08:00:00,0.0
2013-04-14 09:00:00,0.0
2013-04-14 10:00:00,0.0
2013-04-14 11:00:00,0.0
2013-04-14 12:00:00,0.0
2013-04-14 13:00:00,0.0
2013-04-14 14:00:00,0.0
2013-04-14 15:00:00,0.0
2013-04-14 16:00:00,0.0
2013-04-14 17:00:00,0.0
2013-04-14 18:00:00,0.0
2013-04-14 19:00:00,0.0
2013-04-14 20:00:00,0.0
2013-04-14 21:00:00,0.0
2013-04-14 22:00:00,0.0
2013-04-14 23:00:00,0.0
2013-04-15 00:00:00,0.0
2013-04-15 01:00:00,0.0
2013-04-15 02:00:00,0.0
2013-04-15 03:00:00,0.0
2013-04-15 04:00:00,0.0
2013-04-15 05:00:00,0.0
2013-04-15 06:00:00,0.0
2013-04-15 07:00:00,5.2163377e-05
2013-04-15 08:00:00,5.9862097e-05
2013-04-15 09:00:00,0.00029105972
2013-04-15 10:00:00,0.0007154478
2013-04-15 11:00:00,0.0004566533
2013-04-15 12:00:00,4.7325244e-05
2013-04-15 13:00:00,3.017436e-06
2013-04-15 14:00:00,8.407446e-06
2013-04-15 15:00:00,2.228962e-05
2013-04-15 16:00:00,1.7549e-06
2013-04-15 17:00:00,9.897519e-06
2013-04-15 18:00:00,9.359471e-06
2013-04-15 19:00:00,0.0
2013-04-15 20:00:00,0.0
2013-04-15 21:00:00,0.0
2013-04-15 22:00:00,0.0
2013-04-15 23:00:00,0.0
2013-04-16 00:00:00,0.0
2013-04-16 01:00:00,0.0
2013-04-16 02:00:00,0.0
2013-04-16 03:00:00,0.0
2013-04-16 04:00:00,0.0
2013-04-16 05:00:00,0.0
2013-04-16 06:00:00,0.0
2013-04-16 07:00:00,0.0
2013-04-16 08:00:00,0.0
2013-04-16 09:00:00,0.0
2013-04-16 10:00:00,0.0
2013-04-16 11:00:00,0.0
2013-04-16 12:00:00,3.2240666e-07
2013-04-16 13:00:00,3.35738e-05
2013-04-16 14:00:00,2.6323512e-05
2013-04-16 15:00:00,4.5678476e-05
2013-04-16 16:00:00,3.2199503e-05
2013-04-16 17:00:00,4.6300656e-08
2013-04-16 18:00:00,4.30614e-05
2013-04-16 19:00:00,0.0
2013-04-16 20:00:00,1.6120333e-07
2013-04-16 21:00:00,1.969177e-06
2013-04-16 22:00:00,9.536743e-07
2013-04-16 23:00:00,6.312676e-07
2013-04-17 00:00:00,1.1843285e-06
2013-04-17 01:00:00,1.677543e-06
2013-04-17 02:00:00,4.6300656e-08
2013-04-17 03:00:00,4.6300656e-08
2013-04-17 04:00:00,2.9248343e-07
2013-04-17 05:00:00,1.2461569e-06
2013-04-17 06:00:00,4.0078057e-06
2013-04-17 07:00:00,2.7847982e-06
2013-04-17 08:00:00,1.7992188e-06
2013-04-17 09:00:00,4.2472157e-06
2013-04-17 10:00:00,9.260128e-08
2013-04-17 11:00:00,0.0
2013-04-17 12:00:00,0.0
2013-04-17 13:00:00,0.0
2013-04-17 14:00:00,0.0
2013-04-17 15:00:00,0.0
2013-04-17 16:00:00,0.0
2013-04-17 17:00:00,0.0
2013-04-17 18:00:00,0.0
2013-04-17 19:00:00,0.0
2013-04-17 20:00:00,0.0
2013-04-17 21:00:00,0.0
2013-04-17 22:00:00,0.0
2013-04-17 23:00:00,0.0
2013-04-18 00:00:00,0.0
2013-04-18 01:00:00,0.0
2013-04-18 02:00:00,0.0
2013-04-18 03:00:00,0.0
2013-04-18 04:00:00,0.0
2013-04-18 05:00:00,0.0
2013-04-18 06:00:00,0.0
2013-04-18 07:00:00,0.0
2013-04-18 08:00:00,0.0
2013-04-18 09:00:00,0.0
2013-04-18 10:00:00,0.0
2013-04-18 11:00:00,5.5571854e-06
2013-04-18 12:00:00,1.7549e-06
2013-04-18 13:00:00,0.0
2013-04-18 14:00:00,0.0
2013-04-18 15:00:00,0.0
2013-04-18 16:00:00,1.0385919e-05
2013-04-18 17:00:00,1.2067428e-05
2013-04-18 18:00:00,0.0
2013-04-18 19:00:00,0.0
2013-04-18 20:00:00,0.0
2013-04-18 21:00:00,0.0
2013-04-18 22:00:00,0.0
2013-04-18 23:00:00,0.0
2013-04-19 00:00:00,0.0
2013-04-19 01:00:00,0.0
2013-04-19 02:00:00,0.0
2013-04-19 03:00:00,0.0
2013-04-19 04:00:00,0.0
2013-04-19 05:00:00,0.0
2013-04-19 06:00:00,0.0
2013-04-19 07:00:00,0.0
2013-04-19 08:00:00,1.0337945e-05
2013-04-19 09:00:00,0.0001386935
2013-04-19 10:00:00,0.00016103993
2013-04-19 11:00:00,0.00017979735
2013-04-19 12:00:00,5.573203e-05
2013-04-19 13:00:00,0.00015674245
2013-04-19 14:00:00,0.00072767166
2013-04-19 15:00:00,0.00013994367
2013-04-19 16:00:00,0.001241944
2013-04-19 17:00:00,5.4978387e-05
2013-04-19 18:00:00,1.4052182e-05
2013-04-19 19:00:00,9.066987e-06
2013-04-19 20:00:00,1.1699331e-06
2013-04-19 21:00:00,4.5368682e-07
2013-04-19 22:00:00,6.1489015e-07
2013-04-19 23:00:00,9.0737365e-07
2013-04-20 00:00:00,9.30524e-07
2013-04-20 01:00:00,2.6004445e-06
2013-04-20 02:00:00,1.6699214e-06
2013-04-20 03:00:00,1.6236199e-06
2013-04-20 04:00:00,2.9248343e-07
2013-04-20 05:00:00,0.0
2013-04-20 06:00:00,0.0
2013-04-20 07:00:00,0.0
2013-04-20 08:00:00,0.0
2013-04-20 09:00:00,0.0
2013-04-20 10:00:00,0.0
2013-04-20 11:00:00,0.0
2013-04-20 12:00:00,0.0
2013-04-20 13:00:00,0.0
2013-04-20 14:00:00,0.0
2013-04-20 15:00:00,0.0
2013-04-20 16:00:00,0.0
2013-04-20 17:00:00,0.0
2013-04-20 18:00:00,0.0
2013-04-20 19:00:00,0.0
2013-04-20 20:00:00,0.0
2013-04-20 21:00:00,0.0
2013-04-20 22:00:00,0.0
2013-04-20 23:00:00,0.0
2013-04-21 00:00:00,0.0
2013-04-21 01:00:00,0.0
2013-04-21 02:00:00,0.0
2013-04-21 03:00:00,0.0
2013-04-21 04:00:00,0.0
2013-04-21 05:00:00,0.0
2013-04-21 06:00:00,0.0
2013-04-21 07:00:00,0.0
2013-04-21 08:00:00,0.0
2013-04-21 09:00:00,0.0
2013-04-21 10:00:00,0.0
2013-04-21 11:00:00,0.0
2013-04-21 12:00:00,0.0
2013-04-21 13:00:00,0.0
2013-04-21 14:00:00,0.0
2013-04-21 15:00:00,0.0
2013-04-21 16:00:00,0.0
2013-04-21 17:00:00,0.0
2013-04-21 18:00:00,0.0
2013-04-21 19:00:00,0.0
2013-04-21 20:00:00,0.0
2013-04-21 21:00:00,0.0
2013-04-21 22:00:00,0.0
2013-04-21 23:00:00,0.0
2013-04-22 00:00:00,0.0
2013-04-22 01:00:00,0.0
2013-04-22 02:00:00,0.0
2013-04-22 03:00:00,0.0
2013-04-22 04:00:00,0.0
2013-04-22 05:00:00,0.0
2013-04-22 06:00:00,0.0
2013-04-22 07:00:00,0.0
2013-04-22 08:00:00,0.0
2013-04-22 09:00:00,0.0
2013-04-22 10:00:00,0.0
2013-04-22 11:00:00,0.0
2013-04-22 12:00:00,0.0
2013-04-22 13:00:00,0.0
2013-04-22 14:00:00,0.0
2013-04-22 15:00:00,0.0
2013-04-22 16:00:00,8.774504e-07
2013-04-22 17:00:00,0.0
2013-04-22 18:00:00,0.0
2013-04-22 19:00:00,0.0
2013-04-22 20:00:00,0.0
2013-04-22 21:00:00,0.0
2013-04-22 22:00:00,0.0
2013-04-22 23:00:00,0.0
2013-04-23 00:00:00,0.0
2013-04-23 01:00:00,4.6300656e-08
2013-04-23 02:00:00,1.4855677e-06
2013-04-23 03:00:00,2.9248343e-07
2013-04-23 04:00:00,3.2240666e-07
2013-04-23 05:00:00,3.7867321e-06
2013-04-23 06:00:00,1.1813932e-05
2013-04-23 07:00:00,6.433827e-05
2013-04-23 08:00:00,1.2377707e-05
2013-04-23 09:00:00,1.5617916e-05
2013-04-23 10:00:00,6.399614e-06
2013-04-23 11:00:00,7.753052e-06
2013-04-23 12:00:00,4.375531e-05
2013-04-23 13:00:00,7.0910073e-06
2013-04-23 14:00:00,2.3722343e-05
2013-04-23 15:00:00,1.2605524e-06
2013-04-23 16:00:00,5.7056764e-05
2013-04-23 17:00:00,2.3065428e-07
2013-04-23 18:00:00,8.1562126e-07
2013-04-23 19:00:00,0.0
2013-04-23 20:00:00,3.2935413e-06
2013-04-23 21:00:00,5.849669e-07
2013-04-23 22:00:00,0.0
2013-04-23 23:00:00,0.0
2013-04-24 00:00:00,0.0
2013-04-24 01:00:00,0.0
2013-04-24 02:00:00,0.0
2013-04-24 03:00:00,0.0
2013-04-24 04:00:00,0.0
2013-04-24 05:00:00,0.0
2013-04-24 06:00:00,0.0
2013-04-24 07:00:00,0.0
2013-04-24 08:00:00,0.0
2013-04-24 09:00:00,0.0
2013-04-24 10:00:00,0.0
2013-04-24 11:00:00,0.0
2013-04-24 12:00:00,0.0
2013-04-24 13:00:00,0.0
2013-04-24 14:00:00,0.0
2013-04-24 15:00:00,0.0
2013-04-24 16:00:00,0.0
2013-04-24 17:00:00,0.0
2013-04-24 18:00:00,0.0
2013-04-24 19:00:00,0.0
2013-04-24 20:00:00,0.0
2013-04-24 21:00:00,0.0
2013-04-24 22:00:00,0.0
2013-04-24 23:00:00,0.0
2013-04-25 00:00:00,0.0
2013-04-25 01:00:00,0.0
2013-04-25 02:00:00,0.0
2013-04-25 03:00:00,0.0
2013-04-25 04:00:00,0.0
2013-04-25 05:00:00,0.0
2013-04-25 06:00:00,0.0
2013-04-25 07:00:00,0.0
2013-04-25 08:00:00,0.0
2013-04-25 09:00:00,0.0
2013-04-25 10:00:00,0.0
2013-04-25 11:00:00,0.0
2013-04-25 12:00:00,4.679735e-06
2013-04-25 13:00:00,0.0
2013-04-25 14:00:00,2.3262974e-06
2013-04-25 15:00:00,6.91114e-07
2013-04-25 16:00:00,0.0
2013-04-25 17:00:00,0.0
2013-04-25 18:00:00,0.0
2013-04-25 19:00:00,0.0
2013-04-25 20:00:00,0.0
2013-04-25 21:00:00,0.0
2013-04-25 22:00:00,0.0
2013-04-25 23:00:00,0.0
2013-04-26 00:00:00,0.0
2013-04-26 01:00:00,0.0
2013-04-26 02:00:00,0.0
2013-04-26 03:00:00,0.0
2013-04-26 04:00:00,0.0
2013-04-26 05:00:00,8.821581e-06
2013-04-26 06:00:00,0.00013220464
2013-04-26 07:00:00,0.00031731138
2013-04-26 08:00:00,0.0005428039
2013-04-26 09:00:00,0.00077574304
2013-04-26 10:00:00,0.0008664639
2013-04-26 11:00:00,0.00050961017
2013-04-26 12:00:00,0.00023831437
2013-04-26 13:00:00,0.00020313967
2013-04-26 14:00:00,0.00026478572
2013-04-26 15:00:00,0.00042599998
2013-04-26 16:00:00,0.00061480515
2013-04-26 17:00:00,0.00040379353
2013-04-26 18:00:00,0.00019708424
2013-04-26 19:00:00,9.5499185e-05
2013-04-26 20:00:00,3.3826145e-05
2013-04-26 21:00:00,5.495356e-06
2013-04-26 22:00:00,2.9248343e-07
2013-04-26 23:00:00,0.0
2013-04-27 00:00:00,0.0
2013-04-27 01:00:00,2.9248343e-07
2013-04-27 02:00:00,0.0
2013-04-27 03:00:00,0.0
2013-04-27 04:00:00,0.0
2013-04-27 05:00:00,0.0
2013-04-27 06:00:00,0.0
2013-04-27 07:00:00,0.0
2013-04-27 08:00:00,0.0
2013-04-27 09:00:00,0.0
2013-04-27 10:00:00,2.178899e-05
2013-04-27 11:00:00,2.3470478e-05
2013-04-27 12:00:00,0.0
2013-04-27 13:00:00,0.0
2013-04-27 14:00:00,0.0
2013-04-27 15:00:00,0.0
2013-04-27 16:00:00,0.0
2013-04-27 17:00:00,0.0
2013-04-27 18:00:00,0.0
2013-04-27 19:00:00,0.0
2013-04-27 20:00:00,0.0
2013-04-27 21:00:00,0.0
2013-04-27 22:00:00,0.0
2013-04-27 23:00:00,0.0
2013-04-28 00:00:00,0.0
2013-04-28 01:00:00,0.0
2013-04-28 02:00:00,0.0
2013-04-28 03:00:00,0.0
2013-04-28 04:00:00,0.0
2013-04-28 05:00:00,0.0
2013-04-28 06:00:00,0.0
2013-04-28 07:00:00,2.9248343e-07
2013-04-28 08:00:00,5.849669e-07
2013-04-28 09:00:00,0.0
2013-04-28 10:00:00,0.0
2013-04-28 11:00:00,0.0
2013-04-28 12:00:00,0.0
2013-04-28 13:00:00,0.0
2013-04-28 14:00:00,0.0
2013-04-28 15:00:00,0.0
2013-04-28 16:00:00,0.0
2013-04-28 17:00:00,0.0
2013-04-28 18:00:00,0.0
2013-04-28 19:00:00,0.0
2013-04-28 20:00:00,0.0
2013-04-28 21:00:00,0.0
2013-04-28 22:00:00,0.0
2013-04-28 23:00:00,0.0
2013-04-29 00:00:00,0.0
2013-04-29 01:00:00,0.0
2013-04-29 02:00:00,0.0
2013-04-29 03:00:00,0.0
2013-04-29 04:00:00,0.0
2013-04-29 05:00:00,0.0
2013-04-29 06:00:00,0.0
2013-04-29 07:00:00,0.0
2013-04-29 08:00:00,0.0
2013-04-29 09:00:00,0.0
2013-04-29 10:00:00,1.0158382e-05
2013-04-29 11:00:00,3.4408964e-05
2013-04-29 12:00:00,0.0001004018
2013-04-29 13:00:00,0.00012403222
2013-04-29 14:00:00,6.5237924e-05
2013-04-29 15:00:00,7.807414e-05
2013-04-29 16:00:00,8.785572e-05
2013-04-29 17:00:00,0.0
2013-04-29 18:00:00,0.0
2013-04-29 19:00:00,0.0
2013-04-29 20:00:00,0.0
2013-04-29 21:00:00,0.0
2013-04-29 22:00:00,0.0
2013-04-29 23:00:00,0.0
2013-04-30 00:00:00,0.0
2013-04-30 01:00:00,0.0
2013-04-30 02:00:00,0.0
2013-04-30 03:00:00,0.0
2013-04-30 04:00:00,0.0
2013-04-30 05:00:00,0.0
2013-04-30 06:00:00,0.0
2013-04-30 07:00:00,0.0
2013-04-30 08:00:00,0.0
2013-04-30 09:00:00,0.0
2013-04-30 10:00:00,0.0
2013-04-30 11:00:00,0.0
2013-04-30 12:00:00,0.0
2013-04-30 13:00:00,0.0
2013-04-30 14:00:00,8.2916705e-07
2013-04-30 15:00:00,0.0
2013-04-30 16:00:00,0.0
2013-04-30 17:00:00,0.0
2013-04-30 18:00:00,0.0
2013-04-30 19:00:00,0.0
2013-04-30 20:00:00,0.0
2013-04-30 21:00:00,0.0
2013-04-30 22:00:00,0.0
2013-04-30 23:00:00,0.0
2013-05-01 00:00:00,0.0
2013-05-01 01:00:00,0.0
2013-05-01 02:00:00,0.0
2013-05-01 03:00:00,0.0
2013-05-01 04:00:00,0.0
2013-05-01 05:00:00,0.0
2013-05-01 06:00:00,0.0
2013-05-01 07:00:00,0.0
2013-05-01 08:00:00,0.0
2013-05-01 09:00:00,0.0
2013-05-01 10:00:00,0.0
2013-05-01 11:00:00,0.0
2013-05-01 12:00:00,0.0
2013-05-01 13:00:00,0.0
2013-05-01 14:00:00,0.0
2013-05-01 15:00:00,0.0
2013-05-01 16:00:00,6.2183763e-06
2013-05-01 17:00:00,7.931833e-05
2013-05-01 18:00:00,0.0004336955
2013-05-01 19:00:00,0.0002883568
2013-05-01 20:00:00,0.00046814047
2013-05-01 21:00:00,0.0004343756
2013-05-01 22:00:00,0.0004693244
2013-05-01 23:00:00,0.00023326672
2013-05-02 00:00:00,0.00022938511
2013-05-02 01:00:00,0.0003293166
2013-05-02 02:00:00,0.00058798864
2013-05-02 03:00:00,0.00045739696
2013-05-02 04:00:00,0.00021992899
2013-05-02 05:00:00,0.0001435139
2013-05-02 06:00:00,0.000103846905
2013-05-02 07:00:00,0.00013342
2013-05-02 08:00:00,7.196881e-05
2013-05-02 09:00:00,0.00021499285
2013-05-02 10:00:00,2.0479449e-05
2013-05-02 11:00:00,6.1974584e-05
2013-05-02 12:00:00,4.852035e-05
2013-05-02 13:00:00,0.00012408971
2013-05-02 14:00:00,0.00018778161
2013-05-02 15:00:00,0.00025001052
2013-05-02 16:00:00,7.704616e-05
2013-05-02 17:00:00,3.5201316e-05
2013-05-02 18:00:00,5.8472942e-05
2013-05-02 19:00:00,5.5571854e-06
2013-05-02 20:00:00,5.264702e-06
2013-05-02 21:00:00,0.0
2013-05-02 22:00:00,1.7549e-06
2013-05-02 23:00:00,4.6233545e-05
2013-05-03 00:00:00,4.4285538e-05
2013-05-03 01:00:00,6.432885e-05
2013-05-03 02:00:00,3.6897225e-05
2013-05-03 03:00:00,8.774504e-07
2013-05-03 04:00:00,1.1699331e-06
2013-05-03 05:00:00,2.339867e-06
2013-05-03 06:00:00,3.509801e-06
2013-05-03 07:00:00,0.0
2013-05-03 08:00:00,0.0
2013-05-03 09:00:00,0.0
2013-05-03 10:00:00,2.8122435e-05
2013-05-03 11:00:00,7.596639e-06
2013-05-03 12:00:00,6.312676e-07
2013-05-03 13:00:00,9.642016e-06
2013-05-03 14:00:00,3.356267e-05
2013-05-03 15:00:00,2.0977473e-05
2013-05-03 16:00:00,9.770465e-06
2013-05-03 17:00:00,0.0
2013-05-03 18:00:00,0.0
2013-05-03 19:00:00,0.0
2013-05-03 20:00:00,0.0
2013-05-03 21:00:00,0.0
2013-05-03 22:00:00,0.0
2013-05-03 23:00:00,
2013-05-04 00:00:00,
2013-05-04 01:00:00,
2013-05-04 02:00:00,
2013-05-04 03:00:00,
2013-05-04 04:00:00,
2013-05-04 05:00:00,
2013-05-04 06:00:00,
