{
    "Countrycode": "BE",
    "Namespace": "BE.CELINE-IRCEL.AQ",
    "AirQualityNetwork": "NET-Brussels",
    "AirQualityStation": "STA-BETR001",
    "SamplingProcess": "SPP-BETR001_00010_2",
    "SamplingPoint": "SPO-BETR001_00010_100",
    "Sample": "SAM-BETR001_00010",
    "AirPollutantCode": "http://dd.eionet.europa.eu/vocabulary/aq/pollutant/10",
    "AirPollutant": "CO"
}