{
    "Countrycode": "BE",
    "Namespace": "BE.CELINE-IRCEL.AQ",
    "AirQualityNetwork": "NET-Brussels",
    "AirQualityStation": "STA-BETR001",
    "SamplingProcess": "SPP-BETR001_06001_2",
    "SamplingPoint": "SPO-BETR001_06001_100",
    "Sample": "SAM-BETR001_06001",
    "AirPollutantCode": "http://dd.eionet.europa.eu/vocabulary/aq/pollutant/6001",
    "AirPollutant": "PM2.5"
}