{
    "Countrycode": "BE",
    "Namespace": "BE.CELINE-IRCEL.AQ",
    "AirQualityNetwork": "NET-Brussels",
    "AirQualityStation": "STA-BETR001",
    "SamplingProcess": "SPP-BETR001_00007_1",
    "SamplingPoint": "SPO-BETR001_00007_100",
    "Sample": "nan",
    "AirPollutantCode": "http://dd.eionet.europa.eu/vocabulary/aq/pollutant/7",
    "AirPollutant": "O3"
}