{
    "Countrycode": "BE",
    "Namespace": "BE.CELINE-IRCEL.AQ",
    "AirQualityNetwork": "NET-Brussels",
    "AirQualityStation": "STA-BETR001",
    "SamplingProcess": "SPP-BETR001_00001_1",
    "SamplingPoint": "SPO-BETR001_00001_100",
    "Sample": "SAM-BETR001_00001",
    "AirPollutantCode": "http://dd.eionet.europa.eu/vocabulary/aq/pollutant/1",
    "AirPollutant": "SO2"
}