Feature,corr_test,val_corr,boruta_shap
d2m_avg_N,True,0.9422519607812749,1.0
t2m_avg_N,True,0.9888166976348371,1.0
evabs_avg_N,True,0.5969976746579289,
pev_avg_N,True,0.8863634346425424,-1.0
ro_avg_N,True,-0.22618633749391825,
e_avg_N,True,0.852571648579605,-1.0
slhf_avg_N,False,0.8524062842742645,
ssr_avg_N,True,0.5404155888667181,
str_avg_N,True,0.2236531003310541,
sp_avg_N,True,0.8846179578041643,1.0
sshf_avg_N,True,0.9733082750348425,1.0
ssrd_avg_N,False,0.5198768297694896,
strd_avg_N,True,0.9061834640412586,1.0
tp_avg_N,True,0.9032391893445042,1.0
blh_avg_N,True,0.9710678469569982,1.0
lcc_avg_N,True,0.7734419044184523,-1.0
hcc_avg_N,True,0.41948767272869103,
mcc_avg_N,True,0.8486808708010914,1.0
tcc_avg_N,True,0.5184515664498414,-1.0
wsp_avg_N,True,0.9825680044631963,1.0
wdirsin_avg_N,True,0.9231132475702716,1.0
wdircos_avg_N,True,0.9564148827554139,1.0
rh_avg_N,True,0.7401135037107694,
t2m_DIFF_N,True,0.5455134040179699,1.0
t2m_MAX_N,True,0.8892467925687512,-1.0
rh_MIN_N,True,0.4035372546569045,1.0
weeklysin,True,0.33778995669592066,-1.0
weeklycos,True,0.18312769660286807,-1.0
yearlysin,True,0.6204985332499146,1.0
yearlycos,True,0.49360416995750583,-1.0
workday,True,1.0,-1.0
DoW,True,0.3377899566959206,-1.0
SO2_MA24_18,True,-0.4644615303527067,-1.0
NO2_MA24_18,True,0.9394463435909295,1.0
CO_MA24_18,True,0.8759084100841377,1.0
O3_MA24_18,True,0.9340624371003927,-1.0
PM2.5_MA24_18,False,0.9761348964268804,1.0
PM10_MA24_18,False,0.9778219715423633,1.0
SO2_MAX24_18,True,-0.9137592066664706,-1.0
NO2_MAX24_18,True,0.8948818873308277,0.0
CO_MAX24_18,True,0.8816918707014985,-1.0
O3_MAX24_18,True,0.9471085862882911,-1.0
PM2.5_MAX24_18,True,0.9655279839835239,1.0
PM10_MAX24_18,True,0.9579325437924792,1.0
t2m_MAX24_18,True,0.875412051798341,0.0
hs_MIN24_18,True,0.12297454677314544,-1.0
SO2_6,True,-0.9937248524343633,-1.0
NO2_6,True,0.7795532223394995,1.0
CO_6,True,0.8893147040457914,-1.0
O3_6,True,0.9232378250962231,-1.0
PM2.5_6,True,0.9286947964332692,0.0
PM10_6,False,0.9478898218204899,-1.0
SO2_12,True,-0.06094421711012541,-1.0
NO2_12,True,0.8966907771718862,1.0
CO_12,True,0.8881956811663972,-1.0
O3_12,True,0.8530547512316871,-1.0
PM2.5_12,True,0.9847598025695733,1.0
PM10_12,False,0.9804354943019136,0.0
SO2_18,True,-0.9457698532259553,-1.0
NO2_18,True,0.9564445287966743,1.0
CO_18,True,0.8285140924965086,0.0
O3_18,True,0.9238229714566181,-1.0
PM2.5_18,True,0.9806671513737255,1.0
PM10_18,True,0.9837351857326134,1.0
SO2_0,True,-0.523943211483398,-1.0
NO2_0,True,0.9468675594329183,1.0
CO_0,True,0.9151170853538244,-1.0
O3_0,True,0.905847203143475,-1.0
PM2.5_0,True,0.9487011913786395,1.0
PM10_0,True,0.9504656652220889,-1.0
wsp_MA24_18,True,0.9538928835716902,1.0
t2m_DIFF24_18,True,0.3618074209728231,-1.0
