Feature,corr_test,val_corr,boruta_shap,boruta_gini
d2m_avg_N,True,0.8812320158536352,1.0,0.0
t2m_avg_N,True,0.9134937684929594,1.0,1.0
evabs_avg_N,True,0.09113957327200761,,
pev_avg_N,True,0.8462614839544916,-1.0,-1.0
ro_avg_N,True,-0.5202644980380629,,
e_avg_N,True,0.7520069071879697,-1.0,-1.0
slhf_avg_N,False,0.7411596433033643,,
ssr_avg_N,True,-0.1435839754548344,,
str_avg_N,True,0.48484504122509414,,
sp_avg_N,True,0.6538828948128167,-1.0,-1.0
sshf_avg_N,True,0.9417858323314006,1.0,1.0
ssrd_avg_N,False,-7.019924032437932e-05,,
strd_avg_N,True,0.7284646333808228,1.0,1.0
tp_avg_N,True,0.7275941066677787,1.0,-1.0
blh_avg_N,True,0.9541366507741008,1.0,1.0
lcc_avg_N,True,0.8422087500066512,-1.0,-1.0
hcc_avg_N,True,0.6080145041924935,,
mcc_avg_N,True,0.7987273146891161,1.0,-1.0
tcc_avg_N,True,0.8727972422142042,-1.0,-1.0
wsp_avg_N,True,0.976535355310453,1.0,1.0
wdirsin_avg_N,True,0.9382797101577819,1.0,1.0
wdircos_avg_N,True,0.8905578027415133,1.0,1.0
rh_avg_N,True,0.7110375920657197,,
t2m_DIFF_N,True,0.24540372668131746,1.0,-1.0
t2m_MAX_N,True,0.8650913684044774,-1.0,-1.0
rh_MIN_N,True,0.6866056813556569,-1.0,-1.0
weeklysin,True,-0.26428896126472506,-1.0,-1.0
weeklycos,True,0.16183374521590807,-1.0,-1.0
yearlysin,True,0.5897014750370394,1.0,-1.0
yearlycos,True,0.21163420799215543,-1.0,-1.0
workday,True,1.0,-1.0,-1.0
DoW,True,-0.26428896126472495,-1.0,-1.0
SO2_MA24_18,True,-0.15763173618812384,-1.0,-1.0
NO2_MA24_18,True,0.9268641191143928,1.0,1.0
CO_MA24_18,True,0.8712815441226676,-1.0,-1.0
O3_MA24_18,True,0.8942497972189908,-1.0,-1.0
PM2.5_MA24_18,True,0.9461134484023279,1.0,1.0
PM10_MA24_18,True,0.9391621863256122,-1.0,-1.0
SO2_MAX24_18,True,0.7428075219114578,-1.0,-1.0
NO2_MAX24_18,True,0.861876468752614,1.0,-1.0
CO_MAX24_18,True,0.8797475464033603,-1.0,-1.0
O3_MAX24_18,True,0.7829830375597019,-1.0,-1.0
PM2.5_MAX24_18,True,0.9554958660748931,1.0,1.0
PM10_MAX24_18,True,0.9578278876448075,0.0,-1.0
t2m_MAX24_18,True,0.7396312280200671,-1.0,-1.0
hs_MIN24_18,True,-0.04932411586378606,-1.0,-1.0
SO2_6,True,-0.13383336148949554,-1.0,-1.0
NO2_6,True,0.9150168324197211,0.0,1.0
CO_6,True,0.9344385419310269,-1.0,-1.0
O3_6,True,0.8959273038355104,-1.0,-1.0
PM2.5_6,True,0.9598783203033083,1.0,-1.0
PM10_6,True,0.9481174156150693,-1.0,-1.0
SO2_12,True,0.515642069959552,0.0,-1.0
NO2_12,True,0.9501850506978714,1.0,0.0
CO_12,True,0.8730620111233415,-1.0,-1.0
O3_12,True,0.8899022775396429,-1.0,-1.0
PM2.5_12,True,0.9371151371146466,1.0,1.0
PM10_12,True,0.9575647619429292,-1.0,-1.0
SO2_18,True,0.017714004299203903,-1.0,-1.0
NO2_18,True,0.8615563493996247,1.0,1.0
CO_18,True,0.8974677568379987,-1.0,-1.0
O3_18,True,0.7512751548451039,-1.0,-1.0
PM2.5_18,True,0.9438565078954001,1.0,1.0
PM10_18,True,0.9583267769749736,1.0,1.0
SO2_0,True,0.12540764947075986,-1.0,-1.0
NO2_0,True,0.9365495908459931,-1.0,-1.0
CO_0,True,0.8656822443924767,1.0,-1.0
O3_0,True,0.6782274499900468,-1.0,-1.0
PM2.5_0,True,0.9095610757955793,-1.0,0.0
PM10_0,True,0.9341909181609792,-1.0,1.0
wsp_MA24_18,True,0.8474288280424417,1.0,-1.0
t2m_DIFF24_18,True,0.2017271637609196,-1.0,-1.0
